EESchema Schematic File Version 4
LIBS:Control_Cerraduras-cache
EELAYER 26 0
EELAYER END
$Descr A4 11693 8268
encoding utf-8
Sheet 3 4
Title ""
Date ""
Rev ""
Comp ""
Comment1 ""
Comment2 ""
Comment3 ""
Comment4 ""
$EndDescr
$Comp
L power:Earth #PWR?
U 1 1 5DC4610B
P 4325 3200
AR Path="/5DC4610B" Ref="#PWR?"  Part="1" 
AR Path="/5DC45DB1/5DC4610B" Ref="#PWR?"  Part="1" 
AR Path="/5DCB31E2/5DC4610B" Ref="#PWR099"  Part="1" 
F 0 "#PWR099" H 4325 2950 50  0001 C CNN
F 1 "Earth" H 4325 3050 50  0001 C CNN
F 2 "" H 4325 3200 50  0001 C CNN
F 3 "~" H 4325 3200 50  0001 C CNN
	1    4325 3200
	1    0    0    -1  
$EndComp
$Comp
L power:+12V #PWR?
U 1 1 5DC46118
P 5475 2150
AR Path="/5DC46118" Ref="#PWR?"  Part="1" 
AR Path="/5DC45DB1/5DC46118" Ref="#PWR?"  Part="1" 
AR Path="/5DCB31E2/5DC46118" Ref="#PWR0103"  Part="1" 
F 0 "#PWR0103" H 5475 2000 50  0001 C CNN
F 1 "+12V" H 5490 2323 50  0000 C CNN
F 2 "" H 5475 2150 50  0001 C CNN
F 3 "" H 5475 2150 50  0001 C CNN
	1    5475 2150
	1    0    0    -1  
$EndComp
$Comp
L power:+3.3V #PWR?
U 1 1 5DC47521
P 1325 1625
AR Path="/5DC47521" Ref="#PWR?"  Part="1" 
AR Path="/5DC45DB1/5DC47521" Ref="#PWR?"  Part="1" 
AR Path="/5DCB31E2/5DC47521" Ref="#PWR081"  Part="1" 
F 0 "#PWR081" H 1325 1475 50  0001 C CNN
F 1 "+3.3V" H 1340 1798 50  0000 C CNN
F 2 "" H 1325 1625 50  0001 C CNN
F 3 "" H 1325 1625 50  0001 C CNN
	1    1325 1625
	1    0    0    -1  
$EndComp
$Comp
L Device:R R?
U 1 1 5E14D519
P 2925 1900
AR Path="/5E14D519" Ref="R?"  Part="1" 
AR Path="/5DC45DB1/5E14D519" Ref="R?"  Part="1" 
AR Path="/5DCB31E2/5E14D519" Ref="R46"  Part="1" 
F 0 "R46" V 2718 1900 50  0000 C CNN
F 1 "470" V 2809 1900 50  0000 C CNN
F 2 "lib_fp:R_0603" V 2855 1900 50  0001 C CNN
F 3 "~" H 2925 1900 50  0001 C CNN
	1    2925 1900
	0    1    1    0   
$EndComp
Wire Wire Line
	2525 1900 2775 1900
$Comp
L power:+12V #PWR?
U 1 1 5DC4752F
P 2625 1625
AR Path="/5DC4752F" Ref="#PWR?"  Part="1" 
AR Path="/5DC45DB1/5DC4752F" Ref="#PWR?"  Part="1" 
AR Path="/5DCB31E2/5DC4752F" Ref="#PWR089"  Part="1" 
F 0 "#PWR089" H 2625 1475 50  0001 C CNN
F 1 "+12V" H 2640 1798 50  0000 C CNN
F 2 "" H 2625 1625 50  0001 C CNN
F 3 "" H 2625 1625 50  0001 C CNN
	1    2625 1625
	1    0    0    -1  
$EndComp
Wire Wire Line
	2525 1700 2625 1700
$Comp
L Device:R R?
U 1 1 5DC47537
P 1625 1700
AR Path="/5DC47537" Ref="R?"  Part="1" 
AR Path="/5DC45DB1/5DC47537" Ref="R?"  Part="1" 
AR Path="/5DCB31E2/5DC47537" Ref="R38"  Part="1" 
F 0 "R38" V 1832 1700 50  0000 C CNN
F 1 "470" V 1741 1700 50  0000 C CNN
F 2 "lib_fp:R_0603" V 1555 1700 50  0001 C CNN
F 3 "~" H 1625 1700 50  0001 C CNN
	1    1625 1700
	0    -1   -1   0   
$EndComp
Wire Wire Line
	1925 1700 1775 1700
Wire Wire Line
	1325 1625 1325 1700
Text HLabel 1175 1900 0    50   Input ~ 0
IN_1
Wire Wire Line
	1475 1700 1325 1700
Wire Wire Line
	2625 1700 2625 1625
Wire Wire Line
	1925 1900 1175 1900
$Comp
L power:+3.3V #PWR?
U 1 1 5E14D4FB
P 1325 2175
AR Path="/5E14D4FB" Ref="#PWR?"  Part="1" 
AR Path="/5DC45DB1/5E14D4FB" Ref="#PWR?"  Part="1" 
AR Path="/5DCB31E2/5E14D4FB" Ref="#PWR082"  Part="1" 
F 0 "#PWR082" H 1325 2025 50  0001 C CNN
F 1 "+3.3V" H 1340 2348 50  0000 C CNN
F 2 "" H 1325 2175 50  0001 C CNN
F 3 "" H 1325 2175 50  0001 C CNN
	1    1325 2175
	1    0    0    -1  
$EndComp
$Comp
L Device:R R?
U 1 1 5E14D4FC
P 2925 2450
AR Path="/5E14D4FC" Ref="R?"  Part="1" 
AR Path="/5DC45DB1/5E14D4FC" Ref="R?"  Part="1" 
AR Path="/5DCB31E2/5E14D4FC" Ref="R47"  Part="1" 
F 0 "R47" V 2718 2450 50  0000 C CNN
F 1 "470" V 2809 2450 50  0000 C CNN
F 2 "lib_fp:R_0603" V 2855 2450 50  0001 C CNN
F 3 "~" H 2925 2450 50  0001 C CNN
	1    2925 2450
	0    1    1    0   
$EndComp
Wire Wire Line
	2525 2450 2775 2450
$Comp
L power:+12V #PWR?
U 1 1 5E14D4FD
P 2625 2175
AR Path="/5E14D4FD" Ref="#PWR?"  Part="1" 
AR Path="/5DC45DB1/5E14D4FD" Ref="#PWR?"  Part="1" 
AR Path="/5DCB31E2/5E14D4FD" Ref="#PWR090"  Part="1" 
F 0 "#PWR090" H 2625 2025 50  0001 C CNN
F 1 "+12V" H 2640 2348 50  0000 C CNN
F 2 "" H 2625 2175 50  0001 C CNN
F 3 "" H 2625 2175 50  0001 C CNN
	1    2625 2175
	1    0    0    -1  
$EndComp
Wire Wire Line
	2525 2250 2625 2250
$Comp
L Device:R R?
U 1 1 5E14D4FE
P 1625 2250
AR Path="/5E14D4FE" Ref="R?"  Part="1" 
AR Path="/5DC45DB1/5E14D4FE" Ref="R?"  Part="1" 
AR Path="/5DCB31E2/5E14D4FE" Ref="R39"  Part="1" 
F 0 "R39" V 1832 2250 50  0000 C CNN
F 1 "470" V 1741 2250 50  0000 C CNN
F 2 "lib_fp:R_0603" V 1555 2250 50  0001 C CNN
F 3 "~" H 1625 2250 50  0001 C CNN
	1    1625 2250
	0    -1   -1   0   
$EndComp
Wire Wire Line
	1925 2250 1775 2250
Wire Wire Line
	1325 2175 1325 2250
Text HLabel 1175 2450 0    50   Input ~ 0
IN_2
Wire Wire Line
	1475 2250 1325 2250
Wire Wire Line
	2625 2250 2625 2175
Wire Wire Line
	1925 2450 1175 2450
$Comp
L power:+3.3V #PWR?
U 1 1 5DF68A54
P 1325 2725
AR Path="/5DF68A54" Ref="#PWR?"  Part="1" 
AR Path="/5DC45DB1/5DF68A54" Ref="#PWR?"  Part="1" 
AR Path="/5DCB31E2/5DF68A54" Ref="#PWR083"  Part="1" 
F 0 "#PWR083" H 1325 2575 50  0001 C CNN
F 1 "+3.3V" H 1340 2898 50  0000 C CNN
F 2 "" H 1325 2725 50  0001 C CNN
F 3 "" H 1325 2725 50  0001 C CNN
	1    1325 2725
	1    0    0    -1  
$EndComp
$Comp
L Device:R R?
U 1 1 5DC4BED9
P 2925 3000
AR Path="/5DC4BED9" Ref="R?"  Part="1" 
AR Path="/5DC45DB1/5DC4BED9" Ref="R?"  Part="1" 
AR Path="/5DCB31E2/5DC4BED9" Ref="R48"  Part="1" 
F 0 "R48" V 2718 3000 50  0000 C CNN
F 1 "470" V 2809 3000 50  0000 C CNN
F 2 "lib_fp:R_0603" V 2855 3000 50  0001 C CNN
F 3 "~" H 2925 3000 50  0001 C CNN
	1    2925 3000
	0    1    1    0   
$EndComp
Wire Wire Line
	2525 3000 2775 3000
$Comp
L power:+12V #PWR?
U 1 1 5DF68A56
P 2625 2725
AR Path="/5DF68A56" Ref="#PWR?"  Part="1" 
AR Path="/5DC45DB1/5DF68A56" Ref="#PWR?"  Part="1" 
AR Path="/5DCB31E2/5DF68A56" Ref="#PWR091"  Part="1" 
F 0 "#PWR091" H 2625 2575 50  0001 C CNN
F 1 "+12V" H 2640 2898 50  0000 C CNN
F 2 "" H 2625 2725 50  0001 C CNN
F 3 "" H 2625 2725 50  0001 C CNN
	1    2625 2725
	1    0    0    -1  
$EndComp
Wire Wire Line
	2525 2800 2625 2800
$Comp
L Device:R R?
U 1 1 5DF68A57
P 1625 2800
AR Path="/5DF68A57" Ref="R?"  Part="1" 
AR Path="/5DC45DB1/5DF68A57" Ref="R?"  Part="1" 
AR Path="/5DCB31E2/5DF68A57" Ref="R40"  Part="1" 
F 0 "R40" V 1832 2800 50  0000 C CNN
F 1 "470" V 1741 2800 50  0000 C CNN
F 2 "lib_fp:R_0603" V 1555 2800 50  0001 C CNN
F 3 "~" H 1625 2800 50  0001 C CNN
	1    1625 2800
	0    -1   -1   0   
$EndComp
Wire Wire Line
	1925 2800 1775 2800
Wire Wire Line
	1325 2725 1325 2800
Text HLabel 1175 3000 0    50   Input ~ 0
IN_3
Wire Wire Line
	1475 2800 1325 2800
Wire Wire Line
	2625 2800 2625 2725
Wire Wire Line
	1925 3000 1175 3000
$Comp
L power:+3.3V #PWR?
U 1 1 5DF68A59
P 1325 3275
AR Path="/5DF68A59" Ref="#PWR?"  Part="1" 
AR Path="/5DC45DB1/5DF68A59" Ref="#PWR?"  Part="1" 
AR Path="/5DCB31E2/5DF68A59" Ref="#PWR084"  Part="1" 
F 0 "#PWR084" H 1325 3125 50  0001 C CNN
F 1 "+3.3V" H 1340 3448 50  0000 C CNN
F 2 "" H 1325 3275 50  0001 C CNN
F 3 "" H 1325 3275 50  0001 C CNN
	1    1325 3275
	1    0    0    -1  
$EndComp
$Comp
L Device:R R?
U 1 1 5DF68A5A
P 2925 3550
AR Path="/5DF68A5A" Ref="R?"  Part="1" 
AR Path="/5DC45DB1/5DF68A5A" Ref="R?"  Part="1" 
AR Path="/5DCB31E2/5DF68A5A" Ref="R49"  Part="1" 
F 0 "R49" V 2718 3550 50  0000 C CNN
F 1 "470" V 2809 3550 50  0000 C CNN
F 2 "lib_fp:R_0603" V 2855 3550 50  0001 C CNN
F 3 "~" H 2925 3550 50  0001 C CNN
	1    2925 3550
	0    1    1    0   
$EndComp
Wire Wire Line
	2525 3550 2775 3550
$Comp
L power:+12V #PWR?
U 1 1 5E14D520
P 2625 3275
AR Path="/5E14D520" Ref="#PWR?"  Part="1" 
AR Path="/5DC45DB1/5E14D520" Ref="#PWR?"  Part="1" 
AR Path="/5DCB31E2/5E14D520" Ref="#PWR092"  Part="1" 
F 0 "#PWR092" H 2625 3125 50  0001 C CNN
F 1 "+12V" H 2640 3448 50  0000 C CNN
F 2 "" H 2625 3275 50  0001 C CNN
F 3 "" H 2625 3275 50  0001 C CNN
	1    2625 3275
	1    0    0    -1  
$EndComp
Wire Wire Line
	2525 3350 2625 3350
$Comp
L Device:R R?
U 1 1 5E14D521
P 1625 3350
AR Path="/5E14D521" Ref="R?"  Part="1" 
AR Path="/5DC45DB1/5E14D521" Ref="R?"  Part="1" 
AR Path="/5DCB31E2/5E14D521" Ref="R41"  Part="1" 
F 0 "R41" V 1832 3350 50  0000 C CNN
F 1 "470" V 1741 3350 50  0000 C CNN
F 2 "lib_fp:R_0603" V 1555 3350 50  0001 C CNN
F 3 "~" H 1625 3350 50  0001 C CNN
	1    1625 3350
	0    -1   -1   0   
$EndComp
Wire Wire Line
	1925 3350 1775 3350
Wire Wire Line
	1325 3275 1325 3350
Text HLabel 1175 3550 0    50   Input ~ 0
IN_4
Wire Wire Line
	1475 3350 1325 3350
Wire Wire Line
	2625 3350 2625 3275
Wire Wire Line
	1925 3550 1175 3550
Text HLabel 1175 4375 0    50   Input ~ 0
IN_5
Text HLabel 1175 4925 0    50   Input ~ 0
IN_6
Text HLabel 1175 5475 0    50   Input ~ 0
IN_7
Text HLabel 1175 6025 0    50   Input ~ 0
IN_8
Wire Wire Line
	5475 2550 5375 2550
Text Label 5475 2550 0    50   ~ 0
Cerr_9
Wire Wire Line
	5475 2650 5375 2650
Wire Wire Line
	5475 2750 5375 2750
Wire Wire Line
	5475 2850 5375 2850
$Comp
L power:+3.3V #PWR?
U 1 1 5E14D523
P 7500 700
AR Path="/5E14D523" Ref="#PWR?"  Part="1" 
AR Path="/5DC45DB1/5E14D523" Ref="#PWR?"  Part="1" 
AR Path="/5DCB31E2/5E14D523" Ref="#PWR0115"  Part="1" 
F 0 "#PWR0115" H 7500 550 50  0001 C CNN
F 1 "+3.3V" H 7515 873 50  0000 C CNN
F 2 "" H 7500 700 50  0001 C CNN
F 3 "" H 7500 700 50  0001 C CNN
	1    7500 700 
	-1   0    0    -1  
$EndComp
$Comp
L Device:R R?
U 1 1 5E14D524
P 6775 1150
AR Path="/5E14D524" Ref="R?"  Part="1" 
AR Path="/5DC45DB1/5E14D524" Ref="R?"  Part="1" 
AR Path="/5DCB31E2/5E14D524" Ref="R54"  Part="1" 
F 0 "R54" V 6568 1150 50  0000 C CNN
F 1 "10K" V 6659 1150 50  0000 C CNN
F 2 "lib_fp:R_0603" V 6705 1150 50  0001 C CNN
F 3 "~" H 6775 1150 50  0001 C CNN
	1    6775 1150
	-1   0    0    -1  
$EndComp
$Comp
L power:+12V #PWR?
U 1 1 5E14D525
P 9225 700
AR Path="/5E14D525" Ref="#PWR?"  Part="1" 
AR Path="/5DC45DB1/5E14D525" Ref="#PWR?"  Part="1" 
AR Path="/5DCB31E2/5E14D525" Ref="#PWR0123"  Part="1" 
F 0 "#PWR0123" H 9225 550 50  0001 C CNN
F 1 "+12V" H 9240 873 50  0000 C CNN
F 2 "" H 9225 700 50  0001 C CNN
F 3 "" H 9225 700 50  0001 C CNN
	1    9225 700 
	-1   0    0    -1  
$EndComp
Wire Wire Line
	7600 775  7500 775 
$Comp
L Device:R R?
U 1 1 5E14D526
P 8500 775
AR Path="/5E14D526" Ref="R?"  Part="1" 
AR Path="/5DC45DB1/5E14D526" Ref="R?"  Part="1" 
AR Path="/5DCB31E2/5E14D526" Ref="R64"  Part="1" 
F 0 "R64" V 8707 775 50  0000 C CNN
F 1 "2K2" V 8616 775 50  0000 C CNN
F 2 "lib_fp:R_0603" V 8430 775 50  0001 C CNN
F 3 "~" H 8500 775 50  0001 C CNN
	1    8500 775 
	0    1    -1   0   
$EndComp
Wire Wire Line
	8200 775  8350 775 
Wire Wire Line
	9225 700  9225 775 
Wire Wire Line
	9075 775  9225 775 
Wire Wire Line
	7500 775  7500 700 
$Comp
L power:+3.3V #PWR?
U 1 1 5DC5833E
P 7500 1450
AR Path="/5DC5833E" Ref="#PWR?"  Part="1" 
AR Path="/5DC45DB1/5DC5833E" Ref="#PWR?"  Part="1" 
AR Path="/5DCB31E2/5DC5833E" Ref="#PWR0116"  Part="1" 
F 0 "#PWR0116" H 7500 1300 50  0001 C CNN
F 1 "+3.3V" H 7515 1623 50  0000 C CNN
F 2 "" H 7500 1450 50  0001 C CNN
F 3 "" H 7500 1450 50  0001 C CNN
	1    7500 1450
	-1   0    0    -1  
$EndComp
$Comp
L power:+12V #PWR?
U 1 1 5E14D527
P 9225 1450
AR Path="/5E14D527" Ref="#PWR?"  Part="1" 
AR Path="/5DC45DB1/5E14D527" Ref="#PWR?"  Part="1" 
AR Path="/5DCB31E2/5E14D527" Ref="#PWR0124"  Part="1" 
F 0 "#PWR0124" H 9225 1300 50  0001 C CNN
F 1 "+12V" H 9240 1623 50  0000 C CNN
F 2 "" H 9225 1450 50  0001 C CNN
F 3 "" H 9225 1450 50  0001 C CNN
	1    9225 1450
	-1   0    0    -1  
$EndComp
Wire Wire Line
	7600 1525 7500 1525
$Comp
L Device:R R?
U 1 1 5E14D528
P 8500 1525
AR Path="/5E14D528" Ref="R?"  Part="1" 
AR Path="/5DC45DB1/5E14D528" Ref="R?"  Part="1" 
AR Path="/5DCB31E2/5E14D528" Ref="R65"  Part="1" 
F 0 "R65" V 8707 1525 50  0000 C CNN
F 1 "2K2" V 8616 1525 50  0000 C CNN
F 2 "lib_fp:R_0603" V 8430 1525 50  0001 C CNN
F 3 "~" H 8500 1525 50  0001 C CNN
	1    8500 1525
	0    1    -1   0   
$EndComp
Wire Wire Line
	8200 1525 8350 1525
Wire Wire Line
	9225 1450 9225 1525
Wire Wire Line
	9075 1525 9225 1525
Wire Wire Line
	7500 1525 7500 1450
$Comp
L power:+3.3V #PWR?
U 1 1 5DF68A7B
P 7500 2225
AR Path="/5DF68A7B" Ref="#PWR?"  Part="1" 
AR Path="/5DC45DB1/5DF68A7B" Ref="#PWR?"  Part="1" 
AR Path="/5DCB31E2/5DF68A7B" Ref="#PWR0117"  Part="1" 
F 0 "#PWR0117" H 7500 2075 50  0001 C CNN
F 1 "+3.3V" H 7515 2398 50  0000 C CNN
F 2 "" H 7500 2225 50  0001 C CNN
F 3 "" H 7500 2225 50  0001 C CNN
	1    7500 2225
	-1   0    0    -1  
$EndComp
$Comp
L power:+12V #PWR?
U 1 1 5E14D52B
P 9225 2225
AR Path="/5E14D52B" Ref="#PWR?"  Part="1" 
AR Path="/5DC45DB1/5E14D52B" Ref="#PWR?"  Part="1" 
AR Path="/5DCB31E2/5E14D52B" Ref="#PWR0125"  Part="1" 
F 0 "#PWR0125" H 9225 2075 50  0001 C CNN
F 1 "+12V" H 9240 2398 50  0000 C CNN
F 2 "" H 9225 2225 50  0001 C CNN
F 3 "" H 9225 2225 50  0001 C CNN
	1    9225 2225
	-1   0    0    -1  
$EndComp
Wire Wire Line
	7600 2300 7500 2300
$Comp
L Device:R R?
U 1 1 5E14D52C
P 8500 2300
AR Path="/5E14D52C" Ref="R?"  Part="1" 
AR Path="/5DC45DB1/5E14D52C" Ref="R?"  Part="1" 
AR Path="/5DCB31E2/5E14D52C" Ref="R66"  Part="1" 
F 0 "R66" V 8707 2300 50  0000 C CNN
F 1 "2K2" V 8616 2300 50  0000 C CNN
F 2 "lib_fp:R_0603" V 8430 2300 50  0001 C CNN
F 3 "~" H 8500 2300 50  0001 C CNN
	1    8500 2300
	0    1    -1   0   
$EndComp
Wire Wire Line
	8200 2300 8350 2300
Wire Wire Line
	9225 2225 9225 2300
Wire Wire Line
	9075 2300 9225 2300
Wire Wire Line
	7500 2300 7500 2225
$Comp
L power:+3.3V #PWR?
U 1 1 5E14D504
P 7500 2975
AR Path="/5E14D504" Ref="#PWR?"  Part="1" 
AR Path="/5DC45DB1/5E14D504" Ref="#PWR?"  Part="1" 
AR Path="/5DCB31E2/5E14D504" Ref="#PWR0118"  Part="1" 
F 0 "#PWR0118" H 7500 2825 50  0001 C CNN
F 1 "+3.3V" H 7515 3148 50  0000 C CNN
F 2 "" H 7500 2975 50  0001 C CNN
F 3 "" H 7500 2975 50  0001 C CNN
	1    7500 2975
	-1   0    0    -1  
$EndComp
$Comp
L power:+12V #PWR?
U 1 1 5DF68A80
P 9225 2975
AR Path="/5DF68A80" Ref="#PWR?"  Part="1" 
AR Path="/5DC45DB1/5DF68A80" Ref="#PWR?"  Part="1" 
AR Path="/5DCB31E2/5DF68A80" Ref="#PWR0126"  Part="1" 
F 0 "#PWR0126" H 9225 2825 50  0001 C CNN
F 1 "+12V" H 9240 3148 50  0000 C CNN
F 2 "" H 9225 2975 50  0001 C CNN
F 3 "" H 9225 2975 50  0001 C CNN
	1    9225 2975
	-1   0    0    -1  
$EndComp
Wire Wire Line
	7600 3050 7500 3050
$Comp
L Device:R R?
U 1 1 5E14D52E
P 8500 3050
AR Path="/5E14D52E" Ref="R?"  Part="1" 
AR Path="/5DC45DB1/5E14D52E" Ref="R?"  Part="1" 
AR Path="/5DCB31E2/5E14D52E" Ref="R67"  Part="1" 
F 0 "R67" V 8707 3050 50  0000 C CNN
F 1 "2K2" V 8616 3050 50  0000 C CNN
F 2 "lib_fp:R_0603" V 8430 3050 50  0001 C CNN
F 3 "~" H 8500 3050 50  0001 C CNN
	1    8500 3050
	0    1    -1   0   
$EndComp
Wire Wire Line
	8200 3050 8350 3050
Wire Wire Line
	9225 2975 9225 3050
Wire Wire Line
	9075 3050 9225 3050
Wire Wire Line
	7500 3050 7500 2975
$Comp
L power:+3.3V #PWR?
U 1 1 5E14D505
P 7500 3750
AR Path="/5E14D505" Ref="#PWR?"  Part="1" 
AR Path="/5DC45DB1/5E14D505" Ref="#PWR?"  Part="1" 
AR Path="/5DCB31E2/5E14D505" Ref="#PWR0119"  Part="1" 
F 0 "#PWR0119" H 7500 3600 50  0001 C CNN
F 1 "+3.3V" H 7515 3923 50  0000 C CNN
F 2 "" H 7500 3750 50  0001 C CNN
F 3 "" H 7500 3750 50  0001 C CNN
	1    7500 3750
	-1   0    0    -1  
$EndComp
$Comp
L power:+12V #PWR?
U 1 1 5DF68A84
P 9225 3750
AR Path="/5DF68A84" Ref="#PWR?"  Part="1" 
AR Path="/5DC45DB1/5DF68A84" Ref="#PWR?"  Part="1" 
AR Path="/5DCB31E2/5DF68A84" Ref="#PWR0127"  Part="1" 
F 0 "#PWR0127" H 9225 3600 50  0001 C CNN
F 1 "+12V" H 9240 3923 50  0000 C CNN
F 2 "" H 9225 3750 50  0001 C CNN
F 3 "" H 9225 3750 50  0001 C CNN
	1    9225 3750
	-1   0    0    -1  
$EndComp
Wire Wire Line
	7600 3825 7500 3825
$Comp
L Device:R R?
U 1 1 5DF68A85
P 8500 3825
AR Path="/5DF68A85" Ref="R?"  Part="1" 
AR Path="/5DC45DB1/5DF68A85" Ref="R?"  Part="1" 
AR Path="/5DCB31E2/5DF68A85" Ref="R68"  Part="1" 
F 0 "R68" V 8707 3825 50  0000 C CNN
F 1 "2K2" V 8616 3825 50  0000 C CNN
F 2 "lib_fp:R_0603" V 8430 3825 50  0001 C CNN
F 3 "~" H 8500 3825 50  0001 C CNN
	1    8500 3825
	0    1    -1   0   
$EndComp
Wire Wire Line
	8200 3825 8350 3825
Wire Wire Line
	9225 3750 9225 3825
Wire Wire Line
	9075 3825 9225 3825
Wire Wire Line
	7500 3825 7500 3750
$Comp
L power:+3.3V #PWR?
U 1 1 5DF68A87
P 7500 4500
AR Path="/5DF68A87" Ref="#PWR?"  Part="1" 
AR Path="/5DC45DB1/5DF68A87" Ref="#PWR?"  Part="1" 
AR Path="/5DCB31E2/5DF68A87" Ref="#PWR0120"  Part="1" 
F 0 "#PWR0120" H 7500 4350 50  0001 C CNN
F 1 "+3.3V" H 7515 4673 50  0000 C CNN
F 2 "" H 7500 4500 50  0001 C CNN
F 3 "" H 7500 4500 50  0001 C CNN
	1    7500 4500
	-1   0    0    -1  
$EndComp
$Comp
L power:+12V #PWR?
U 1 1 5DF68A88
P 9225 4500
AR Path="/5DF68A88" Ref="#PWR?"  Part="1" 
AR Path="/5DC45DB1/5DF68A88" Ref="#PWR?"  Part="1" 
AR Path="/5DCB31E2/5DF68A88" Ref="#PWR0128"  Part="1" 
F 0 "#PWR0128" H 9225 4350 50  0001 C CNN
F 1 "+12V" H 9240 4673 50  0000 C CNN
F 2 "" H 9225 4500 50  0001 C CNN
F 3 "" H 9225 4500 50  0001 C CNN
	1    9225 4500
	-1   0    0    -1  
$EndComp
Wire Wire Line
	7600 4575 7500 4575
$Comp
L Device:R R?
U 1 1 5DF68A89
P 8500 4575
AR Path="/5DF68A89" Ref="R?"  Part="1" 
AR Path="/5DC45DB1/5DF68A89" Ref="R?"  Part="1" 
AR Path="/5DCB31E2/5DF68A89" Ref="R69"  Part="1" 
F 0 "R69" V 8707 4575 50  0000 C CNN
F 1 "2K2" V 8616 4575 50  0000 C CNN
F 2 "lib_fp:R_0603" V 8430 4575 50  0001 C CNN
F 3 "~" H 8500 4575 50  0001 C CNN
	1    8500 4575
	0    1    -1   0   
$EndComp
Wire Wire Line
	8200 4575 8350 4575
Wire Wire Line
	9225 4500 9225 4575
Wire Wire Line
	9075 4575 9225 4575
Wire Wire Line
	7500 4575 7500 4500
$Comp
L power:+3.3V #PWR?
U 1 1 5E14D537
P 7475 5275
AR Path="/5E14D537" Ref="#PWR?"  Part="1" 
AR Path="/5DC45DB1/5E14D537" Ref="#PWR?"  Part="1" 
AR Path="/5DCB31E2/5E14D537" Ref="#PWR0113"  Part="1" 
F 0 "#PWR0113" H 7475 5125 50  0001 C CNN
F 1 "+3.3V" H 7490 5448 50  0000 C CNN
F 2 "" H 7475 5275 50  0001 C CNN
F 3 "" H 7475 5275 50  0001 C CNN
	1    7475 5275
	-1   0    0    -1  
$EndComp
$Comp
L power:+12V #PWR?
U 1 1 5E14D506
P 9200 5275
AR Path="/5E14D506" Ref="#PWR?"  Part="1" 
AR Path="/5DC45DB1/5E14D506" Ref="#PWR?"  Part="1" 
AR Path="/5DCB31E2/5E14D506" Ref="#PWR0121"  Part="1" 
F 0 "#PWR0121" H 9200 5125 50  0001 C CNN
F 1 "+12V" H 9215 5448 50  0000 C CNN
F 2 "" H 9200 5275 50  0001 C CNN
F 3 "" H 9200 5275 50  0001 C CNN
	1    9200 5275
	-1   0    0    -1  
$EndComp
Wire Wire Line
	7575 5350 7475 5350
$Comp
L Device:R R?
U 1 1 5DF68A8D
P 8475 5350
AR Path="/5DF68A8D" Ref="R?"  Part="1" 
AR Path="/5DC45DB1/5DF68A8D" Ref="R?"  Part="1" 
AR Path="/5DCB31E2/5DF68A8D" Ref="R62"  Part="1" 
F 0 "R62" V 8682 5350 50  0000 C CNN
F 1 "2K2" V 8591 5350 50  0000 C CNN
F 2 "lib_fp:R_0603" V 8405 5350 50  0001 C CNN
F 3 "~" H 8475 5350 50  0001 C CNN
	1    8475 5350
	0    1    -1   0   
$EndComp
Wire Wire Line
	8175 5350 8325 5350
Wire Wire Line
	9200 5275 9200 5350
Wire Wire Line
	9050 5350 9200 5350
Wire Wire Line
	7475 5350 7475 5275
$Comp
L power:+3.3V #PWR?
U 1 1 5DF68A8F
P 7475 6025
AR Path="/5DF68A8F" Ref="#PWR?"  Part="1" 
AR Path="/5DC45DB1/5DF68A8F" Ref="#PWR?"  Part="1" 
AR Path="/5DCB31E2/5DF68A8F" Ref="#PWR0114"  Part="1" 
F 0 "#PWR0114" H 7475 5875 50  0001 C CNN
F 1 "+3.3V" H 7490 6198 50  0000 C CNN
F 2 "" H 7475 6025 50  0001 C CNN
F 3 "" H 7475 6025 50  0001 C CNN
	1    7475 6025
	-1   0    0    -1  
$EndComp
$Comp
L power:+12V #PWR?
U 1 1 5DF68A90
P 9200 6025
AR Path="/5DF68A90" Ref="#PWR?"  Part="1" 
AR Path="/5DC45DB1/5DF68A90" Ref="#PWR?"  Part="1" 
AR Path="/5DCB31E2/5DF68A90" Ref="#PWR0122"  Part="1" 
F 0 "#PWR0122" H 9200 5875 50  0001 C CNN
F 1 "+12V" H 9215 6198 50  0000 C CNN
F 2 "" H 9200 6025 50  0001 C CNN
F 3 "" H 9200 6025 50  0001 C CNN
	1    9200 6025
	-1   0    0    -1  
$EndComp
Wire Wire Line
	7575 6100 7475 6100
$Comp
L Device:R R?
U 1 1 5E14D53C
P 8475 6100
AR Path="/5E14D53C" Ref="R?"  Part="1" 
AR Path="/5DC45DB1/5E14D53C" Ref="R?"  Part="1" 
AR Path="/5DCB31E2/5E14D53C" Ref="R63"  Part="1" 
F 0 "R63" V 8682 6100 50  0000 C CNN
F 1 "2K2" V 8591 6100 50  0000 C CNN
F 2 "lib_fp:R_0603" V 8405 6100 50  0001 C CNN
F 3 "~" H 8475 6100 50  0001 C CNN
	1    8475 6100
	0    1    -1   0   
$EndComp
Wire Wire Line
	8175 6100 8325 6100
Wire Wire Line
	9200 6025 9200 6100
Wire Wire Line
	9050 6100 9200 6100
Wire Wire Line
	7475 6100 7475 6025
$Comp
L power:+12V #PWR?
U 1 1 5E14D50B
P 9625 700
AR Path="/5E14D50B" Ref="#PWR?"  Part="1" 
AR Path="/5DC45DB1/5E14D50B" Ref="#PWR?"  Part="1" 
AR Path="/5DCB31E2/5E14D50B" Ref="#PWR0133"  Part="1" 
F 0 "#PWR0133" H 9625 550 50  0001 C CNN
F 1 "+12V" H 9640 873 50  0000 C CNN
F 2 "" H 9625 700 50  0001 C CNN
F 3 "" H 9625 700 50  0001 C CNN
	1    9625 700 
	-1   0    0    -1  
$EndComp
Wire Wire Line
	9625 700  9625 775 
$Comp
L power:Earth #PWR?
U 1 1 5E14D50C
P 9625 1125
AR Path="/5E14D50C" Ref="#PWR?"  Part="1" 
AR Path="/5DC45DB1/5E14D50C" Ref="#PWR?"  Part="1" 
AR Path="/5DCB31E2/5E14D50C" Ref="#PWR0134"  Part="1" 
F 0 "#PWR0134" H 9625 875 50  0001 C CNN
F 1 "Earth" H 9625 975 50  0001 C CNN
F 2 "" H 9625 1125 50  0001 C CNN
F 3 "~" H 9625 1125 50  0001 C CNN
	1    9625 1125
	1    0    0    -1  
$EndComp
Wire Wire Line
	9625 1125 9625 1075
$Comp
L power:+12V #PWR?
U 1 1 5E14D549
P 9625 1450
AR Path="/5E14D549" Ref="#PWR?"  Part="1" 
AR Path="/5DC45DB1/5E14D549" Ref="#PWR?"  Part="1" 
AR Path="/5DCB31E2/5E14D549" Ref="#PWR0135"  Part="1" 
F 0 "#PWR0135" H 9625 1300 50  0001 C CNN
F 1 "+12V" H 9640 1623 50  0000 C CNN
F 2 "" H 9625 1450 50  0001 C CNN
F 3 "" H 9625 1450 50  0001 C CNN
	1    9625 1450
	-1   0    0    -1  
$EndComp
Wire Wire Line
	9625 1450 9625 1525
$Comp
L power:Earth #PWR?
U 1 1 5DF68AA6
P 9625 1875
AR Path="/5DF68AA6" Ref="#PWR?"  Part="1" 
AR Path="/5DC45DB1/5DF68AA6" Ref="#PWR?"  Part="1" 
AR Path="/5DCB31E2/5DF68AA6" Ref="#PWR0136"  Part="1" 
F 0 "#PWR0136" H 9625 1625 50  0001 C CNN
F 1 "Earth" H 9625 1725 50  0001 C CNN
F 2 "" H 9625 1875 50  0001 C CNN
F 3 "~" H 9625 1875 50  0001 C CNN
	1    9625 1875
	1    0    0    -1  
$EndComp
Wire Wire Line
	9625 1875 9625 1825
$Comp
L power:+12V #PWR?
U 1 1 5DF68AA8
P 9625 2225
AR Path="/5DF68AA8" Ref="#PWR?"  Part="1" 
AR Path="/5DC45DB1/5DF68AA8" Ref="#PWR?"  Part="1" 
AR Path="/5DCB31E2/5DF68AA8" Ref="#PWR0137"  Part="1" 
F 0 "#PWR0137" H 9625 2075 50  0001 C CNN
F 1 "+12V" H 9640 2398 50  0000 C CNN
F 2 "" H 9625 2225 50  0001 C CNN
F 3 "" H 9625 2225 50  0001 C CNN
	1    9625 2225
	-1   0    0    -1  
$EndComp
Wire Wire Line
	9625 2225 9625 2300
$Comp
L power:Earth #PWR?
U 1 1 5DF68AA9
P 9625 2650
AR Path="/5DF68AA9" Ref="#PWR?"  Part="1" 
AR Path="/5DC45DB1/5DF68AA9" Ref="#PWR?"  Part="1" 
AR Path="/5DCB31E2/5DF68AA9" Ref="#PWR0138"  Part="1" 
F 0 "#PWR0138" H 9625 2400 50  0001 C CNN
F 1 "Earth" H 9625 2500 50  0001 C CNN
F 2 "" H 9625 2650 50  0001 C CNN
F 3 "~" H 9625 2650 50  0001 C CNN
	1    9625 2650
	1    0    0    -1  
$EndComp
Wire Wire Line
	9625 2650 9625 2600
$Comp
L power:+12V #PWR?
U 1 1 5E14D54F
P 9625 2975
AR Path="/5E14D54F" Ref="#PWR?"  Part="1" 
AR Path="/5DC45DB1/5E14D54F" Ref="#PWR?"  Part="1" 
AR Path="/5DCB31E2/5E14D54F" Ref="#PWR0139"  Part="1" 
F 0 "#PWR0139" H 9625 2825 50  0001 C CNN
F 1 "+12V" H 9640 3148 50  0000 C CNN
F 2 "" H 9625 2975 50  0001 C CNN
F 3 "" H 9625 2975 50  0001 C CNN
	1    9625 2975
	-1   0    0    -1  
$EndComp
Wire Wire Line
	9625 2975 9625 3050
$Comp
L power:Earth #PWR?
U 1 1 5E14D50E
P 9625 3400
AR Path="/5E14D50E" Ref="#PWR?"  Part="1" 
AR Path="/5DC45DB1/5E14D50E" Ref="#PWR?"  Part="1" 
AR Path="/5DCB31E2/5E14D50E" Ref="#PWR0140"  Part="1" 
F 0 "#PWR0140" H 9625 3150 50  0001 C CNN
F 1 "Earth" H 9625 3250 50  0001 C CNN
F 2 "" H 9625 3400 50  0001 C CNN
F 3 "~" H 9625 3400 50  0001 C CNN
	1    9625 3400
	1    0    0    -1  
$EndComp
Wire Wire Line
	9625 3400 9625 3350
$Comp
L power:+12V #PWR?
U 1 1 5DD95C90
P 9625 3750
AR Path="/5DD95C90" Ref="#PWR?"  Part="1" 
AR Path="/5DC45DB1/5DD95C90" Ref="#PWR?"  Part="1" 
AR Path="/5DCB31E2/5DD95C90" Ref="#PWR0141"  Part="1" 
F 0 "#PWR0141" H 9625 3600 50  0001 C CNN
F 1 "+12V" H 9640 3923 50  0000 C CNN
F 2 "" H 9625 3750 50  0001 C CNN
F 3 "" H 9625 3750 50  0001 C CNN
	1    9625 3750
	-1   0    0    -1  
$EndComp
Wire Wire Line
	9625 3750 9625 3825
$Comp
L power:Earth #PWR?
U 1 1 5E14D551
P 9625 4175
AR Path="/5E14D551" Ref="#PWR?"  Part="1" 
AR Path="/5DC45DB1/5E14D551" Ref="#PWR?"  Part="1" 
AR Path="/5DCB31E2/5E14D551" Ref="#PWR0142"  Part="1" 
F 0 "#PWR0142" H 9625 3925 50  0001 C CNN
F 1 "Earth" H 9625 4025 50  0001 C CNN
F 2 "" H 9625 4175 50  0001 C CNN
F 3 "~" H 9625 4175 50  0001 C CNN
	1    9625 4175
	1    0    0    -1  
$EndComp
Wire Wire Line
	9625 4175 9625 4125
$Comp
L power:+12V #PWR?
U 1 1 5E14D553
P 9625 4500
AR Path="/5E14D553" Ref="#PWR?"  Part="1" 
AR Path="/5DC45DB1/5E14D553" Ref="#PWR?"  Part="1" 
AR Path="/5DCB31E2/5E14D553" Ref="#PWR0143"  Part="1" 
F 0 "#PWR0143" H 9625 4350 50  0001 C CNN
F 1 "+12V" H 9640 4673 50  0000 C CNN
F 2 "" H 9625 4500 50  0001 C CNN
F 3 "" H 9625 4500 50  0001 C CNN
	1    9625 4500
	-1   0    0    -1  
$EndComp
Wire Wire Line
	9625 4500 9625 4575
$Comp
L power:Earth #PWR?
U 1 1 5DD9C6B4
P 9625 4925
AR Path="/5DD9C6B4" Ref="#PWR?"  Part="1" 
AR Path="/5DC45DB1/5DD9C6B4" Ref="#PWR?"  Part="1" 
AR Path="/5DCB31E2/5DD9C6B4" Ref="#PWR0144"  Part="1" 
F 0 "#PWR0144" H 9625 4675 50  0001 C CNN
F 1 "Earth" H 9625 4775 50  0001 C CNN
F 2 "" H 9625 4925 50  0001 C CNN
F 3 "~" H 9625 4925 50  0001 C CNN
	1    9625 4925
	1    0    0    -1  
$EndComp
Wire Wire Line
	9625 4925 9625 4875
$Comp
L power:+12V #PWR?
U 1 1 5DDA35D9
P 9600 5275
AR Path="/5DDA35D9" Ref="#PWR?"  Part="1" 
AR Path="/5DC45DB1/5DDA35D9" Ref="#PWR?"  Part="1" 
AR Path="/5DCB31E2/5DDA35D9" Ref="#PWR0129"  Part="1" 
F 0 "#PWR0129" H 9600 5125 50  0001 C CNN
F 1 "+12V" H 9615 5448 50  0000 C CNN
F 2 "" H 9600 5275 50  0001 C CNN
F 3 "" H 9600 5275 50  0001 C CNN
	1    9600 5275
	-1   0    0    -1  
$EndComp
Wire Wire Line
	9600 5275 9600 5350
$Comp
L power:Earth #PWR?
U 1 1 5E14D513
P 9600 5700
AR Path="/5E14D513" Ref="#PWR?"  Part="1" 
AR Path="/5DC45DB1/5E14D513" Ref="#PWR?"  Part="1" 
AR Path="/5DCB31E2/5E14D513" Ref="#PWR0130"  Part="1" 
F 0 "#PWR0130" H 9600 5450 50  0001 C CNN
F 1 "Earth" H 9600 5550 50  0001 C CNN
F 2 "" H 9600 5700 50  0001 C CNN
F 3 "~" H 9600 5700 50  0001 C CNN
	1    9600 5700
	1    0    0    -1  
$EndComp
Wire Wire Line
	9600 5700 9600 5650
$Comp
L power:+12V #PWR?
U 1 1 5DDAA8EF
P 9600 6025
AR Path="/5DDAA8EF" Ref="#PWR?"  Part="1" 
AR Path="/5DC45DB1/5DDAA8EF" Ref="#PWR?"  Part="1" 
AR Path="/5DCB31E2/5DDAA8EF" Ref="#PWR0131"  Part="1" 
F 0 "#PWR0131" H 9600 5875 50  0001 C CNN
F 1 "+12V" H 9615 6198 50  0000 C CNN
F 2 "" H 9600 6025 50  0001 C CNN
F 3 "" H 9600 6025 50  0001 C CNN
	1    9600 6025
	-1   0    0    -1  
$EndComp
Wire Wire Line
	9600 6025 9600 6100
$Comp
L power:Earth #PWR?
U 1 1 5DDAA8F9
P 9600 6450
AR Path="/5DDAA8F9" Ref="#PWR?"  Part="1" 
AR Path="/5DC45DB1/5DDAA8F9" Ref="#PWR?"  Part="1" 
AR Path="/5DCB31E2/5DDAA8F9" Ref="#PWR0132"  Part="1" 
F 0 "#PWR0132" H 9600 6200 50  0001 C CNN
F 1 "Earth" H 9600 6300 50  0001 C CNN
F 2 "" H 9600 6450 50  0001 C CNN
F 3 "~" H 9600 6450 50  0001 C CNN
	1    9600 6450
	1    0    0    -1  
$EndComp
Wire Wire Line
	9600 6450 9600 6400
Text HLabel 6350 975  0    50   Output ~ 0
OUT_1
Text HLabel 6350 1725 0    50   Output ~ 0
OUT_2
Text HLabel 6350 2500 0    50   Output ~ 0
OUT_3
Text HLabel 6350 3250 0    50   Output ~ 0
OUT_4
Text HLabel 6350 4025 0    50   Output ~ 0
OUT_5
Text HLabel 6350 4775 0    50   Output ~ 0
OUT_6
Text HLabel 6325 5550 0    50   Output ~ 0
OUT_7
Text HLabel 6325 6300 0    50   Output ~ 0
OUT_8
Text Label 5475 2650 0    50   ~ 0
Cerr_10
Text Label 5475 2750 0    50   ~ 0
Cerr_11
Text Label 5475 2850 0    50   ~ 0
Cerr_12
Text Label 5475 5025 0    50   ~ 0
Cerr_13
Text Label 5475 5125 0    50   ~ 0
Cerr_14
Text Label 5475 5225 0    50   ~ 0
Cerr_15
Text Label 5475 5325 0    50   ~ 0
Cerr_16
Text Label 9325 875  0    50   ~ 0
Cerr_9
Text Label 9325 1625 0    50   ~ 0
Cerr_10
Text Label 9325 2400 0    50   ~ 0
Cerr_11
Text Label 9325 3925 0    50   ~ 0
Cerr_13
Text Label 9300 5450 0    50   ~ 0
Cerr_15
Text Label 9300 6200 0    50   ~ 0
Cerr_16
Text Label 9325 3150 0    50   ~ 0
Cerr_12
Text Label 9325 4675 0    50   ~ 0
Cerr_14
Text Label 9325 975  0    50   ~ 0
Sens_9
Text Label 9325 1725 0    50   ~ 0
Sens_10
Text Label 9325 2500 0    50   ~ 0
Sens_11
Text Label 9325 3250 0    50   ~ 0
Sens_12
Text Label 9325 4025 0    50   ~ 0
Sens_13
Text Label 9325 4775 0    50   ~ 0
Sens_14
Text Label 9300 5550 0    50   ~ 0
Sens_15
Text Label 9300 6300 0    50   ~ 0
Sens_16
$Comp
L power:GND #PWR0105
U 1 1 5E14D53D
P 6775 1350
F 0 "#PWR0105" H 6775 1100 50  0001 C CNN
F 1 "GND" H 6780 1177 50  0000 C CNN
F 2 "" H 6775 1350 50  0001 C CNN
F 3 "" H 6775 1350 50  0001 C CNN
	1    6775 1350
	1    0    0    -1  
$EndComp
Wire Wire Line
	6775 1000 6775 975 
Wire Wire Line
	6775 1350 6775 1300
$Comp
L Device:R R?
U 1 1 5DF68A93
P 6775 1900
AR Path="/5DF68A93" Ref="R?"  Part="1" 
AR Path="/5DC45DB1/5DF68A93" Ref="R?"  Part="1" 
AR Path="/5DCB31E2/5DF68A93" Ref="R55"  Part="1" 
F 0 "R55" V 6568 1900 50  0000 C CNN
F 1 "10K" V 6659 1900 50  0000 C CNN
F 2 "lib_fp:R_0603" V 6705 1900 50  0001 C CNN
F 3 "~" H 6775 1900 50  0001 C CNN
	1    6775 1900
	-1   0    0    -1  
$EndComp
$Comp
L power:GND #PWR0106
U 1 1 5DCD2145
P 6775 2100
F 0 "#PWR0106" H 6775 1850 50  0001 C CNN
F 1 "GND" H 6780 1927 50  0000 C CNN
F 2 "" H 6775 2100 50  0001 C CNN
F 3 "" H 6775 2100 50  0001 C CNN
	1    6775 2100
	1    0    0    -1  
$EndComp
Wire Wire Line
	6775 1750 6775 1725
Wire Wire Line
	6775 2100 6775 2050
$Comp
L Device:R R?
U 1 1 5E14D508
P 6775 2675
AR Path="/5E14D508" Ref="R?"  Part="1" 
AR Path="/5DC45DB1/5E14D508" Ref="R?"  Part="1" 
AR Path="/5DCB31E2/5E14D508" Ref="R56"  Part="1" 
F 0 "R56" V 6568 2675 50  0000 C CNN
F 1 "10K" V 6659 2675 50  0000 C CNN
F 2 "lib_fp:R_0603" V 6705 2675 50  0001 C CNN
F 3 "~" H 6775 2675 50  0001 C CNN
	1    6775 2675
	-1   0    0    -1  
$EndComp
$Comp
L power:GND #PWR0107
U 1 1 5DD04F94
P 6775 2875
F 0 "#PWR0107" H 6775 2625 50  0001 C CNN
F 1 "GND" H 6780 2702 50  0000 C CNN
F 2 "" H 6775 2875 50  0001 C CNN
F 3 "" H 6775 2875 50  0001 C CNN
	1    6775 2875
	1    0    0    -1  
$EndComp
Wire Wire Line
	6775 2525 6775 2500
Wire Wire Line
	6775 2875 6775 2825
$Comp
L Device:R R?
U 1 1 5DD0C438
P 6775 3425
AR Path="/5DD0C438" Ref="R?"  Part="1" 
AR Path="/5DC45DB1/5DD0C438" Ref="R?"  Part="1" 
AR Path="/5DCB31E2/5DD0C438" Ref="R57"  Part="1" 
F 0 "R57" V 6568 3425 50  0000 C CNN
F 1 "10K" V 6659 3425 50  0000 C CNN
F 2 "lib_fp:R_0603" V 6705 3425 50  0001 C CNN
F 3 "~" H 6775 3425 50  0001 C CNN
	1    6775 3425
	-1   0    0    -1  
$EndComp
$Comp
L power:GND #PWR0108
U 1 1 5DF68A98
P 6775 3625
F 0 "#PWR0108" H 6775 3375 50  0001 C CNN
F 1 "GND" H 6780 3452 50  0000 C CNN
F 2 "" H 6775 3625 50  0001 C CNN
F 3 "" H 6775 3625 50  0001 C CNN
	1    6775 3625
	1    0    0    -1  
$EndComp
Wire Wire Line
	6775 3275 6775 3250
Wire Wire Line
	6775 3625 6775 3575
$Comp
L Device:R R?
U 1 1 5DF68A99
P 6775 4200
AR Path="/5DF68A99" Ref="R?"  Part="1" 
AR Path="/5DC45DB1/5DF68A99" Ref="R?"  Part="1" 
AR Path="/5DCB31E2/5DF68A99" Ref="R58"  Part="1" 
F 0 "R58" V 6568 4200 50  0000 C CNN
F 1 "10K" V 6659 4200 50  0000 C CNN
F 2 "lib_fp:R_0603" V 6705 4200 50  0001 C CNN
F 3 "~" H 6775 4200 50  0001 C CNN
	1    6775 4200
	-1   0    0    -1  
$EndComp
$Comp
L power:GND #PWR0109
U 1 1 5DF68A9A
P 6775 4400
F 0 "#PWR0109" H 6775 4150 50  0001 C CNN
F 1 "GND" H 6780 4227 50  0000 C CNN
F 2 "" H 6775 4400 50  0001 C CNN
F 3 "" H 6775 4400 50  0001 C CNN
	1    6775 4400
	1    0    0    -1  
$EndComp
Wire Wire Line
	6775 4050 6775 4025
Wire Wire Line
	6775 4400 6775 4350
$Comp
L Device:R R?
U 1 1 5DF68A9B
P 6775 4950
AR Path="/5DF68A9B" Ref="R?"  Part="1" 
AR Path="/5DC45DB1/5DF68A9B" Ref="R?"  Part="1" 
AR Path="/5DCB31E2/5DF68A9B" Ref="R59"  Part="1" 
F 0 "R59" V 6568 4950 50  0000 C CNN
F 1 "10K" V 6659 4950 50  0000 C CNN
F 2 "lib_fp:R_0603" V 6705 4950 50  0001 C CNN
F 3 "~" H 6775 4950 50  0001 C CNN
	1    6775 4950
	-1   0    0    -1  
$EndComp
$Comp
L power:GND #PWR0110
U 1 1 5E14D543
P 6775 5150
F 0 "#PWR0110" H 6775 4900 50  0001 C CNN
F 1 "GND" H 6780 4977 50  0000 C CNN
F 2 "" H 6775 5150 50  0001 C CNN
F 3 "" H 6775 5150 50  0001 C CNN
	1    6775 5150
	1    0    0    -1  
$EndComp
Wire Wire Line
	6775 4800 6775 4775
Wire Wire Line
	6775 5150 6775 5100
$Comp
L Device:R R?
U 1 1 5DF68A9D
P 6775 5725
AR Path="/5DF68A9D" Ref="R?"  Part="1" 
AR Path="/5DC45DB1/5DF68A9D" Ref="R?"  Part="1" 
AR Path="/5DCB31E2/5DF68A9D" Ref="R60"  Part="1" 
F 0 "R60" V 6568 5725 50  0000 C CNN
F 1 "10K" V 6659 5725 50  0000 C CNN
F 2 "lib_fp:R_0603" V 6705 5725 50  0001 C CNN
F 3 "~" H 6775 5725 50  0001 C CNN
	1    6775 5725
	-1   0    0    -1  
$EndComp
$Comp
L power:GND #PWR0111
U 1 1 5DF68A9E
P 6775 5925
F 0 "#PWR0111" H 6775 5675 50  0001 C CNN
F 1 "GND" H 6780 5752 50  0000 C CNN
F 2 "" H 6775 5925 50  0001 C CNN
F 3 "" H 6775 5925 50  0001 C CNN
	1    6775 5925
	1    0    0    -1  
$EndComp
Wire Wire Line
	6775 5575 6775 5550
Wire Wire Line
	6775 5925 6775 5875
$Comp
L Device:R R?
U 1 1 5DF68A9F
P 6775 6475
AR Path="/5DF68A9F" Ref="R?"  Part="1" 
AR Path="/5DC45DB1/5DF68A9F" Ref="R?"  Part="1" 
AR Path="/5DCB31E2/5DF68A9F" Ref="R61"  Part="1" 
F 0 "R61" V 6568 6475 50  0000 C CNN
F 1 "10K" V 6659 6475 50  0000 C CNN
F 2 "lib_fp:R_0603" V 6705 6475 50  0001 C CNN
F 3 "~" H 6775 6475 50  0001 C CNN
	1    6775 6475
	-1   0    0    -1  
$EndComp
$Comp
L power:GND #PWR0112
U 1 1 5DF68AA0
P 6775 6675
F 0 "#PWR0112" H 6775 6425 50  0001 C CNN
F 1 "GND" H 6780 6502 50  0000 C CNN
F 2 "" H 6775 6675 50  0001 C CNN
F 3 "" H 6775 6675 50  0001 C CNN
	1    6775 6675
	1    0    0    -1  
$EndComp
Wire Wire Line
	6775 6325 6775 6300
Wire Wire Line
	6775 6675 6775 6625
Connection ~ 6775 6300
Wire Wire Line
	6775 6300 6325 6300
Wire Wire Line
	6775 6300 7575 6300
Connection ~ 6775 5550
Wire Wire Line
	6775 5550 6325 5550
Wire Wire Line
	6775 5550 7575 5550
Connection ~ 6775 4775
Wire Wire Line
	6775 4775 6350 4775
Wire Wire Line
	6775 4775 7600 4775
Connection ~ 6775 4025
Wire Wire Line
	6775 4025 6350 4025
Wire Wire Line
	6775 4025 7600 4025
Connection ~ 6775 3250
Wire Wire Line
	6775 3250 6350 3250
Wire Wire Line
	6775 3250 7600 3250
Connection ~ 6775 2500
Wire Wire Line
	6775 2500 6350 2500
Wire Wire Line
	6775 2500 7600 2500
Connection ~ 6775 1725
Wire Wire Line
	6775 1725 6350 1725
Wire Wire Line
	6775 1725 7600 1725
Connection ~ 6775 975 
Wire Wire Line
	6775 975  6350 975 
Wire Wire Line
	6775 975  7600 975 
Wire Wire Line
	5375 2250 5475 2250
Wire Wire Line
	5475 2250 5475 2150
$Comp
L power:+12V #PWR?
U 1 1 5E14D517
P 4275 2150
AR Path="/5E14D517" Ref="#PWR?"  Part="1" 
AR Path="/5DC45DB1/5E14D517" Ref="#PWR?"  Part="1" 
AR Path="/5DCB31E2/5E14D517" Ref="#PWR097"  Part="1" 
F 0 "#PWR097" H 4275 2000 50  0001 C CNN
F 1 "+12V" H 4290 2323 50  0000 C CNN
F 2 "" H 4275 2150 50  0001 C CNN
F 3 "" H 4275 2150 50  0001 C CNN
	1    4275 2150
	1    0    0    -1  
$EndComp
Wire Wire Line
	4375 2350 4275 2350
Wire Wire Line
	4275 2350 4275 2250
Wire Wire Line
	4375 2250 4275 2250
Connection ~ 4275 2250
Wire Wire Line
	4275 2250 4275 2150
$Comp
L power:Earth #PWR?
U 1 1 5E14D518
P 5425 3200
AR Path="/5E14D518" Ref="#PWR?"  Part="1" 
AR Path="/5DC45DB1/5E14D518" Ref="#PWR?"  Part="1" 
AR Path="/5DCB31E2/5E14D518" Ref="#PWR0101"  Part="1" 
F 0 "#PWR0101" H 5425 2950 50  0001 C CNN
F 1 "Earth" H 5425 3050 50  0001 C CNN
F 2 "" H 5425 3200 50  0001 C CNN
F 3 "~" H 5425 3200 50  0001 C CNN
	1    5425 3200
	1    0    0    -1  
$EndComp
Wire Wire Line
	5375 3050 5425 3050
Wire Wire Line
	5425 3050 5425 3150
Wire Wire Line
	5375 3150 5425 3150
Connection ~ 5425 3150
Wire Wire Line
	5425 3150 5425 3200
Wire Wire Line
	4375 3150 4325 3150
Wire Wire Line
	4325 3150 4325 3200
Wire Wire Line
	4375 3050 4325 3050
Wire Wire Line
	4325 3050 4325 3150
Connection ~ 4325 3150
Wire Wire Line
	4375 2750 3650 2750
Wire Wire Line
	3650 2750 3650 3000
Wire Wire Line
	4375 2650 3650 2650
Wire Wire Line
	3650 2650 3650 2450
Wire Wire Line
	4375 2550 3750 2550
Wire Wire Line
	3750 2550 3750 1900
Wire Wire Line
	3750 2850 3750 3550
$Comp
L power:Earth #PWR?
U 1 1 5E14D555
P 4325 5675
AR Path="/5E14D555" Ref="#PWR?"  Part="1" 
AR Path="/5DC45DB1/5E14D555" Ref="#PWR?"  Part="1" 
AR Path="/5DCB31E2/5E14D555" Ref="#PWR0100"  Part="1" 
F 0 "#PWR0100" H 4325 5425 50  0001 C CNN
F 1 "Earth" H 4325 5525 50  0001 C CNN
F 2 "" H 4325 5675 50  0001 C CNN
F 3 "~" H 4325 5675 50  0001 C CNN
	1    4325 5675
	1    0    0    -1  
$EndComp
$Comp
L power:+12V #PWR?
U 1 1 5DFF8739
P 5475 4625
AR Path="/5DFF8739" Ref="#PWR?"  Part="1" 
AR Path="/5DC45DB1/5DFF8739" Ref="#PWR?"  Part="1" 
AR Path="/5DCB31E2/5DFF8739" Ref="#PWR0104"  Part="1" 
F 0 "#PWR0104" H 5475 4475 50  0001 C CNN
F 1 "+12V" H 5490 4798 50  0000 C CNN
F 2 "" H 5475 4625 50  0001 C CNN
F 3 "" H 5475 4625 50  0001 C CNN
	1    5475 4625
	1    0    0    -1  
$EndComp
$Comp
L power:+3.3V #PWR?
U 1 1 5E14D558
P 1325 4100
AR Path="/5E14D558" Ref="#PWR?"  Part="1" 
AR Path="/5DC45DB1/5E14D558" Ref="#PWR?"  Part="1" 
AR Path="/5DCB31E2/5E14D558" Ref="#PWR085"  Part="1" 
F 0 "#PWR085" H 1325 3950 50  0001 C CNN
F 1 "+3.3V" H 1340 4273 50  0000 C CNN
F 2 "" H 1325 4100 50  0001 C CNN
F 3 "" H 1325 4100 50  0001 C CNN
	1    1325 4100
	1    0    0    -1  
$EndComp
$Comp
L Device:R R?
U 1 1 5E14D559
P 2925 4375
AR Path="/5E14D559" Ref="R?"  Part="1" 
AR Path="/5DC45DB1/5E14D559" Ref="R?"  Part="1" 
AR Path="/5DCB31E2/5E14D559" Ref="R50"  Part="1" 
F 0 "R50" V 2718 4375 50  0000 C CNN
F 1 "470" V 2809 4375 50  0000 C CNN
F 2 "lib_fp:R_0603" V 2855 4375 50  0001 C CNN
F 3 "~" H 2925 4375 50  0001 C CNN
	1    2925 4375
	0    1    1    0   
$EndComp
Wire Wire Line
	2525 4375 2775 4375
$Comp
L power:+12V #PWR?
U 1 1 5E14D55A
P 2625 4100
AR Path="/5E14D55A" Ref="#PWR?"  Part="1" 
AR Path="/5DC45DB1/5E14D55A" Ref="#PWR?"  Part="1" 
AR Path="/5DCB31E2/5E14D55A" Ref="#PWR093"  Part="1" 
F 0 "#PWR093" H 2625 3950 50  0001 C CNN
F 1 "+12V" H 2640 4273 50  0000 C CNN
F 2 "" H 2625 4100 50  0001 C CNN
F 3 "" H 2625 4100 50  0001 C CNN
	1    2625 4100
	1    0    0    -1  
$EndComp
Wire Wire Line
	2525 4175 2625 4175
$Comp
L Device:R R?
U 1 1 5E14D55B
P 1625 4175
AR Path="/5E14D55B" Ref="R?"  Part="1" 
AR Path="/5DC45DB1/5E14D55B" Ref="R?"  Part="1" 
AR Path="/5DCB31E2/5E14D55B" Ref="R42"  Part="1" 
F 0 "R42" V 1832 4175 50  0000 C CNN
F 1 "470" V 1741 4175 50  0000 C CNN
F 2 "lib_fp:R_0603" V 1555 4175 50  0001 C CNN
F 3 "~" H 1625 4175 50  0001 C CNN
	1    1625 4175
	0    -1   -1   0   
$EndComp
Wire Wire Line
	1925 4175 1775 4175
Wire Wire Line
	1325 4100 1325 4175
Wire Wire Line
	1475 4175 1325 4175
Wire Wire Line
	2625 4175 2625 4100
Wire Wire Line
	1925 4375 1175 4375
$Comp
L power:+3.3V #PWR?
U 1 1 5E14D55D
P 1325 4650
AR Path="/5E14D55D" Ref="#PWR?"  Part="1" 
AR Path="/5DC45DB1/5E14D55D" Ref="#PWR?"  Part="1" 
AR Path="/5DCB31E2/5E14D55D" Ref="#PWR086"  Part="1" 
F 0 "#PWR086" H 1325 4500 50  0001 C CNN
F 1 "+3.3V" H 1340 4823 50  0000 C CNN
F 2 "" H 1325 4650 50  0001 C CNN
F 3 "" H 1325 4650 50  0001 C CNN
	1    1325 4650
	1    0    0    -1  
$EndComp
$Comp
L Device:R R?
U 1 1 5DFF8770
P 2925 4925
AR Path="/5DFF8770" Ref="R?"  Part="1" 
AR Path="/5DC45DB1/5DFF8770" Ref="R?"  Part="1" 
AR Path="/5DCB31E2/5DFF8770" Ref="R51"  Part="1" 
F 0 "R51" V 2718 4925 50  0000 C CNN
F 1 "470" V 2809 4925 50  0000 C CNN
F 2 "lib_fp:R_0603" V 2855 4925 50  0001 C CNN
F 3 "~" H 2925 4925 50  0001 C CNN
	1    2925 4925
	0    1    1    0   
$EndComp
Wire Wire Line
	2525 4925 2775 4925
$Comp
L power:+12V #PWR?
U 1 1 5DFF8777
P 2625 4650
AR Path="/5DFF8777" Ref="#PWR?"  Part="1" 
AR Path="/5DC45DB1/5DFF8777" Ref="#PWR?"  Part="1" 
AR Path="/5DCB31E2/5DFF8777" Ref="#PWR094"  Part="1" 
F 0 "#PWR094" H 2625 4500 50  0001 C CNN
F 1 "+12V" H 2640 4823 50  0000 C CNN
F 2 "" H 2625 4650 50  0001 C CNN
F 3 "" H 2625 4650 50  0001 C CNN
	1    2625 4650
	1    0    0    -1  
$EndComp
Wire Wire Line
	2525 4725 2625 4725
$Comp
L Device:R R?
U 1 1 5E14D560
P 1625 4725
AR Path="/5E14D560" Ref="R?"  Part="1" 
AR Path="/5DC45DB1/5E14D560" Ref="R?"  Part="1" 
AR Path="/5DCB31E2/5E14D560" Ref="R43"  Part="1" 
F 0 "R43" V 1832 4725 50  0000 C CNN
F 1 "470" V 1741 4725 50  0000 C CNN
F 2 "lib_fp:R_0603" V 1555 4725 50  0001 C CNN
F 3 "~" H 1625 4725 50  0001 C CNN
	1    1625 4725
	0    -1   -1   0   
$EndComp
Wire Wire Line
	1925 4725 1775 4725
Wire Wire Line
	1325 4650 1325 4725
Wire Wire Line
	1475 4725 1325 4725
Wire Wire Line
	2625 4725 2625 4650
Wire Wire Line
	1925 4925 1175 4925
$Comp
L power:+3.3V #PWR?
U 1 1 5DFF878F
P 1325 5200
AR Path="/5DFF878F" Ref="#PWR?"  Part="1" 
AR Path="/5DC45DB1/5DFF878F" Ref="#PWR?"  Part="1" 
AR Path="/5DCB31E2/5DFF878F" Ref="#PWR087"  Part="1" 
F 0 "#PWR087" H 1325 5050 50  0001 C CNN
F 1 "+3.3V" H 1340 5373 50  0000 C CNN
F 2 "" H 1325 5200 50  0001 C CNN
F 3 "" H 1325 5200 50  0001 C CNN
	1    1325 5200
	1    0    0    -1  
$EndComp
$Comp
L Device:R R?
U 1 1 5E14D563
P 2925 5475
AR Path="/5E14D563" Ref="R?"  Part="1" 
AR Path="/5DC45DB1/5E14D563" Ref="R?"  Part="1" 
AR Path="/5DCB31E2/5E14D563" Ref="R52"  Part="1" 
F 0 "R52" V 2718 5475 50  0000 C CNN
F 1 "470" V 2809 5475 50  0000 C CNN
F 2 "lib_fp:R_0603" V 2855 5475 50  0001 C CNN
F 3 "~" H 2925 5475 50  0001 C CNN
	1    2925 5475
	0    1    1    0   
$EndComp
Wire Wire Line
	2525 5475 2775 5475
$Comp
L power:+12V #PWR?
U 1 1 5E14D564
P 2625 5200
AR Path="/5E14D564" Ref="#PWR?"  Part="1" 
AR Path="/5DC45DB1/5E14D564" Ref="#PWR?"  Part="1" 
AR Path="/5DCB31E2/5E14D564" Ref="#PWR095"  Part="1" 
F 0 "#PWR095" H 2625 5050 50  0001 C CNN
F 1 "+12V" H 2640 5373 50  0000 C CNN
F 2 "" H 2625 5200 50  0001 C CNN
F 3 "" H 2625 5200 50  0001 C CNN
	1    2625 5200
	1    0    0    -1  
$EndComp
Wire Wire Line
	2525 5275 2625 5275
$Comp
L Device:R R?
U 1 1 5E14D565
P 1625 5275
AR Path="/5E14D565" Ref="R?"  Part="1" 
AR Path="/5DC45DB1/5E14D565" Ref="R?"  Part="1" 
AR Path="/5DCB31E2/5E14D565" Ref="R44"  Part="1" 
F 0 "R44" V 1832 5275 50  0000 C CNN
F 1 "470" V 1741 5275 50  0000 C CNN
F 2 "lib_fp:R_0603" V 1555 5275 50  0001 C CNN
F 3 "~" H 1625 5275 50  0001 C CNN
	1    1625 5275
	0    -1   -1   0   
$EndComp
Wire Wire Line
	1925 5275 1775 5275
Wire Wire Line
	1325 5200 1325 5275
Wire Wire Line
	1475 5275 1325 5275
Wire Wire Line
	2625 5275 2625 5200
Wire Wire Line
	1925 5475 1175 5475
$Comp
L power:+3.3V #PWR?
U 1 1 5E14D567
P 1325 5750
AR Path="/5E14D567" Ref="#PWR?"  Part="1" 
AR Path="/5DC45DB1/5E14D567" Ref="#PWR?"  Part="1" 
AR Path="/5DCB31E2/5E14D567" Ref="#PWR088"  Part="1" 
F 0 "#PWR088" H 1325 5600 50  0001 C CNN
F 1 "+3.3V" H 1340 5923 50  0000 C CNN
F 2 "" H 1325 5750 50  0001 C CNN
F 3 "" H 1325 5750 50  0001 C CNN
	1    1325 5750
	1    0    0    -1  
$EndComp
$Comp
L Device:R R?
U 1 1 5E14D568
P 2925 6025
AR Path="/5E14D568" Ref="R?"  Part="1" 
AR Path="/5DC45DB1/5E14D568" Ref="R?"  Part="1" 
AR Path="/5DCB31E2/5E14D568" Ref="R53"  Part="1" 
F 0 "R53" V 2718 6025 50  0000 C CNN
F 1 "470" V 2809 6025 50  0000 C CNN
F 2 "lib_fp:R_0603" V 2855 6025 50  0001 C CNN
F 3 "~" H 2925 6025 50  0001 C CNN
	1    2925 6025
	0    1    1    0   
$EndComp
Wire Wire Line
	2525 6025 2775 6025
$Comp
L power:+12V #PWR?
U 1 1 5DFF87C1
P 2625 5750
AR Path="/5DFF87C1" Ref="#PWR?"  Part="1" 
AR Path="/5DC45DB1/5DFF87C1" Ref="#PWR?"  Part="1" 
AR Path="/5DCB31E2/5DFF87C1" Ref="#PWR096"  Part="1" 
F 0 "#PWR096" H 2625 5600 50  0001 C CNN
F 1 "+12V" H 2640 5923 50  0000 C CNN
F 2 "" H 2625 5750 50  0001 C CNN
F 3 "" H 2625 5750 50  0001 C CNN
	1    2625 5750
	1    0    0    -1  
$EndComp
Wire Wire Line
	2525 5825 2625 5825
$Comp
L Device:R R?
U 1 1 5DFF87C8
P 1625 5825
AR Path="/5DFF87C8" Ref="R?"  Part="1" 
AR Path="/5DC45DB1/5DFF87C8" Ref="R?"  Part="1" 
AR Path="/5DCB31E2/5DFF87C8" Ref="R45"  Part="1" 
F 0 "R45" V 1832 5825 50  0000 C CNN
F 1 "470" V 1741 5825 50  0000 C CNN
F 2 "lib_fp:R_0603" V 1555 5825 50  0001 C CNN
F 3 "~" H 1625 5825 50  0001 C CNN
	1    1625 5825
	0    -1   -1   0   
$EndComp
Wire Wire Line
	1925 5825 1775 5825
Wire Wire Line
	1325 5750 1325 5825
Wire Wire Line
	1475 5825 1325 5825
Wire Wire Line
	2625 5825 2625 5750
Wire Wire Line
	1925 6025 1175 6025
Wire Wire Line
	5475 5025 5375 5025
Wire Wire Line
	5475 5125 5375 5125
Wire Wire Line
	5475 5225 5375 5225
Wire Wire Line
	5475 5325 5375 5325
Wire Wire Line
	5375 4725 5475 4725
Wire Wire Line
	5475 4725 5475 4625
$Comp
L power:+12V #PWR?
U 1 1 5E14D56C
P 4275 4625
AR Path="/5E14D56C" Ref="#PWR?"  Part="1" 
AR Path="/5DC45DB1/5E14D56C" Ref="#PWR?"  Part="1" 
AR Path="/5DCB31E2/5E14D56C" Ref="#PWR098"  Part="1" 
F 0 "#PWR098" H 4275 4475 50  0001 C CNN
F 1 "+12V" H 4290 4798 50  0000 C CNN
F 2 "" H 4275 4625 50  0001 C CNN
F 3 "" H 4275 4625 50  0001 C CNN
	1    4275 4625
	1    0    0    -1  
$EndComp
Wire Wire Line
	4375 4825 4275 4825
Wire Wire Line
	4275 4825 4275 4725
Wire Wire Line
	4375 4725 4275 4725
Connection ~ 4275 4725
Wire Wire Line
	4275 4725 4275 4625
$Comp
L power:Earth #PWR?
U 1 1 5DFF87F7
P 5425 5675
AR Path="/5DFF87F7" Ref="#PWR?"  Part="1" 
AR Path="/5DC45DB1/5DFF87F7" Ref="#PWR?"  Part="1" 
AR Path="/5DCB31E2/5DFF87F7" Ref="#PWR0102"  Part="1" 
F 0 "#PWR0102" H 5425 5425 50  0001 C CNN
F 1 "Earth" H 5425 5525 50  0001 C CNN
F 2 "" H 5425 5675 50  0001 C CNN
F 3 "~" H 5425 5675 50  0001 C CNN
	1    5425 5675
	1    0    0    -1  
$EndComp
Wire Wire Line
	5375 5525 5425 5525
Wire Wire Line
	5425 5525 5425 5625
Wire Wire Line
	5375 5625 5425 5625
Connection ~ 5425 5625
Wire Wire Line
	5425 5625 5425 5675
Wire Wire Line
	4375 5625 4325 5625
Wire Wire Line
	4325 5625 4325 5675
Wire Wire Line
	4375 5525 4325 5525
Wire Wire Line
	4325 5525 4325 5625
Connection ~ 4325 5625
Wire Wire Line
	4375 5225 3650 5225
Wire Wire Line
	3650 5225 3650 5475
Wire Wire Line
	4375 5125 3650 5125
Wire Wire Line
	3650 5125 3650 4925
Wire Wire Line
	4375 5025 3750 5025
Wire Wire Line
	3750 5025 3750 4375
Wire Wire Line
	3750 5325 3750 6025
Wire Wire Line
	3750 5325 4375 5325
Wire Wire Line
	3750 2850 4375 2850
Wire Wire Line
	9325 875  9625 875 
Wire Wire Line
	9325 1625 9625 1625
Wire Wire Line
	9325 2400 9625 2400
Wire Wire Line
	9325 3150 9625 3150
Wire Wire Line
	9325 3925 9625 3925
Wire Wire Line
	9325 4675 9625 4675
Wire Wire Line
	9300 5450 9600 5450
Wire Wire Line
	9300 6200 9600 6200
$Comp
L Connector:Screw_Terminal_01x04 J?
U 1 1 5DF667FC
P 9825 875
AR Path="/5DF667FC" Ref="J?"  Part="1" 
AR Path="/5DC45DB1/5DF667FC" Ref="J?"  Part="1" 
AR Path="/5DCB31E2/5DF667FC" Ref="J13"  Part="1" 
F 0 "J13" H 9950 875 50  0000 C CNN
F 1 "Cerr09" H 10025 775 50  0000 C CNN
F 2 "lib_fp:5013310407" H 9825 875 50  0001 C CNN
F 3 "http://www.literature.molex.com/SQLImages/kelmscott/Molex/PDF_Images/987651-6111.PDF" H 9825 875 50  0001 C CNN
F 4 "CONN HEADER SMD 4POS 1MM" H 9825 875 50  0001 C CNN "Descripcion"
F 5 "Molex" H 9825 875 50  0001 C CNN "Fabricante"
F 6 "5013310407" H 9825 875 50  0001 C CNN "Codigo Fabricante"
F 7 "WM7881CT-ND" H 9825 875 50  0001 C CNN "Codigo Digikey"
	1    9825 875 
	1    0    0    -1  
$EndComp
$Comp
L Connector:Screw_Terminal_01x04 J?
U 1 1 5DF76529
P 9825 1625
AR Path="/5DF76529" Ref="J?"  Part="1" 
AR Path="/5DC45DB1/5DF76529" Ref="J?"  Part="1" 
AR Path="/5DCB31E2/5DF76529" Ref="J11"  Part="1" 
F 0 "J11" H 9950 1625 50  0000 C CNN
F 1 "Cerr10" H 10025 1525 50  0000 C CNN
F 2 "lib_fp:5013310407" H 9825 1625 50  0001 C CNN
F 3 "http://www.literature.molex.com/SQLImages/kelmscott/Molex/PDF_Images/987651-6111.PDF" H 9825 1625 50  0001 C CNN
F 4 "CONN HEADER SMD 4POS 1MM" H 9825 1625 50  0001 C CNN "Descripcion"
F 5 "Molex" H 9825 1625 50  0001 C CNN "Fabricante"
F 6 "5013310407" H 9825 1625 50  0001 C CNN "Codigo Fabricante"
F 7 "WM7881CT-ND" H 9825 1625 50  0001 C CNN "Codigo Digikey"
	1    9825 1625
	1    0    0    -1  
$EndComp
$Comp
L Connector:Screw_Terminal_01x04 J?
U 1 1 5DF8471D
P 9825 2400
AR Path="/5DF8471D" Ref="J?"  Part="1" 
AR Path="/5DC45DB1/5DF8471D" Ref="J?"  Part="1" 
AR Path="/5DCB31E2/5DF8471D" Ref="J12"  Part="1" 
F 0 "J12" H 9950 2400 50  0000 C CNN
F 1 "Cerr11" H 10025 2300 50  0000 C CNN
F 2 "lib_fp:5013310407" H 9825 2400 50  0001 C CNN
F 3 "http://www.literature.molex.com/SQLImages/kelmscott/Molex/PDF_Images/987651-6111.PDF" H 9825 2400 50  0001 C CNN
F 4 "CONN HEADER SMD 4POS 1MM" H 9825 2400 50  0001 C CNN "Descripcion"
F 5 "Molex" H 9825 2400 50  0001 C CNN "Fabricante"
F 6 "5013310407" H 9825 2400 50  0001 C CNN "Codigo Fabricante"
F 7 "WM7881CT-ND" H 9825 2400 50  0001 C CNN "Codigo Digikey"
	1    9825 2400
	1    0    0    -1  
$EndComp
$Comp
L Connector:Screw_Terminal_01x04 J?
U 1 1 5DF84985
P 9825 3150
AR Path="/5DF84985" Ref="J?"  Part="1" 
AR Path="/5DC45DB1/5DF84985" Ref="J?"  Part="1" 
AR Path="/5DCB31E2/5DF84985" Ref="J14"  Part="1" 
F 0 "J14" H 9950 3150 50  0000 C CNN
F 1 "Cerr12" H 10025 3050 50  0000 C CNN
F 2 "lib_fp:5013310407" H 9825 3150 50  0001 C CNN
F 3 "http://www.literature.molex.com/SQLImages/kelmscott/Molex/PDF_Images/987651-6111.PDF" H 9825 3150 50  0001 C CNN
F 4 "CONN HEADER SMD 4POS 1MM" H 9825 3150 50  0001 C CNN "Descripcion"
F 5 "Molex" H 9825 3150 50  0001 C CNN "Fabricante"
F 6 "5013310407" H 9825 3150 50  0001 C CNN "Codigo Fabricante"
F 7 "WM7881CT-ND" H 9825 3150 50  0001 C CNN "Codigo Digikey"
	1    9825 3150
	1    0    0    -1  
$EndComp
$Comp
L Connector:Screw_Terminal_01x04 J?
U 1 1 5DF84F87
P 9825 3925
AR Path="/5DF84F87" Ref="J?"  Part="1" 
AR Path="/5DC45DB1/5DF84F87" Ref="J?"  Part="1" 
AR Path="/5DCB31E2/5DF84F87" Ref="J15"  Part="1" 
F 0 "J15" H 9950 3925 50  0000 C CNN
F 1 "Cerr13" H 10025 3825 50  0000 C CNN
F 2 "lib_fp:5013310407" H 9825 3925 50  0001 C CNN
F 3 "http://www.literature.molex.com/SQLImages/kelmscott/Molex/PDF_Images/987651-6111.PDF" H 9825 3925 50  0001 C CNN
F 4 "CONN HEADER SMD 4POS 1MM" H 9825 3925 50  0001 C CNN "Descripcion"
F 5 "Molex" H 9825 3925 50  0001 C CNN "Fabricante"
F 6 "5013310407" H 9825 3925 50  0001 C CNN "Codigo Fabricante"
F 7 "WM7881CT-ND" H 9825 3925 50  0001 C CNN "Codigo Digikey"
	1    9825 3925
	1    0    0    -1  
$EndComp
$Comp
L Connector:Screw_Terminal_01x04 J?
U 1 1 5DF85031
P 9825 4675
AR Path="/5DF85031" Ref="J?"  Part="1" 
AR Path="/5DC45DB1/5DF85031" Ref="J?"  Part="1" 
AR Path="/5DCB31E2/5DF85031" Ref="J16"  Part="1" 
F 0 "J16" H 9950 4675 50  0000 C CNN
F 1 "Cerr14" H 10025 4575 50  0000 C CNN
F 2 "lib_fp:5013310407" H 9825 4675 50  0001 C CNN
F 3 "http://www.literature.molex.com/SQLImages/kelmscott/Molex/PDF_Images/987651-6111.PDF" H 9825 4675 50  0001 C CNN
F 4 "CONN HEADER SMD 4POS 1MM" H 9825 4675 50  0001 C CNN "Descripcion"
F 5 "Molex" H 9825 4675 50  0001 C CNN "Fabricante"
F 6 "5013310407" H 9825 4675 50  0001 C CNN "Codigo Fabricante"
F 7 "WM7881CT-ND" H 9825 4675 50  0001 C CNN "Codigo Digikey"
	1    9825 4675
	1    0    0    -1  
$EndComp
$Comp
L Connector:Screw_Terminal_01x04 J?
U 1 1 5DF854CB
P 9800 5450
AR Path="/5DF854CB" Ref="J?"  Part="1" 
AR Path="/5DC45DB1/5DF854CB" Ref="J?"  Part="1" 
AR Path="/5DCB31E2/5DF854CB" Ref="J17"  Part="1" 
F 0 "J17" H 9925 5450 50  0000 C CNN
F 1 "Cerr15" H 10000 5350 50  0000 C CNN
F 2 "lib_fp:5013310407" H 9800 5450 50  0001 C CNN
F 3 "http://www.literature.molex.com/SQLImages/kelmscott/Molex/PDF_Images/987651-6111.PDF" H 9800 5450 50  0001 C CNN
F 4 "CONN HEADER SMD 4POS 1MM" H 9800 5450 50  0001 C CNN "Descripcion"
F 5 "Molex" H 9800 5450 50  0001 C CNN "Fabricante"
F 6 "5013310407" H 9800 5450 50  0001 C CNN "Codigo Fabricante"
F 7 "WM7881CT-ND" H 9800 5450 50  0001 C CNN "Codigo Digikey"
	1    9800 5450
	1    0    0    -1  
$EndComp
$Comp
L Connector:Screw_Terminal_01x04 J?
U 1 1 5DF85575
P 9800 6200
AR Path="/5DF85575" Ref="J?"  Part="1" 
AR Path="/5DC45DB1/5DF85575" Ref="J?"  Part="1" 
AR Path="/5DCB31E2/5DF85575" Ref="J18"  Part="1" 
F 0 "J18" H 9925 6200 50  0000 C CNN
F 1 "Cerr16" H 10000 6100 50  0000 C CNN
F 2 "lib_fp:5013310407" H 9800 6200 50  0001 C CNN
F 3 "http://www.literature.molex.com/SQLImages/kelmscott/Molex/PDF_Images/987651-6111.PDF" H 9800 6200 50  0001 C CNN
F 4 "CONN HEADER SMD 4POS 1MM" H 9800 6200 50  0001 C CNN "Descripcion"
F 5 "Molex" H 9800 6200 50  0001 C CNN "Fabricante"
F 6 "5013310407" H 9800 6200 50  0001 C CNN "Codigo Fabricante"
F 7 "WM7881CT-ND" H 9800 6200 50  0001 C CNN "Codigo Digikey"
	1    9800 6200
	1    0    0    -1  
$EndComp
$Comp
L ULN2068B:ULN2068B U?
U 1 1 5E049D7B
P 4875 2650
AR Path="/5DC45DB1/5E049D7B" Ref="U?"  Part="1" 
AR Path="/5DCB31E2/5E049D7B" Ref="U14"  Part="1" 
F 0 "U14" H 4875 3320 50  0000 C CNN
F 1 "ULN2068B" H 4875 3229 50  0000 C CNN
F 2 "lib_fp:DIL16" H 4875 2650 50  0001 C CNN
F 3 "STMicroelectronics" H 4875 2650 50  0001 L BNN
F 4 "TRANS 4NPN DARL 50V 1.75A 16DIP" H 4875 2650 50  0001 L BNN "Descripcion"
F 5 "STMicroelectronics" H 4875 2650 50  0001 L BNN "Fabricante"
F 6 "ULN2068B" H 4875 2650 50  0001 L BNN "Codigo Fabricante"
F 7 "497-2351-5-ND" H 4875 2650 50  0001 L BNN "Codigo Digikey"
	1    4875 2650
	1    0    0    -1  
$EndComp
$Comp
L ULN2068B:ULN2068B U?
U 1 1 5E058BAE
P 4875 5125
AR Path="/5DC45DB1/5E058BAE" Ref="U?"  Part="1" 
AR Path="/5DCB31E2/5E058BAE" Ref="U15"  Part="1" 
F 0 "U15" H 4875 5795 50  0000 C CNN
F 1 "ULN2068B" H 4875 5704 50  0000 C CNN
F 2 "lib_fp:DIL16" H 4875 5125 50  0001 C CNN
F 3 "STMicroelectronics" H 4875 5125 50  0001 L BNN
F 4 "TRANS 4NPN DARL 50V 1.75A 16DIP" H 4875 5125 50  0001 L BNN "Descripcion"
F 5 "STMicroelectronics" H 4875 5125 50  0001 L BNN "Fabricante"
F 6 "ULN2068B" H 4875 5125 50  0001 L BNN "Codigo Fabricante"
F 7 "497-2351-5-ND" H 4875 5125 50  0001 L BNN "Codigo Digikey"
	1    4875 5125
	1    0    0    -1  
$EndComp
$Comp
L Isolator:TLP291-4 U?
U 1 1 5E0BAABF
P 2225 1800
AR Path="/5E0BAABF" Ref="U?"  Part="1" 
AR Path="/5DC45DB1/5E0BAABF" Ref="U?"  Part="1" 
AR Path="/5DCB31E2/5E0BAABF" Ref="U7"  Part="1" 
F 0 "U7" H 2225 2125 50  0000 C CNN
F 1 "TLP291-4" H 2225 2034 50  0000 C CNN
F 2 "lib_fp:SO-16-N" H 2025 1600 50  0001 L CIN
F 3 "https://toshiba.semicon-storage.com/info/docget.jsp?did=12858&prodName=TLP291-4" H 2225 1800 50  0001 L CNN
F 4 "OPTOISOLTR 2.5KV 4CH TRANS 16-SO" H 2225 1800 50  0001 C CNN "Descripcion"
F 5 "Toshiba Semiconductor and Storage" H 2225 1800 50  0001 C CNN "Fabricante"
F 6 "TLP291-4(TP,E)" H 2225 1800 50  0001 C CNN "Codigo Fabricante"
F 7 "TLP291-4(TPE)CT-ND" H 2225 1800 50  0001 C CNN "Codigo Digikey"
	1    2225 1800
	1    0    0    -1  
$EndComp
$Comp
L Isolator:TLP291-4 U?
U 2 1 5E0BAACA
P 2225 2350
AR Path="/5E0BAACA" Ref="U?"  Part="1" 
AR Path="/5DC45DB1/5E0BAACA" Ref="U?"  Part="2" 
AR Path="/5DCB31E2/5E0BAACA" Ref="U7"  Part="2" 
F 0 "U7" H 2225 2675 50  0000 C CNN
F 1 "TLP291-4" H 2225 2584 50  0000 C CNN
F 2 "lib_fp:SO-16-N" H 2025 2150 50  0001 L CIN
F 3 "https://toshiba.semicon-storage.com/info/docget.jsp?did=12858&prodName=TLP291-4" H 2225 2350 50  0001 L CNN
F 4 "OPTOISOLTR 2.5KV 4CH TRANS 16-SO" H 2225 2350 50  0001 C CNN "Descripcion"
F 5 "Toshiba Semiconductor and Storage" H 2225 2350 50  0001 C CNN "Fabricante"
F 6 "TLP291-4(TP,E)" H 2225 2350 50  0001 C CNN "Codigo Fabricante"
F 7 "TLP291-4(TPE)CT-ND" H 2225 2350 50  0001 C CNN "Codigo Digikey"
	2    2225 2350
	1    0    0    -1  
$EndComp
$Comp
L Isolator:TLP291-4 U?
U 3 1 5E0BAAD5
P 2225 2900
AR Path="/5E0BAAD5" Ref="U?"  Part="1" 
AR Path="/5DC45DB1/5E0BAAD5" Ref="U?"  Part="3" 
AR Path="/5DCB31E2/5E0BAAD5" Ref="U7"  Part="3" 
F 0 "U7" H 2225 3225 50  0000 C CNN
F 1 "TLP291-4" H 2225 3134 50  0000 C CNN
F 2 "lib_fp:SO-16-N" H 2025 2700 50  0001 L CIN
F 3 "https://toshiba.semicon-storage.com/info/docget.jsp?did=12858&prodName=TLP291-4" H 2225 2900 50  0001 L CNN
F 4 "OPTOISOLTR 2.5KV 4CH TRANS 16-SO" H 2225 2900 50  0001 C CNN "Descripcion"
F 5 "Toshiba Semiconductor and Storage" H 2225 2900 50  0001 C CNN "Fabricante"
F 6 "TLP291-4(TP,E)" H 2225 2900 50  0001 C CNN "Codigo Fabricante"
F 7 "TLP291-4(TPE)CT-ND" H 2225 2900 50  0001 C CNN "Codigo Digikey"
	3    2225 2900
	1    0    0    -1  
$EndComp
$Comp
L Isolator:TLP291-4 U?
U 4 1 5E0BAAE0
P 2225 3450
AR Path="/5E0BAAE0" Ref="U?"  Part="1" 
AR Path="/5DC45DB1/5E0BAAE0" Ref="U?"  Part="4" 
AR Path="/5DCB31E2/5E0BAAE0" Ref="U7"  Part="4" 
F 0 "U7" H 2225 3775 50  0000 C CNN
F 1 "TLP291-4" H 2225 3684 50  0000 C CNN
F 2 "lib_fp:SO-16-N" H 2025 3250 50  0001 L CIN
F 3 "https://toshiba.semicon-storage.com/info/docget.jsp?did=12858&prodName=TLP291-4" H 2225 3450 50  0001 L CNN
F 4 "OPTOISOLTR 2.5KV 4CH TRANS 16-SO" H 2225 3450 50  0001 C CNN "Descripcion"
F 5 "Toshiba Semiconductor and Storage" H 2225 3450 50  0001 C CNN "Fabricante"
F 6 "TLP291-4(TP,E)" H 2225 3450 50  0001 C CNN "Codigo Fabricante"
F 7 "TLP291-4(TPE)CT-ND" H 2225 3450 50  0001 C CNN "Codigo Digikey"
	4    2225 3450
	1    0    0    -1  
$EndComp
$Comp
L Isolator:TLP291-4 U?
U 1 1 5E0D7361
P 2225 4275
AR Path="/5E0D7361" Ref="U?"  Part="1" 
AR Path="/5DC45DB1/5E0D7361" Ref="U?"  Part="1" 
AR Path="/5DCB31E2/5E0D7361" Ref="U8"  Part="1" 
F 0 "U8" H 2225 4600 50  0000 C CNN
F 1 "TLP291-4" H 2225 4509 50  0000 C CNN
F 2 "lib_fp:SO-16-N" H 2025 4075 50  0001 L CIN
F 3 "https://toshiba.semicon-storage.com/info/docget.jsp?did=12858&prodName=TLP291-4" H 2225 4275 50  0001 L CNN
F 4 "OPTOISOLTR 2.5KV 4CH TRANS 16-SO" H 2225 4275 50  0001 C CNN "Descripcion"
F 5 "Toshiba Semiconductor and Storage" H 2225 4275 50  0001 C CNN "Fabricante"
F 6 "TLP291-4(TP,E)" H 2225 4275 50  0001 C CNN "Codigo Fabricante"
F 7 "TLP291-4(TPE)CT-ND" H 2225 4275 50  0001 C CNN "Codigo Digikey"
	1    2225 4275
	1    0    0    -1  
$EndComp
$Comp
L Isolator:TLP291-4 U?
U 2 1 5E0D736C
P 2225 4825
AR Path="/5E0D736C" Ref="U?"  Part="1" 
AR Path="/5DC45DB1/5E0D736C" Ref="U?"  Part="2" 
AR Path="/5DCB31E2/5E0D736C" Ref="U8"  Part="2" 
F 0 "U8" H 2225 5150 50  0000 C CNN
F 1 "TLP291-4" H 2225 5059 50  0000 C CNN
F 2 "lib_fp:SO-16-N" H 2025 4625 50  0001 L CIN
F 3 "https://toshiba.semicon-storage.com/info/docget.jsp?did=12858&prodName=TLP291-4" H 2225 4825 50  0001 L CNN
F 4 "OPTOISOLTR 2.5KV 4CH TRANS 16-SO" H 2225 4825 50  0001 C CNN "Descripcion"
F 5 "Toshiba Semiconductor and Storage" H 2225 4825 50  0001 C CNN "Fabricante"
F 6 "TLP291-4(TP,E)" H 2225 4825 50  0001 C CNN "Codigo Fabricante"
F 7 "TLP291-4(TPE)CT-ND" H 2225 4825 50  0001 C CNN "Codigo Digikey"
	2    2225 4825
	1    0    0    -1  
$EndComp
$Comp
L Isolator:TLP291-4 U?
U 3 1 5E0D7377
P 2225 5375
AR Path="/5E0D7377" Ref="U?"  Part="1" 
AR Path="/5DC45DB1/5E0D7377" Ref="U?"  Part="3" 
AR Path="/5DCB31E2/5E0D7377" Ref="U8"  Part="3" 
F 0 "U8" H 2225 5700 50  0000 C CNN
F 1 "TLP291-4" H 2225 5609 50  0000 C CNN
F 2 "lib_fp:SO-16-N" H 2025 5175 50  0001 L CIN
F 3 "https://toshiba.semicon-storage.com/info/docget.jsp?did=12858&prodName=TLP291-4" H 2225 5375 50  0001 L CNN
F 4 "OPTOISOLTR 2.5KV 4CH TRANS 16-SO" H 2225 5375 50  0001 C CNN "Descripcion"
F 5 "Toshiba Semiconductor and Storage" H 2225 5375 50  0001 C CNN "Fabricante"
F 6 "TLP291-4(TP,E)" H 2225 5375 50  0001 C CNN "Codigo Fabricante"
F 7 "TLP291-4(TPE)CT-ND" H 2225 5375 50  0001 C CNN "Codigo Digikey"
	3    2225 5375
	1    0    0    -1  
$EndComp
$Comp
L Isolator:TLP291-4 U?
U 4 1 5E0D7382
P 2225 5925
AR Path="/5E0D7382" Ref="U?"  Part="1" 
AR Path="/5DC45DB1/5E0D7382" Ref="U?"  Part="4" 
AR Path="/5DCB31E2/5E0D7382" Ref="U8"  Part="4" 
F 0 "U8" H 2225 6250 50  0000 C CNN
F 1 "TLP291-4" H 2225 6159 50  0000 C CNN
F 2 "lib_fp:SO-16-N" H 2025 5725 50  0001 L CIN
F 3 "https://toshiba.semicon-storage.com/info/docget.jsp?did=12858&prodName=TLP291-4" H 2225 5925 50  0001 L CNN
F 4 "OPTOISOLTR 2.5KV 4CH TRANS 16-SO" H 2225 5925 50  0001 C CNN "Descripcion"
F 5 "Toshiba Semiconductor and Storage" H 2225 5925 50  0001 C CNN "Fabricante"
F 6 "TLP291-4(TP,E)" H 2225 5925 50  0001 C CNN "Codigo Fabricante"
F 7 "TLP291-4(TPE)CT-ND" H 2225 5925 50  0001 C CNN "Codigo Digikey"
	4    2225 5925
	1    0    0    -1  
$EndComp
$Comp
L Isolator:TLP291-4 U?
U 1 1 5E1143E8
P 7900 875
AR Path="/5E1143E8" Ref="U?"  Part="1" 
AR Path="/5DC45DB1/5E1143E8" Ref="U?"  Part="1" 
AR Path="/5DCB31E2/5E1143E8" Ref="U9"  Part="1" 
F 0 "U9" H 7900 1200 50  0000 C CNN
F 1 "TLP291-4" H 7900 1109 50  0000 C CNN
F 2 "lib_fp:SO-16-N" H 7700 675 50  0001 L CIN
F 3 "https://toshiba.semicon-storage.com/info/docget.jsp?did=12858&prodName=TLP291-4" H 7900 875 50  0001 L CNN
F 4 "OPTOISOLTR 2.5KV 4CH TRANS 16-SO" H 7900 875 50  0001 C CNN "Descripcion"
F 5 "Toshiba Semiconductor and Storage" H 7900 875 50  0001 C CNN "Fabricante"
F 6 "TLP291-4(TP,E)" H 7900 875 50  0001 C CNN "Codigo Fabricante"
F 7 "TLP291-4(TPE)CT-ND" H 7900 875 50  0001 C CNN "Codigo Digikey"
	1    7900 875 
	-1   0    0    -1  
$EndComp
$Comp
L Isolator:TLP291-4 U?
U 2 1 5E1143F3
P 7900 1625
AR Path="/5E1143F3" Ref="U?"  Part="1" 
AR Path="/5DC45DB1/5E1143F3" Ref="U?"  Part="2" 
AR Path="/5DCB31E2/5E1143F3" Ref="U9"  Part="2" 
F 0 "U9" H 7900 1950 50  0000 C CNN
F 1 "TLP291-4" H 7900 1859 50  0000 C CNN
F 2 "lib_fp:SO-16-N" H 7700 1425 50  0001 L CIN
F 3 "https://toshiba.semicon-storage.com/info/docget.jsp?did=12858&prodName=TLP291-4" H 7900 1625 50  0001 L CNN
F 4 "OPTOISOLTR 2.5KV 4CH TRANS 16-SO" H 7900 1625 50  0001 C CNN "Descripcion"
F 5 "Toshiba Semiconductor and Storage" H 7900 1625 50  0001 C CNN "Fabricante"
F 6 "TLP291-4(TP,E)" H 7900 1625 50  0001 C CNN "Codigo Fabricante"
F 7 "TLP291-4(TPE)CT-ND" H 7900 1625 50  0001 C CNN "Codigo Digikey"
	2    7900 1625
	-1   0    0    -1  
$EndComp
$Comp
L Isolator:TLP291-4 U?
U 3 1 5E1143FE
P 7900 2400
AR Path="/5E1143FE" Ref="U?"  Part="1" 
AR Path="/5DC45DB1/5E1143FE" Ref="U?"  Part="3" 
AR Path="/5DCB31E2/5E1143FE" Ref="U9"  Part="3" 
F 0 "U9" H 7900 2725 50  0000 C CNN
F 1 "TLP291-4" H 7900 2634 50  0000 C CNN
F 2 "lib_fp:SO-16-N" H 7700 2200 50  0001 L CIN
F 3 "https://toshiba.semicon-storage.com/info/docget.jsp?did=12858&prodName=TLP291-4" H 7900 2400 50  0001 L CNN
F 4 "OPTOISOLTR 2.5KV 4CH TRANS 16-SO" H 7900 2400 50  0001 C CNN "Descripcion"
F 5 "Toshiba Semiconductor and Storage" H 7900 2400 50  0001 C CNN "Fabricante"
F 6 "TLP291-4(TP,E)" H 7900 2400 50  0001 C CNN "Codigo Fabricante"
F 7 "TLP291-4(TPE)CT-ND" H 7900 2400 50  0001 C CNN "Codigo Digikey"
	3    7900 2400
	-1   0    0    -1  
$EndComp
$Comp
L Isolator:TLP291-4 U?
U 4 1 5E114409
P 7900 3150
AR Path="/5E114409" Ref="U?"  Part="1" 
AR Path="/5DC45DB1/5E114409" Ref="U?"  Part="4" 
AR Path="/5DCB31E2/5E114409" Ref="U9"  Part="4" 
F 0 "U9" H 7900 3475 50  0000 C CNN
F 1 "TLP291-4" H 7900 3384 50  0000 C CNN
F 2 "lib_fp:SO-16-N" H 7700 2950 50  0001 L CIN
F 3 "https://toshiba.semicon-storage.com/info/docget.jsp?did=12858&prodName=TLP291-4" H 7900 3150 50  0001 L CNN
F 4 "OPTOISOLTR 2.5KV 4CH TRANS 16-SO" H 7900 3150 50  0001 C CNN "Descripcion"
F 5 "Toshiba Semiconductor and Storage" H 7900 3150 50  0001 C CNN "Fabricante"
F 6 "TLP291-4(TP,E)" H 7900 3150 50  0001 C CNN "Codigo Fabricante"
F 7 "TLP291-4(TPE)CT-ND" H 7900 3150 50  0001 C CNN "Codigo Digikey"
	4    7900 3150
	-1   0    0    -1  
$EndComp
$Comp
L Isolator:TLP291-4 U?
U 1 1 5E122CCF
P 7900 3925
AR Path="/5E122CCF" Ref="U?"  Part="1" 
AR Path="/5DC45DB1/5E122CCF" Ref="U?"  Part="1" 
AR Path="/5DCB31E2/5E122CCF" Ref="U10"  Part="1" 
F 0 "U10" H 7900 4250 50  0000 C CNN
F 1 "TLP291-4" H 7900 4159 50  0000 C CNN
F 2 "lib_fp:SO-16-N" H 7700 3725 50  0001 L CIN
F 3 "https://toshiba.semicon-storage.com/info/docget.jsp?did=12858&prodName=TLP291-4" H 7900 3925 50  0001 L CNN
F 4 "OPTOISOLTR 2.5KV 4CH TRANS 16-SO" H 7900 3925 50  0001 C CNN "Descripcion"
F 5 "Toshiba Semiconductor and Storage" H 7900 3925 50  0001 C CNN "Fabricante"
F 6 "TLP291-4(TP,E)" H 7900 3925 50  0001 C CNN "Codigo Fabricante"
F 7 "TLP291-4(TPE)CT-ND" H 7900 3925 50  0001 C CNN "Codigo Digikey"
	1    7900 3925
	-1   0    0    -1  
$EndComp
$Comp
L Isolator:TLP291-4 U?
U 2 1 5E122CDA
P 7900 4675
AR Path="/5E122CDA" Ref="U?"  Part="1" 
AR Path="/5DC45DB1/5E122CDA" Ref="U?"  Part="2" 
AR Path="/5DCB31E2/5E122CDA" Ref="U10"  Part="2" 
F 0 "U10" H 7900 5000 50  0000 C CNN
F 1 "TLP291-4" H 7900 4909 50  0000 C CNN
F 2 "lib_fp:SO-16-N" H 7700 4475 50  0001 L CIN
F 3 "https://toshiba.semicon-storage.com/info/docget.jsp?did=12858&prodName=TLP291-4" H 7900 4675 50  0001 L CNN
F 4 "OPTOISOLTR 2.5KV 4CH TRANS 16-SO" H 7900 4675 50  0001 C CNN "Descripcion"
F 5 "Toshiba Semiconductor and Storage" H 7900 4675 50  0001 C CNN "Fabricante"
F 6 "TLP291-4(TP,E)" H 7900 4675 50  0001 C CNN "Codigo Fabricante"
F 7 "TLP291-4(TPE)CT-ND" H 7900 4675 50  0001 C CNN "Codigo Digikey"
	2    7900 4675
	-1   0    0    -1  
$EndComp
$Comp
L Isolator:TLP291-4 U?
U 3 1 5E122CE5
P 7875 5450
AR Path="/5E122CE5" Ref="U?"  Part="1" 
AR Path="/5DC45DB1/5E122CE5" Ref="U?"  Part="3" 
AR Path="/5DCB31E2/5E122CE5" Ref="U10"  Part="3" 
F 0 "U10" H 7875 5775 50  0000 C CNN
F 1 "TLP291-4" H 7875 5684 50  0000 C CNN
F 2 "lib_fp:SO-16-N" H 7675 5250 50  0001 L CIN
F 3 "https://toshiba.semicon-storage.com/info/docget.jsp?did=12858&prodName=TLP291-4" H 7875 5450 50  0001 L CNN
F 4 "OPTOISOLTR 2.5KV 4CH TRANS 16-SO" H 7875 5450 50  0001 C CNN "Descripcion"
F 5 "Toshiba Semiconductor and Storage" H 7875 5450 50  0001 C CNN "Fabricante"
F 6 "TLP291-4(TP,E)" H 7875 5450 50  0001 C CNN "Codigo Fabricante"
F 7 "TLP291-4(TPE)CT-ND" H 7875 5450 50  0001 C CNN "Codigo Digikey"
	3    7875 5450
	-1   0    0    -1  
$EndComp
$Comp
L Isolator:TLP291-4 U?
U 4 1 5E122CF0
P 7875 6200
AR Path="/5E122CF0" Ref="U?"  Part="1" 
AR Path="/5DC45DB1/5E122CF0" Ref="U?"  Part="4" 
AR Path="/5DCB31E2/5E122CF0" Ref="U10"  Part="4" 
F 0 "U10" H 7875 6525 50  0000 C CNN
F 1 "TLP291-4" H 7875 6434 50  0000 C CNN
F 2 "lib_fp:SO-16-N" H 7675 6000 50  0001 L CIN
F 3 "https://toshiba.semicon-storage.com/info/docget.jsp?did=12858&prodName=TLP291-4" H 7875 6200 50  0001 L CNN
F 4 "OPTOISOLTR 2.5KV 4CH TRANS 16-SO" H 7875 6200 50  0001 C CNN "Descripcion"
F 5 "Toshiba Semiconductor and Storage" H 7875 6200 50  0001 C CNN "Fabricante"
F 6 "TLP291-4(TP,E)" H 7875 6200 50  0001 C CNN "Codigo Fabricante"
F 7 "TLP291-4(TPE)CT-ND" H 7875 6200 50  0001 C CNN "Codigo Digikey"
	4    7875 6200
	-1   0    0    -1  
$EndComp
$Comp
L Device:LED D?
U 1 1 5DEFE56D
P 3350 1900
AR Path="/5DC45DB1/5DEFE56D" Ref="D?"  Part="1" 
AR Path="/5DCB31E2/5DEFE56D" Ref="D19"  Part="1" 
F 0 "D19" H 3342 1645 50  0000 C CNN
F 1 "LED" H 3342 1736 50  0000 C CNN
F 2 "lib_fp:LED_0603_G" H 3350 1900 50  0001 C CNN
F 3 "~" H 3350 1900 50  0001 C CNN
	1    3350 1900
	-1   0    0    1   
$EndComp
$Comp
L Device:LED D?
U 1 1 5DEFE574
P 3350 2450
AR Path="/5DC45DB1/5DEFE574" Ref="D?"  Part="1" 
AR Path="/5DCB31E2/5DEFE574" Ref="D21"  Part="1" 
F 0 "D21" H 3342 2195 50  0000 C CNN
F 1 "LED" H 3342 2286 50  0000 C CNN
F 2 "lib_fp:LED_0603_G" H 3350 2450 50  0001 C CNN
F 3 "~" H 3350 2450 50  0001 C CNN
	1    3350 2450
	-1   0    0    1   
$EndComp
$Comp
L Device:LED D?
U 1 1 5DEFE57B
P 3350 3000
AR Path="/5DC45DB1/5DEFE57B" Ref="D?"  Part="1" 
AR Path="/5DCB31E2/5DEFE57B" Ref="D22"  Part="1" 
F 0 "D22" H 3342 2745 50  0000 C CNN
F 1 "LED" H 3342 2836 50  0000 C CNN
F 2 "lib_fp:LED_0603_G" H 3350 3000 50  0001 C CNN
F 3 "~" H 3350 3000 50  0001 C CNN
	1    3350 3000
	-1   0    0    1   
$EndComp
$Comp
L Device:LED D?
U 1 1 5DEFE582
P 3350 3550
AR Path="/5DC45DB1/5DEFE582" Ref="D?"  Part="1" 
AR Path="/5DCB31E2/5DEFE582" Ref="D24"  Part="1" 
F 0 "D24" H 3342 3295 50  0000 C CNN
F 1 "LED" H 3342 3386 50  0000 C CNN
F 2 "lib_fp:LED_0603_G" H 3350 3550 50  0001 C CNN
F 3 "~" H 3350 3550 50  0001 C CNN
	1    3350 3550
	-1   0    0    1   
$EndComp
Wire Wire Line
	3500 1900 3750 1900
Wire Wire Line
	3650 2450 3500 2450
Wire Wire Line
	3200 2450 3075 2450
Wire Wire Line
	3075 3000 3200 3000
Wire Wire Line
	3500 3000 3650 3000
Wire Wire Line
	3750 3550 3500 3550
Wire Wire Line
	3200 3550 3075 3550
Wire Wire Line
	3200 1900 3075 1900
$Comp
L Device:LED D?
U 1 1 5DF3A92F
P 3350 4375
AR Path="/5DC45DB1/5DF3A92F" Ref="D?"  Part="1" 
AR Path="/5DCB31E2/5DF3A92F" Ref="D26"  Part="1" 
F 0 "D26" H 3342 4120 50  0000 C CNN
F 1 "LED" H 3342 4211 50  0000 C CNN
F 2 "lib_fp:LED_0603_G" H 3350 4375 50  0001 C CNN
F 3 "~" H 3350 4375 50  0001 C CNN
	1    3350 4375
	-1   0    0    1   
$EndComp
$Comp
L Device:LED D?
U 1 1 5DF3A936
P 3350 4925
AR Path="/5DC45DB1/5DF3A936" Ref="D?"  Part="1" 
AR Path="/5DCB31E2/5DF3A936" Ref="D28"  Part="1" 
F 0 "D28" H 3342 4670 50  0000 C CNN
F 1 "LED" H 3342 4761 50  0000 C CNN
F 2 "lib_fp:LED_0603_G" H 3350 4925 50  0001 C CNN
F 3 "~" H 3350 4925 50  0001 C CNN
	1    3350 4925
	-1   0    0    1   
$EndComp
$Comp
L Device:LED D?
U 1 1 5DF3A93D
P 3350 5475
AR Path="/5DC45DB1/5DF3A93D" Ref="D?"  Part="1" 
AR Path="/5DCB31E2/5DF3A93D" Ref="D30"  Part="1" 
F 0 "D30" H 3342 5220 50  0000 C CNN
F 1 "LED" H 3342 5311 50  0000 C CNN
F 2 "lib_fp:LED_0603_G" H 3350 5475 50  0001 C CNN
F 3 "~" H 3350 5475 50  0001 C CNN
	1    3350 5475
	-1   0    0    1   
$EndComp
$Comp
L Device:LED D?
U 1 1 5DF3A944
P 3350 6025
AR Path="/5DC45DB1/5DF3A944" Ref="D?"  Part="1" 
AR Path="/5DCB31E2/5DF3A944" Ref="D31"  Part="1" 
F 0 "D31" H 3342 5770 50  0000 C CNN
F 1 "LED" H 3342 5861 50  0000 C CNN
F 2 "lib_fp:LED_0603_G" H 3350 6025 50  0001 C CNN
F 3 "~" H 3350 6025 50  0001 C CNN
	1    3350 6025
	-1   0    0    1   
$EndComp
Wire Wire Line
	3500 4375 3750 4375
Wire Wire Line
	3650 4925 3500 4925
Wire Wire Line
	3200 4925 3075 4925
Wire Wire Line
	3075 5475 3200 5475
Wire Wire Line
	3500 5475 3650 5475
Wire Wire Line
	3750 6025 3500 6025
Wire Wire Line
	3200 6025 3075 6025
Wire Wire Line
	3200 4375 3075 4375
$Comp
L Device:LED D?
U 1 1 5DF5C26E
P 8925 775
AR Path="/5DC45DB1/5DF5C26E" Ref="D?"  Part="1" 
AR Path="/5DCB31E2/5DF5C26E" Ref="D17"  Part="1" 
F 0 "D17" H 8916 991 50  0000 C CNN
F 1 "LED" H 8916 900 50  0000 C CNN
F 2 "lib_fp:LED_0603_G" H 8925 775 50  0001 C CNN
F 3 "~" H 8925 775 50  0001 C CNN
	1    8925 775 
	1    0    0    -1  
$EndComp
Wire Wire Line
	8775 775  8650 775 
Wire Wire Line
	8200 975  9625 975 
$Comp
L Device:LED D?
U 1 1 5DF8CB66
P 8925 1525
AR Path="/5DC45DB1/5DF8CB66" Ref="D?"  Part="1" 
AR Path="/5DCB31E2/5DF8CB66" Ref="D18"  Part="1" 
F 0 "D18" H 8916 1741 50  0000 C CNN
F 1 "LED" H 8916 1650 50  0000 C CNN
F 2 "lib_fp:LED_0603_G" H 8925 1525 50  0001 C CNN
F 3 "~" H 8925 1525 50  0001 C CNN
	1    8925 1525
	1    0    0    -1  
$EndComp
Wire Wire Line
	8775 1525 8650 1525
$Comp
L Device:LED D?
U 1 1 5DF9CC96
P 8925 2300
AR Path="/5DC45DB1/5DF9CC96" Ref="D?"  Part="1" 
AR Path="/5DCB31E2/5DF9CC96" Ref="D20"  Part="1" 
F 0 "D20" H 8916 2516 50  0000 C CNN
F 1 "LED" H 8916 2425 50  0000 C CNN
F 2 "lib_fp:LED_0603_G" H 8925 2300 50  0001 C CNN
F 3 "~" H 8925 2300 50  0001 C CNN
	1    8925 2300
	1    0    0    -1  
$EndComp
Wire Wire Line
	8775 2300 8650 2300
$Comp
L Device:LED D?
U 1 1 5DFAD003
P 8925 3050
AR Path="/5DC45DB1/5DFAD003" Ref="D?"  Part="1" 
AR Path="/5DCB31E2/5DFAD003" Ref="D23"  Part="1" 
F 0 "D23" H 8916 3266 50  0000 C CNN
F 1 "LED" H 8916 3175 50  0000 C CNN
F 2 "lib_fp:LED_0603_G" H 8925 3050 50  0001 C CNN
F 3 "~" H 8925 3050 50  0001 C CNN
	1    8925 3050
	1    0    0    -1  
$EndComp
Wire Wire Line
	8775 3050 8650 3050
$Comp
L Device:LED D?
U 1 1 5DFBD51C
P 8925 3825
AR Path="/5DC45DB1/5DFBD51C" Ref="D?"  Part="1" 
AR Path="/5DCB31E2/5DFBD51C" Ref="D25"  Part="1" 
F 0 "D25" H 8916 4041 50  0000 C CNN
F 1 "LED" H 8916 3950 50  0000 C CNN
F 2 "lib_fp:LED_0603_G" H 8925 3825 50  0001 C CNN
F 3 "~" H 8925 3825 50  0001 C CNN
	1    8925 3825
	1    0    0    -1  
$EndComp
Wire Wire Line
	8775 3825 8650 3825
$Comp
L Device:LED D?
U 1 1 5DFCDBEA
P 8925 4575
AR Path="/5DC45DB1/5DFCDBEA" Ref="D?"  Part="1" 
AR Path="/5DCB31E2/5DFCDBEA" Ref="D27"  Part="1" 
F 0 "D27" H 8916 4791 50  0000 C CNN
F 1 "LED" H 8916 4700 50  0000 C CNN
F 2 "lib_fp:LED_0603_G" H 8925 4575 50  0001 C CNN
F 3 "~" H 8925 4575 50  0001 C CNN
	1    8925 4575
	1    0    0    -1  
$EndComp
Wire Wire Line
	8775 4575 8650 4575
$Comp
L Device:LED D?
U 1 1 5DFDE46A
P 8900 5350
AR Path="/5DC45DB1/5DFDE46A" Ref="D?"  Part="1" 
AR Path="/5DCB31E2/5DFDE46A" Ref="D29"  Part="1" 
F 0 "D29" H 8891 5566 50  0000 C CNN
F 1 "LED" H 8891 5475 50  0000 C CNN
F 2 "lib_fp:LED_0603_G" H 8900 5350 50  0001 C CNN
F 3 "~" H 8900 5350 50  0001 C CNN
	1    8900 5350
	1    0    0    -1  
$EndComp
Wire Wire Line
	8750 5350 8625 5350
$Comp
L Device:LED D?
U 1 1 5DFEEF9E
P 8900 6100
AR Path="/5DC45DB1/5DFEEF9E" Ref="D?"  Part="1" 
AR Path="/5DCB31E2/5DFEEF9E" Ref="D32"  Part="1" 
F 0 "D32" H 8891 6316 50  0000 C CNN
F 1 "LED" H 8891 6225 50  0000 C CNN
F 2 "lib_fp:LED_0603_G" H 8900 6100 50  0001 C CNN
F 3 "~" H 8900 6100 50  0001 C CNN
	1    8900 6100
	1    0    0    -1  
$EndComp
Wire Wire Line
	8750 6100 8625 6100
Wire Wire Line
	8175 6300 9600 6300
Wire Wire Line
	8175 5550 9600 5550
Wire Wire Line
	8200 4775 9625 4775
Wire Wire Line
	8200 4025 9625 4025
Wire Wire Line
	8200 3250 9625 3250
Wire Wire Line
	8200 2500 9625 2500
Wire Wire Line
	8200 1725 9625 1725
$EndSCHEMATC
