EESchema Schematic File Version 4
LIBS:Control_Cerraduras-cache
EELAYER 26 0
EELAYER END
$Descr A4 11693 8268
encoding utf-8
Sheet 1 4
Title ""
Date ""
Rev ""
Comp ""
Comment1 ""
Comment2 ""
Comment3 ""
Comment4 ""
$EndDescr
$Comp
L MCP23017-E_SO:MCP23017-E_SO U1
U 1 1 5DC4497A
P 6475 2150
F 0 "U1" H 6475 3315 50  0000 C CNN
F 1 "MCP23017-E_SO" H 6475 3224 50  0000 C CNN
F 2 "lib_fp:SOIC127P1030X265-28N" H 6475 2150 50  0001 L BNN
F 3 "http://ww1.microchip.com/downloads/en/DeviceDoc/20001952C.pdf" H 6475 2150 50  0001 L BNN
F 4 "IC I/O EXPANDER I2C 16B 28SOIC" H 6475 2150 50  0001 L BNN "Descripcion"
F 5 "Microchip Technology" H 6475 2150 50  0001 L BNN "Fabricante"
F 6 "MCP23017T-E/SO" H 6475 2150 50  0001 L BNN "Codigo Fabricante"
F 7 "MCP23017T-E/SOCT-ND" H 6475 2150 50  0001 L BNN "Codigo Digikey"
	1    6475 2150
	1    0    0    -1  
$EndComp
$Sheet
S 9275 1050 1200 2500
U 5DC45DB1
F0 "Cerraduras_1" 50
F1 "Cerraduras_1.sch" 50
F2 "IN_1" I L 9275 1175 50 
F3 "IN_2" I L 9275 1325 50 
F4 "IN_3" I L 9275 1475 50 
F5 "IN_4" I L 9275 1625 50 
F6 "IN_5" I L 9275 1775 50 
F7 "IN_6" I L 9275 1925 50 
F8 "IN_7" I L 9275 2075 50 
F9 "IN_8" I L 9275 2225 50 
F10 "OUT_1" O L 9275 2375 50 
F11 "OUT_2" O L 9275 2525 50 
F12 "OUT_3" O L 9275 2675 50 
F13 "OUT_4" O L 9275 2825 50 
F14 "OUT_5" O L 9275 2975 50 
F15 "OUT_6" O L 9275 3125 50 
F16 "OUT_7" O L 9275 3275 50 
F17 "OUT_8" O L 9275 3425 50 
$EndSheet
$Sheet
S 9275 3800 1200 2500
U 5DCB31E2
F0 "Cerraduras_2" 50
F1 "Cerraduras_2.sch" 50
F2 "IN_1" I L 9275 3925 50 
F3 "IN_2" I L 9275 4075 50 
F4 "IN_3" I L 9275 4225 50 
F5 "IN_4" I L 9275 4375 50 
F6 "IN_5" I L 9275 4525 50 
F7 "IN_6" I L 9275 4675 50 
F8 "IN_7" I L 9275 4825 50 
F9 "IN_8" I L 9275 4975 50 
F10 "OUT_1" O L 9275 5125 50 
F11 "OUT_2" O L 9275 5275 50 
F12 "OUT_3" O L 9275 5425 50 
F13 "OUT_4" O L 9275 5575 50 
F14 "OUT_5" O L 9275 5725 50 
F15 "OUT_6" O L 9275 5875 50 
F16 "OUT_7" O L 9275 6025 50 
F17 "OUT_8" O L 9275 6175 50 
$EndSheet
$Comp
L power:GND #PWR09
U 1 1 5DD9EA41
P 5725 2900
F 0 "#PWR09" H 5725 2650 50  0001 C CNN
F 1 "GND" H 5730 2727 50  0000 C CNN
F 2 "" H 5725 2900 50  0001 C CNN
F 3 "" H 5725 2900 50  0001 C CNN
	1    5725 2900
	1    0    0    -1  
$EndComp
$Comp
L power:GND #PWR012
U 1 1 5DD9EA67
P 7225 3100
F 0 "#PWR012" H 7225 2850 50  0001 C CNN
F 1 "GND" H 7230 2927 50  0000 C CNN
F 2 "" H 7225 3100 50  0001 C CNN
F 3 "" H 7225 3100 50  0001 C CNN
	1    7225 3100
	1    0    0    -1  
$EndComp
Wire Wire Line
	7225 3100 7225 3050
Wire Wire Line
	7225 3050 7175 3050
Wire Wire Line
	5725 2900 5725 2850
Wire Wire Line
	5725 2850 5775 2850
Wire Wire Line
	5775 2750 5725 2750
Wire Wire Line
	5725 2750 5725 2850
Connection ~ 5725 2850
Wire Wire Line
	5775 2650 5725 2650
Wire Wire Line
	5725 2650 5725 2750
Connection ~ 5725 2750
Text Notes 5025 2725 0    50   ~ 0
Address 0100000
$Comp
L power:GND #PWR010
U 1 1 5DD9F2EB
P 5725 5850
F 0 "#PWR010" H 5725 5600 50  0001 C CNN
F 1 "GND" H 5730 5677 50  0000 C CNN
F 2 "" H 5725 5850 50  0001 C CNN
F 3 "" H 5725 5850 50  0001 C CNN
	1    5725 5850
	1    0    0    -1  
$EndComp
Wire Wire Line
	5725 5850 5725 5800
Wire Wire Line
	5725 5800 5775 5800
Wire Wire Line
	5775 5700 5725 5700
Wire Wire Line
	5725 5700 5725 5800
Connection ~ 5725 5800
Text Notes 5025 5775 0    50   ~ 0
Address 0100001
$Comp
L power:+3.3V #PWR011
U 1 1 5DD9F8A0
P 7225 1200
AR Path="/5DD9F8A0" Ref="#PWR011"  Part="1" 
AR Path="/5DC45DB1/5DD9F8A0" Ref="#PWR?"  Part="1" 
AR Path="/5DCB31E2/5DD9F8A0" Ref="#PWR?"  Part="1" 
F 0 "#PWR011" H 7225 1050 50  0001 C CNN
F 1 "+3.3V" H 7240 1373 50  0000 C CNN
F 2 "" H 7225 1200 50  0001 C CNN
F 3 "" H 7225 1200 50  0001 C CNN
	1    7225 1200
	1    0    0    -1  
$EndComp
Wire Wire Line
	7225 1200 7225 1250
Wire Wire Line
	7225 1250 7175 1250
$Comp
L power:+3.3V #PWR013
U 1 1 5DD9FAAF
P 7225 4150
AR Path="/5DD9FAAF" Ref="#PWR013"  Part="1" 
AR Path="/5DC45DB1/5DD9FAAF" Ref="#PWR?"  Part="1" 
AR Path="/5DCB31E2/5DD9FAAF" Ref="#PWR?"  Part="1" 
F 0 "#PWR013" H 7225 4000 50  0001 C CNN
F 1 "+3.3V" H 7240 4323 50  0000 C CNN
F 2 "" H 7225 4150 50  0001 C CNN
F 3 "" H 7225 4150 50  0001 C CNN
	1    7225 4150
	1    0    0    -1  
$EndComp
Wire Wire Line
	7225 4150 7225 4200
Wire Wire Line
	7225 4200 7175 4200
$Comp
L Device:R R1
U 1 1 5DDA11F0
P 2425 1250
F 0 "R1" H 2495 1296 50  0000 L CNN
F 1 "10k" H 2495 1205 50  0000 L CNN
F 2 "lib_fp:R_0603" V 2355 1250 50  0001 C CNN
F 3 "https://www.yageo.com/upload/media/product/productsearch/datasheet/rchip/PYu-RC_Group_51_RoHS_L_10.pdf" H 2425 1250 50  0001 C CNN
F 4 "RES SMD 10K OHM 5% 1/10W 0603" H 2425 1250 50  0001 C CNN "Descripcion"
F 5 "Yageo" H 2425 1250 50  0001 C CNN "Fabricante"
F 6 "RC0603JR-0710KL" H 2425 1250 50  0001 C CNN "Codigo Fabricante"
F 7 "311-10KGRCT-ND" H 2425 1250 50  0001 C CNN "Codigo Digikey"
	1    2425 1250
	1    0    0    -1  
$EndComp
$Comp
L power:+3.3V #PWR03
U 1 1 5DDA11F6
P 1825 1150
AR Path="/5DDA11F6" Ref="#PWR03"  Part="1" 
AR Path="/5DC45DB1/5DDA11F6" Ref="#PWR?"  Part="1" 
AR Path="/5DCB31E2/5DDA11F6" Ref="#PWR?"  Part="1" 
F 0 "#PWR03" H 1825 1000 50  0001 C CNN
F 1 "+3.3V" H 1840 1323 50  0000 C CNN
F 2 "" H 1825 1150 50  0001 C CNN
F 3 "" H 1825 1150 50  0001 C CNN
	1    1825 1150
	1    0    0    -1  
$EndComp
Wire Wire Line
	2700 1400 2700 1450
Wire Wire Line
	2425 1400 2425 1550
Wire Wire Line
	2425 1100 2425 1050
Wire Wire Line
	2700 1050 2700 1100
$Comp
L power:+3.3V #PWR08
U 1 1 5DDA1FB6
P 5275 5600
AR Path="/5DDA1FB6" Ref="#PWR08"  Part="1" 
AR Path="/5DC45DB1/5DDA1FB6" Ref="#PWR?"  Part="1" 
AR Path="/5DCB31E2/5DDA1FB6" Ref="#PWR?"  Part="1" 
F 0 "#PWR08" H 5275 5450 50  0001 C CNN
F 1 "+3.3V" H 5290 5773 50  0000 C CNN
F 2 "" H 5275 5600 50  0001 C CNN
F 3 "" H 5275 5600 50  0001 C CNN
	1    5275 5600
	1    0    0    -1  
$EndComp
$Comp
L power:+3.3V #PWR016
U 1 1 5DDA2069
P 7650 5750
AR Path="/5DDA2069" Ref="#PWR016"  Part="1" 
AR Path="/5DC45DB1/5DDA2069" Ref="#PWR?"  Part="1" 
AR Path="/5DCB31E2/5DDA2069" Ref="#PWR?"  Part="1" 
F 0 "#PWR016" H 7650 5600 50  0001 C CNN
F 1 "+3.3V" H 7665 5923 50  0000 C CNN
F 2 "" H 7650 5750 50  0001 C CNN
F 3 "" H 7650 5750 50  0001 C CNN
	1    7650 5750
	1    0    0    -1  
$EndComp
Wire Wire Line
	7650 5750 7650 5800
Wire Wire Line
	7650 5800 7600 5800
Wire Wire Line
	7300 5800 7175 5800
Wire Wire Line
	5625 5600 5775 5600
Wire Wire Line
	5325 5600 5275 5600
$Comp
L power:GND #PWR014
U 1 1 5DDA44AD
P 7225 6050
F 0 "#PWR014" H 7225 5800 50  0001 C CNN
F 1 "GND" H 7230 5877 50  0000 C CNN
F 2 "" H 7225 6050 50  0001 C CNN
F 3 "" H 7225 6050 50  0001 C CNN
	1    7225 6050
	1    0    0    -1  
$EndComp
Wire Wire Line
	7225 6050 7225 6000
Wire Wire Line
	7225 6000 7175 6000
Entry Wire Line
	7700 1750 7800 1650
Entry Wire Line
	7700 1850 7800 1750
Entry Wire Line
	7700 1950 7800 1850
Entry Wire Line
	7700 2050 7800 1950
Entry Wire Line
	7700 2150 7800 2050
Entry Wire Line
	7700 2250 7800 2150
Entry Wire Line
	7700 2350 7800 2250
Entry Wire Line
	7700 2450 7800 2350
Entry Wire Line
	9025 1175 8925 1075
Entry Wire Line
	9025 1325 8925 1225
Entry Wire Line
	9025 1475 8925 1375
Entry Wire Line
	9025 1625 8925 1525
Entry Wire Line
	9025 1775 8925 1675
Entry Wire Line
	9025 1925 8925 1825
Entry Wire Line
	9025 2075 8925 1975
Entry Wire Line
	9025 2225 8925 2125
Entry Wire Line
	9025 2975 8925 3075
Entry Wire Line
	9025 3125 8925 3225
Entry Wire Line
	9025 3275 8925 3375
Entry Wire Line
	9025 3425 8925 3525
Wire Wire Line
	7425 2450 7700 2450
$Comp
L power:+3.3V #PWR015
U 1 1 5DDC8986
P 7625 2800
AR Path="/5DDC8986" Ref="#PWR015"  Part="1" 
AR Path="/5DC45DB1/5DDC8986" Ref="#PWR?"  Part="1" 
AR Path="/5DCB31E2/5DDC8986" Ref="#PWR?"  Part="1" 
F 0 "#PWR015" H 7625 2650 50  0001 C CNN
F 1 "+3.3V" H 7640 2973 50  0000 C CNN
F 2 "" H 7625 2800 50  0001 C CNN
F 3 "" H 7625 2800 50  0001 C CNN
	1    7625 2800
	1    0    0    -1  
$EndComp
Wire Wire Line
	7625 2800 7625 2850
Wire Wire Line
	7625 2850 7575 2850
Wire Wire Line
	7275 2850 7175 2850
Text Notes 6050 925  0    50   ~ 0
Activación Cerraduras
Text Notes 6200 3875 0    50   ~ 0
Estado Puertas
Entry Wire Line
	7900 4700 8000 4600
Entry Wire Line
	7900 4800 8000 4700
Entry Wire Line
	7900 4900 8000 4800
Entry Wire Line
	7900 5000 8000 4900
Entry Wire Line
	7900 5100 8000 5000
Entry Wire Line
	7900 5200 8000 5100
Entry Wire Line
	7900 5300 8000 5200
Entry Wire Line
	7900 5400 8000 5300
Wire Wire Line
	7900 5400 7175 5400
Wire Wire Line
	7900 5300 7175 5300
Wire Wire Line
	7900 5200 7175 5200
Wire Wire Line
	7900 5100 7175 5100
Wire Wire Line
	7900 5000 7175 5000
Wire Wire Line
	7900 4900 7175 4900
Wire Wire Line
	7900 4800 7175 4800
Wire Wire Line
	7900 4700 7175 4700
Entry Wire Line
	9025 2375 8925 2475
Entry Wire Line
	9025 2525 8925 2625
Entry Wire Line
	9025 2675 8925 2775
Entry Wire Line
	9025 2825 8925 2925
Entry Wire Line
	5100 2450 5000 2550
Entry Wire Line
	5100 2350 5000 2450
Entry Wire Line
	5100 2250 5000 2350
Entry Wire Line
	5100 2150 5000 2250
Entry Wire Line
	5100 2050 5000 2150
Entry Wire Line
	5100 1950 5000 2050
Entry Wire Line
	5100 1850 5000 1950
Entry Wire Line
	5100 1750 5000 1850
Wire Wire Line
	5775 1750 5100 1750
Wire Wire Line
	5775 1850 5100 1850
Wire Wire Line
	5775 1950 5100 1950
Wire Wire Line
	5775 2050 5100 2050
Wire Wire Line
	5775 2150 5100 2150
Wire Wire Line
	5775 2250 5100 2250
Wire Wire Line
	5775 2350 5100 2350
Wire Wire Line
	5775 2450 5100 2450
Entry Wire Line
	8950 3925 8850 3825
Entry Wire Line
	8950 4075 8850 3975
Entry Wire Line
	8950 4225 8850 4125
Entry Wire Line
	8950 4375 8850 4275
Entry Wire Line
	8950 4525 8850 4425
Entry Wire Line
	8950 4675 8850 4575
Entry Wire Line
	8950 4825 8850 4725
Entry Wire Line
	8950 4975 8850 4875
Wire Wire Line
	8950 3925 9275 3925
Wire Wire Line
	8950 4225 9275 4225
Wire Wire Line
	8950 4375 9275 4375
Wire Wire Line
	8950 4525 9275 4525
Wire Wire Line
	8950 4675 9275 4675
Wire Wire Line
	8950 4825 9275 4825
Wire Wire Line
	8950 4975 9275 4975
Entry Wire Line
	5100 5400 5000 5500
Entry Wire Line
	5100 5300 5000 5400
Entry Wire Line
	5100 5200 5000 5300
Entry Wire Line
	5100 5100 5000 5200
Entry Wire Line
	5100 5000 5000 5100
Entry Wire Line
	5100 4900 5000 5000
Entry Wire Line
	5100 4800 5000 4900
Entry Wire Line
	5100 4700 5000 4800
Wire Wire Line
	5775 4700 5100 4700
Wire Wire Line
	5775 4800 5100 4800
Wire Wire Line
	5775 4900 5100 4900
Wire Wire Line
	5775 5000 5100 5000
Wire Wire Line
	5775 5100 5100 5100
Wire Wire Line
	5775 5200 5100 5200
Wire Wire Line
	5775 5300 5100 5300
Wire Wire Line
	5775 5400 5100 5400
Entry Wire Line
	8950 5725 8850 5825
Entry Wire Line
	8950 5875 8850 5975
Entry Wire Line
	8950 6025 8850 6125
Entry Wire Line
	8950 6175 8850 6275
Entry Wire Line
	8950 5125 8850 5225
Entry Wire Line
	8950 5275 8850 5375
Entry Wire Line
	8950 5425 8850 5525
Entry Wire Line
	8950 5575 8850 5675
Text Label 7175 1750 0    50   ~ 0
Lock1
Text Label 7175 1850 0    50   ~ 0
Lock2
Text Label 7175 1950 0    50   ~ 0
Lock3
Text Label 7175 2050 0    50   ~ 0
Lock4
Text Label 7175 2150 0    50   ~ 0
Lock5
Text Label 7175 2250 0    50   ~ 0
Lock6
Text Label 7175 2350 0    50   ~ 0
Lock7
Text Label 7175 2450 0    50   ~ 0
Lock8
Text Label 5550 1750 0    50   ~ 0
Lock9
Text Label 5550 1850 0    50   ~ 0
Lock10
Text Label 5550 1950 0    50   ~ 0
Lock11
Text Label 5550 2050 0    50   ~ 0
Lock12
Text Label 5550 2150 0    50   ~ 0
Lock13
Text Label 5550 2250 0    50   ~ 0
Lock14
Text Label 5550 2350 0    50   ~ 0
Lock15
Text Label 5550 2450 0    50   ~ 0
Lock16
Text Label 9025 1175 0    50   ~ 0
Lock1
Text Label 9025 1325 0    50   ~ 0
Lock2
Text Label 9025 1475 0    50   ~ 0
Lock3
Text Label 9025 1625 0    50   ~ 0
Lock4
Text Label 9025 1775 0    50   ~ 0
Lock5
Text Label 9025 1925 0    50   ~ 0
Lock6
Text Label 9025 2075 0    50   ~ 0
Lock7
Text Label 9025 2225 0    50   ~ 0
Lock8
Text Label 8950 3925 0    50   ~ 0
Lock9
Text Label 8950 4075 0    50   ~ 0
Lock10
Text Label 8950 4225 0    50   ~ 0
Lock11
Text Label 8950 4375 0    50   ~ 0
Lock12
Text Label 8950 4525 0    50   ~ 0
Lock13
Text Label 8950 4675 0    50   ~ 0
Lock14
Text Label 8950 4825 0    50   ~ 0
Lock15
Text Label 8950 4975 0    50   ~ 0
Lock16
Wire Wire Line
	9025 1175 9275 1175
Wire Wire Line
	9025 1325 9275 1325
Wire Wire Line
	9025 1475 9275 1475
Wire Wire Line
	9025 1625 9275 1625
Wire Wire Line
	9025 1775 9275 1775
Wire Wire Line
	9025 1925 9275 1925
Wire Wire Line
	9025 2075 9275 2075
Wire Wire Line
	9025 2225 9275 2225
Wire Wire Line
	8950 4075 9275 4075
Text Label 7175 4700 0    50   ~ 0
Door1
Text Label 7175 4800 0    50   ~ 0
Door2
Text Label 7175 4900 0    50   ~ 0
Door3
Text Label 7175 5000 0    50   ~ 0
Door4
Text Label 7175 5100 0    50   ~ 0
Door5
Text Label 7175 5200 0    50   ~ 0
Door6
Text Label 7175 5300 0    50   ~ 0
Door7
Text Label 7175 5400 0    50   ~ 0
Door8
Text Label 5500 4700 0    50   ~ 0
Door9
Text Label 5500 4800 0    50   ~ 0
Door10
Text Label 5500 4900 0    50   ~ 0
Door11
Text Label 5500 5000 0    50   ~ 0
Door12
Text Label 5500 5100 0    50   ~ 0
Door13
Text Label 5500 5200 0    50   ~ 0
Door14
Text Label 5500 5300 0    50   ~ 0
Door15
Text Label 5500 5400 0    50   ~ 0
Door16
Text Label 9025 2375 0    50   ~ 0
Door1
Text Label 9025 2525 0    50   ~ 0
Door2
Text Label 9025 2675 0    50   ~ 0
Door3
Text Label 9025 2825 0    50   ~ 0
Door4
Text Label 9025 2975 0    50   ~ 0
Door5
Text Label 9025 3125 0    50   ~ 0
Door6
Text Label 9025 3275 0    50   ~ 0
Door7
Text Label 9025 3425 0    50   ~ 0
Door8
Wire Wire Line
	9025 2375 9275 2375
Wire Wire Line
	9025 2525 9275 2525
Wire Wire Line
	9025 2675 9275 2675
Wire Wire Line
	9025 2825 9275 2825
Wire Wire Line
	9025 2975 9275 2975
Wire Wire Line
	9025 3425 9275 3425
Wire Wire Line
	9025 3275 9275 3275
Wire Wire Line
	9025 3125 9275 3125
Wire Bus Line
	5000 6350 8850 6350
Wire Wire Line
	8950 5125 9275 5125
Wire Wire Line
	8950 5275 9275 5275
Wire Wire Line
	8950 5425 9275 5425
Wire Wire Line
	8950 5575 9275 5575
Wire Wire Line
	8950 5725 9275 5725
Wire Wire Line
	8950 6175 9275 6175
Wire Wire Line
	8950 6025 9275 6025
Wire Wire Line
	8950 5875 9275 5875
Text Label 8950 5125 0    50   ~ 0
Door9
Text Label 8950 5275 0    50   ~ 0
Door10
Text Label 8950 5425 0    50   ~ 0
Door11
Text Label 8950 5575 0    50   ~ 0
Door12
Text Label 8950 5725 0    50   ~ 0
Door13
Text Label 8950 5875 0    50   ~ 0
Door14
Text Label 8950 6025 0    50   ~ 0
Door15
Text Label 8950 6175 0    50   ~ 0
Door16
NoConn ~ 7175 2650
NoConn ~ 7175 2750
NoConn ~ 7175 5700
NoConn ~ 7175 5600
$Comp
L Connector:Screw_Terminal_01x04 J1
U 1 1 5DF8125F
P 1250 1550
F 0 "J1" H 1170 1125 50  0000 C CNN
F 1 "I2C" H 1170 1216 50  0000 C CNN
F 2 "lib_fp:5013310407" H 1250 1550 50  0001 C CNN
F 3 "http://www.literature.molex.com/SQLImages/kelmscott/Molex/PDF_Images/987651-6111.PDF" H 1250 1550 50  0001 C CNN
F 4 "CONN HEADER SMD 4POS 1MM" H 1250 1550 50  0001 C CNN "Descripcion"
F 5 "Molex" H 1250 1550 50  0001 C CNN "Fabricante"
F 6 "5013310407" H 1250 1550 50  0001 C CNN "Codigo Fabricante"
F 7 "WM7881CT-ND" H 1250 1550 50  0001 C CNN "Codigo Digikey"
	1    1250 1550
	-1   0    0    1   
$EndComp
Wire Wire Line
	1450 1350 1825 1350
Wire Wire Line
	1825 1150 1825 1350
$Comp
L power:GND #PWR01
U 1 1 5DF8AA6F
P 1500 1700
F 0 "#PWR01" H 1500 1450 50  0001 C CNN
F 1 "GND" H 1505 1527 50  0000 C CNN
F 2 "" H 1500 1700 50  0001 C CNN
F 3 "" H 1500 1700 50  0001 C CNN
	1    1500 1700
	1    0    0    -1  
$EndComp
Wire Wire Line
	1450 1650 1500 1650
Wire Wire Line
	1500 1650 1500 1700
Wire Wire Line
	4600 4400 4600 1450
Wire Wire Line
	4500 1550 4500 4500
$Comp
L power:+3.3V #PWR05
U 1 1 5DFAF1DD
P 2575 1000
AR Path="/5DFAF1DD" Ref="#PWR05"  Part="1" 
AR Path="/5DC45DB1/5DFAF1DD" Ref="#PWR?"  Part="1" 
AR Path="/5DCB31E2/5DFAF1DD" Ref="#PWR?"  Part="1" 
F 0 "#PWR05" H 2575 850 50  0001 C CNN
F 1 "+3.3V" H 2590 1173 50  0000 C CNN
F 2 "" H 2575 1000 50  0001 C CNN
F 3 "" H 2575 1000 50  0001 C CNN
	1    2575 1000
	1    0    0    -1  
$EndComp
Wire Wire Line
	2575 1050 2575 1000
$Comp
L Connector:Screw_Terminal_01x02 J2
U 1 1 5DCB3E0F
P 1250 2500
F 0 "J2" H 1170 2175 50  0000 C CNN
F 1 "12V" H 1170 2266 50  0000 C CNN
F 2 "lib_fp:1757242" H 1250 2500 50  0001 C CNN
F 3 "https://media.digikey.com/pdf/Data%20Sheets/Phoenix%20Contact%20PDFs/1757242.pdf" H 1250 2500 50  0001 C CNN
F 4 "TERM BLOCK HDR 2POS 90DEG 5.08MM" H 1250 2500 50  0001 C CNN "Descripcion"
F 5 "Phoenix Contact" H 1250 2500 50  0001 C CNN "Fabricante"
F 6 "1757242" H 1250 2500 50  0001 C CNN "Codigo Fabricante"
F 7 "277-1106-ND" H 1250 2500 50  0001 C CNN "Codigo Digikey"
	1    1250 2500
	-1   0    0    1   
$EndComp
Wire Wire Line
	1825 2350 1825 2400
Wire Wire Line
	1825 2400 1450 2400
Connection ~ 4600 1450
Connection ~ 4500 1550
Wire Wire Line
	1500 2550 1500 2500
Wire Wire Line
	1500 2500 1450 2500
$Comp
L power:Earth #PWR02
U 1 1 5DCD1641
P 1500 2550
F 0 "#PWR02" H 1500 2300 50  0001 C CNN
F 1 "Earth" H 1500 2400 50  0001 C CNN
F 2 "" H 1500 2550 50  0001 C CNN
F 3 "~" H 1500 2550 50  0001 C CNN
	1    1500 2550
	1    0    0    -1  
$EndComp
Wire Bus Line
	8850 3700 5000 3700
Wire Bus Line
	8925 1000 7800 1000
Wire Bus Line
	8925 3575 8000 3575
$Sheet
S 3300 4700 1025 875 
U 5E17A9D7
F0 "Consumo" 50
F1 "Consumo.sch" 50
F2 "SCL" I L 3300 5250 50 
F3 "SDA" I L 3300 5375 50 
F4 "VIN" I L 3300 4850 50 
F5 "VOUT" O R 4325 4850 50 
$EndSheet
Text Notes 2625 5500 0    50   ~ 0
Address 1000000
$Comp
L power:+12C #PWR04
U 1 1 5E18FF3D
P 1825 2350
F 0 "#PWR04" H 1825 2200 50  0001 C CNN
F 1 "+12C" H 1840 2523 50  0000 C CNN
F 2 "" H 1825 2350 50  0001 C CNN
F 3 "" H 1825 2350 50  0001 C CNN
	1    1825 2350
	1    0    0    -1  
$EndComp
Wire Wire Line
	3300 5250 2975 5250
Wire Wire Line
	2975 5250 2975 1450
Wire Wire Line
	2875 5375 2875 1550
Wire Wire Line
	2875 5375 3300 5375
Wire Wire Line
	1450 1450 2700 1450
Wire Wire Line
	1450 1550 2425 1550
Wire Wire Line
	2425 1050 2575 1050
Wire Wire Line
	2575 1050 2700 1050
Connection ~ 2575 1050
$Comp
L power:PWR_FLAG #FLG03
U 1 1 5DCE7E45
P 2200 1150
F 0 "#FLG03" H 2200 1225 50  0001 C CNN
F 1 "PWR_FLAG" H 2200 1324 50  0000 C CNN
F 2 "" H 2200 1150 50  0001 C CNN
F 3 "~" H 2200 1150 50  0001 C CNN
	1    2200 1150
	1    0    0    -1  
$EndComp
$Comp
L power:PWR_FLAG #FLG01
U 1 1 5DCE7E6D
P 1825 1700
F 0 "#FLG01" H 1825 1775 50  0001 C CNN
F 1 "PWR_FLAG" H 1825 1873 50  0000 C CNN
F 2 "" H 1825 1700 50  0001 C CNN
F 3 "~" H 1825 1700 50  0001 C CNN
	1    1825 1700
	-1   0    0    1   
$EndComp
Wire Wire Line
	1825 1350 2200 1350
Wire Wire Line
	2200 1350 2200 1150
Connection ~ 1825 1350
Wire Wire Line
	1825 1700 1825 1650
Wire Wire Line
	1825 1650 1500 1650
Connection ~ 1500 1650
$Comp
L power:PWR_FLAG #FLG02
U 1 1 5DCF5C06
P 1825 2550
F 0 "#FLG02" H 1825 2625 50  0001 C CNN
F 1 "PWR_FLAG" H 1825 2723 50  0000 C CNN
F 2 "" H 1825 2550 50  0001 C CNN
F 3 "~" H 1825 2550 50  0001 C CNN
	1    1825 2550
	-1   0    0    1   
$EndComp
Wire Wire Line
	1825 2550 1825 2500
Wire Wire Line
	1825 2500 1500 2500
Connection ~ 1500 2500
$Comp
L power:PWR_FLAG #FLG04
U 1 1 5DCFCF2F
P 2200 2350
F 0 "#FLG04" H 2200 2425 50  0001 C CNN
F 1 "PWR_FLAG" H 2200 2524 50  0000 C CNN
F 2 "" H 2200 2350 50  0001 C CNN
F 3 "~" H 2200 2350 50  0001 C CNN
	1    2200 2350
	1    0    0    -1  
$EndComp
Wire Wire Line
	1825 2400 2200 2400
Wire Wire Line
	2200 2400 2200 2350
Connection ~ 1825 2400
$Comp
L power:+12C #PWR06
U 1 1 5DD0E682
P 3150 4800
F 0 "#PWR06" H 3150 4650 50  0001 C CNN
F 1 "+12C" H 3165 4973 50  0000 C CNN
F 2 "" H 3150 4800 50  0001 C CNN
F 3 "" H 3150 4800 50  0001 C CNN
	1    3150 4800
	1    0    0    -1  
$EndComp
Wire Wire Line
	3150 4850 3150 4800
Wire Wire Line
	3150 4850 3300 4850
$Comp
L power:+12V #PWR07
U 1 1 5DD2C01A
P 4450 4800
AR Path="/5DD2C01A" Ref="#PWR07"  Part="1" 
AR Path="/5DC45DB1/5DD2C01A" Ref="#PWR?"  Part="1" 
AR Path="/5DCB31E2/5DD2C01A" Ref="#PWR?"  Part="1" 
F 0 "#PWR07" H 4450 4650 50  0001 C CNN
F 1 "+12V" H 4465 4973 50  0000 C CNN
F 2 "" H 4450 4800 50  0001 C CNN
F 3 "" H 4450 4800 50  0001 C CNN
	1    4450 4800
	-1   0    0    -1  
$EndComp
Wire Wire Line
	4325 4850 4450 4850
Wire Wire Line
	4450 4850 4450 4800
$Comp
L power:PWR_FLAG #FLG05
U 1 1 5DD3B5BC
P 4825 4800
F 0 "#FLG05" H 4825 4875 50  0001 C CNN
F 1 "PWR_FLAG" H 4825 4974 50  0000 C CNN
F 2 "" H 4825 4800 50  0001 C CNN
F 3 "~" H 4825 4800 50  0001 C CNN
	1    4825 4800
	1    0    0    -1  
$EndComp
Wire Wire Line
	4450 4850 4825 4850
Wire Wire Line
	4825 4850 4825 4800
Connection ~ 4450 4850
Wire Wire Line
	4600 4400 5775 4400
Wire Wire Line
	4500 4500 5775 4500
Connection ~ 2425 1550
Connection ~ 2700 1450
Wire Wire Line
	4600 1450 5775 1450
Wire Wire Line
	4500 1550 5775 1550
$Comp
L power:GND #PWR?
U 1 1 5DDB0CEF
P 7575 1300
AR Path="/5E17A9D7/5DDB0CEF" Ref="#PWR?"  Part="1" 
AR Path="/5DDB0CEF" Ref="#PWR0149"  Part="1" 
F 0 "#PWR0149" H 7575 1050 50  0001 C CNN
F 1 "GND" H 7580 1127 50  0000 C CNN
F 2 "" H 7575 1300 50  0001 C CNN
F 3 "" H 7575 1300 50  0001 C CNN
	1    7575 1300
	1    0    0    -1  
$EndComp
$Comp
L power:GND #PWR?
U 1 1 5DDC72D8
P 7575 4250
AR Path="/5E17A9D7/5DDC72D8" Ref="#PWR?"  Part="1" 
AR Path="/5DDC72D8" Ref="#PWR0150"  Part="1" 
F 0 "#PWR0150" H 7575 4000 50  0001 C CNN
F 1 "GND" H 7580 4077 50  0000 C CNN
F 2 "" H 7575 4250 50  0001 C CNN
F 3 "" H 7575 4250 50  0001 C CNN
	1    7575 4250
	1    0    0    -1  
$EndComp
Connection ~ 2875 1550
Wire Wire Line
	2875 1550 4500 1550
Connection ~ 2975 1450
Wire Wire Line
	2975 1450 4600 1450
Wire Wire Line
	2700 1450 2975 1450
Wire Wire Line
	2425 1550 2875 1550
$Comp
L Mechanical:MountingHole_Pad MH1
U 1 1 5DDE7AE7
P 1475 6225
F 0 "MH1" V 1712 6230 50  0000 C CNN
F 1 "MountingHole_Pad" V 1621 6230 50  0000 C CNN
F 2 "Mounting_Holes:MountingHole_3.5mm_Pad_Via" H 1475 6225 50  0001 C CNN
F 3 "~" H 1475 6225 50  0001 C CNN
	1    1475 6225
	0    -1   -1   0   
$EndComp
$Comp
L Mechanical:MountingHole_Pad MH2
U 1 1 5DDE7C6E
P 1475 6600
F 0 "MH2" V 1712 6605 50  0000 C CNN
F 1 "MountingHole_Pad" V 1621 6605 50  0000 C CNN
F 2 "Mounting_Holes:MountingHole_3.5mm_Pad_Via" H 1475 6600 50  0001 C CNN
F 3 "~" H 1475 6600 50  0001 C CNN
	1    1475 6600
	0    -1   -1   0   
$EndComp
$Comp
L Mechanical:MountingHole_Pad MH3
U 1 1 5DDE7CB2
P 1475 6950
F 0 "MH3" V 1712 6955 50  0000 C CNN
F 1 "MountingHole_Pad" V 1621 6955 50  0000 C CNN
F 2 "Mounting_Holes:MountingHole_3.5mm_Pad_Via" H 1475 6950 50  0001 C CNN
F 3 "~" H 1475 6950 50  0001 C CNN
	1    1475 6950
	0    -1   -1   0   
$EndComp
$Comp
L Mechanical:MountingHole_Pad MH4
U 1 1 5DDE7CF8
P 1475 7300
F 0 "MH4" V 1712 7305 50  0000 C CNN
F 1 "MountingHole_Pad" V 1621 7305 50  0000 C CNN
F 2 "Mounting_Holes:MountingHole_3.5mm_Pad_Via" H 1475 7300 50  0001 C CNN
F 3 "~" H 1475 7300 50  0001 C CNN
	1    1475 7300
	0    -1   -1   0   
$EndComp
$Comp
L power:Earth #PWR0151
U 1 1 5DDE8780
P 1700 7425
AR Path="/5DDE8780" Ref="#PWR0151"  Part="1" 
AR Path="/5DC45DB1/5DDE8780" Ref="#PWR?"  Part="1" 
AR Path="/5DCB31E2/5DDE8780" Ref="#PWR?"  Part="1" 
F 0 "#PWR0151" H 1700 7175 50  0001 C CNN
F 1 "Earth" H 1700 7275 50  0001 C CNN
F 2 "" H 1700 7425 50  0001 C CNN
F 3 "~" H 1700 7425 50  0001 C CNN
	1    1700 7425
	1    0    0    -1  
$EndComp
Wire Wire Line
	1700 7425 1700 7300
Wire Wire Line
	1700 6225 1575 6225
Wire Wire Line
	1575 6600 1700 6600
Connection ~ 1700 6600
Wire Wire Line
	1700 6600 1700 6225
Wire Wire Line
	1575 6950 1700 6950
Connection ~ 1700 6950
Wire Wire Line
	1700 6950 1700 6600
Wire Wire Line
	1575 7300 1700 7300
Connection ~ 1700 7300
Wire Wire Line
	1700 7300 1700 6950
Text Label 1500 1550 0    50   ~ 0
SDA
Text Label 1500 1450 0    50   ~ 0
SCL
$Comp
L Device:C C?
U 1 1 5DF8993A
P 7375 4200
AR Path="/5E17A9D7/5DF8993A" Ref="C?"  Part="1" 
AR Path="/5DF8993A" Ref="C3"  Part="1" 
F 0 "C3" V 7123 4200 50  0000 C CNN
F 1 "0.1u" V 7214 4200 50  0000 C CNN
F 2 "lib_fp:C_0603" H 7413 4050 50  0001 C CNN
F 3 "https://api.kemet.com/component-edge/download/datasheet/C0603C104Z3VACTU.pdf" H 7375 4200 50  0001 C CNN
F 4 "CAP CER 0.1UF 25V Y5V 0603" V 7375 4200 50  0001 C CNN "Descripcion"
F 5 "KEMET" V 7375 4200 50  0001 C CNN "Fabricante"
F 6 "C0603C104Z3VACTU" V 7375 4200 50  0001 C CNN "Codigo Fabricante"
F 7 "399-1100-1-ND" V 7375 4200 50  0001 C CNN "Codigo Digikey"
	1    7375 4200
	0    -1   -1   0   
$EndComp
Connection ~ 7225 4200
Wire Wire Line
	7575 4250 7575 4200
Wire Wire Line
	7575 4200 7525 4200
$Comp
L Device:C C?
U 1 1 5DFA25C9
P 7375 1250
AR Path="/5E17A9D7/5DFA25C9" Ref="C?"  Part="1" 
AR Path="/5DFA25C9" Ref="C2"  Part="1" 
F 0 "C2" V 7123 1250 50  0000 C CNN
F 1 "0.1u" V 7214 1250 50  0000 C CNN
F 2 "lib_fp:C_0603" H 7413 1100 50  0001 C CNN
F 3 "https://api.kemet.com/component-edge/download/datasheet/C0603C104Z3VACTU.pdf" H 7375 1250 50  0001 C CNN
F 4 "CAP CER 0.1UF 25V Y5V 0603" V 7375 1250 50  0001 C CNN "Descripcion"
F 5 "KEMET" V 7375 1250 50  0001 C CNN "Fabricante"
F 6 "C0603C104Z3VACTU" V 7375 1250 50  0001 C CNN "Codigo Fabricante"
F 7 "399-1100-1-ND" V 7375 1250 50  0001 C CNN "Codigo Digikey"
	1    7375 1250
	0    -1   -1   0   
$EndComp
$Comp
L Device:R R2
U 1 1 5DFB3A94
P 2700 1250
F 0 "R2" H 2770 1296 50  0000 L CNN
F 1 "10k" H 2770 1205 50  0000 L CNN
F 2 "lib_fp:R_0603" V 2630 1250 50  0001 C CNN
F 3 "https://www.yageo.com/upload/media/product/productsearch/datasheet/rchip/PYu-RC_Group_51_RoHS_L_10.pdf" H 2700 1250 50  0001 C CNN
F 4 "RES SMD 10K OHM 5% 1/10W 0603" H 2700 1250 50  0001 C CNN "Descripcion"
F 5 "Yageo" H 2700 1250 50  0001 C CNN "Fabricante"
F 6 "RC0603JR-0710KL" H 2700 1250 50  0001 C CNN "Codigo Fabricante"
F 7 "311-10KGRCT-ND" H 2700 1250 50  0001 C CNN "Codigo Digikey"
	1    2700 1250
	1    0    0    -1  
$EndComp
$Comp
L Device:R R3
U 1 1 5DFB3ADC
P 7425 2850
F 0 "R3" V 7350 2800 50  0000 L CNN
F 1 "10k" V 7425 2775 50  0000 L CNN
F 2 "lib_fp:R_0603" V 7355 2850 50  0001 C CNN
F 3 "https://www.yageo.com/upload/media/product/productsearch/datasheet/rchip/PYu-RC_Group_51_RoHS_L_10.pdf" H 7425 2850 50  0001 C CNN
F 4 "RES SMD 10K OHM 5% 1/10W 0603" H 7425 2850 50  0001 C CNN "Descripcion"
F 5 "Yageo" H 7425 2850 50  0001 C CNN "Fabricante"
F 6 "RC0603JR-0710KL" H 7425 2850 50  0001 C CNN "Codigo Fabricante"
F 7 "311-10KGRCT-ND" H 7425 2850 50  0001 C CNN "Codigo Digikey"
	1    7425 2850
	0    1    1    0   
$EndComp
$Comp
L Device:R R5
U 1 1 5DFB3D62
P 7450 5800
F 0 "R5" V 7375 5750 50  0000 L CNN
F 1 "10k" V 7450 5725 50  0000 L CNN
F 2 "lib_fp:R_0603" V 7380 5800 50  0001 C CNN
F 3 "https://www.yageo.com/upload/media/product/productsearch/datasheet/rchip/PYu-RC_Group_51_RoHS_L_10.pdf" H 7450 5800 50  0001 C CNN
F 4 "RES SMD 10K OHM 5% 1/10W 0603" H 7450 5800 50  0001 C CNN "Descripcion"
F 5 "Yageo" H 7450 5800 50  0001 C CNN "Fabricante"
F 6 "RC0603JR-0710KL" H 7450 5800 50  0001 C CNN "Codigo Fabricante"
F 7 "311-10KGRCT-ND" H 7450 5800 50  0001 C CNN "Codigo Digikey"
	1    7450 5800
	0    1    1    0   
$EndComp
$Comp
L Device:R R4
U 1 1 5DFB3DE4
P 5475 5600
F 0 "R4" V 5400 5550 50  0000 L CNN
F 1 "10k" V 5475 5525 50  0000 L CNN
F 2 "lib_fp:R_0603" V 5405 5600 50  0001 C CNN
F 3 "https://www.yageo.com/upload/media/product/productsearch/datasheet/rchip/PYu-RC_Group_51_RoHS_L_10.pdf" H 5475 5600 50  0001 C CNN
F 4 "RES SMD 10K OHM 5% 1/10W 0603" H 5475 5600 50  0001 C CNN "Descripcion"
F 5 "Yageo" H 5475 5600 50  0001 C CNN "Fabricante"
F 6 "RC0603JR-0710KL" H 5475 5600 50  0001 C CNN "Codigo Fabricante"
F 7 "311-10KGRCT-ND" H 5475 5600 50  0001 C CNN "Codigo Digikey"
	1    5475 5600
	0    1    1    0   
$EndComp
Connection ~ 7225 1250
Wire Wire Line
	7575 1300 7575 1250
Wire Wire Line
	7575 1250 7525 1250
Wire Wire Line
	7175 1750 7700 1750
Wire Wire Line
	7175 1850 7700 1850
Wire Wire Line
	7175 1950 7700 1950
Wire Wire Line
	7175 2050 7700 2050
Wire Wire Line
	7175 2150 7700 2150
Wire Wire Line
	7175 2250 7700 2250
Wire Wire Line
	7175 2350 7700 2350
Wire Wire Line
	7400 2450 7175 2450
$Comp
L MCP23017-E_SO:MCP23017-E_SO U2
U 1 1 5E036AF7
P 6475 5100
F 0 "U2" H 6475 6265 50  0000 C CNN
F 1 "MCP23017-E_SO" H 6475 6174 50  0000 C CNN
F 2 "lib_fp:SOIC127P1030X265-28N" H 6475 5100 50  0001 L BNN
F 3 "http://ww1.microchip.com/downloads/en/DeviceDoc/20001952C.pdf" H 6475 5100 50  0001 L BNN
F 4 "IC I/O EXPANDER I2C 16B 28SOIC" H 6475 5100 50  0001 L BNN "Descripcion"
F 5 "Microchip Technology" H 6475 5100 50  0001 L BNN "Fabricante"
F 6 "MCP23017T-E/SO" H 6475 5100 50  0001 L BNN "Codigo Fabricante"
F 7 "MCP23017T-E/SOCT-ND" H 6475 5100 50  0001 L BNN "Codigo Digikey"
	1    6475 5100
	1    0    0    -1  
$EndComp
Wire Bus Line
	8925 2475 8925 3575
Wire Bus Line
	8000 3575 8000 5300
Wire Bus Line
	7800 1000 7800 2350
Wire Bus Line
	8925 1000 8925 2125
Wire Bus Line
	8850 3700 8850 4875
Wire Bus Line
	5000 1850 5000 3700
Wire Bus Line
	5000 4800 5000 6350
Wire Bus Line
	8850 5225 8850 6350
$EndSCHEMATC
