EESchema Schematic File Version 4
LIBS:Control_Tomas-cache
EELAYER 26 0
EELAYER END
$Descr A4 11693 8268
encoding utf-8
Sheet 1 4
Title ""
Date ""
Rev ""
Comp ""
Comment1 ""
Comment2 ""
Comment3 ""
Comment4 ""
$EndDescr
$Comp
L MCP23017-E_SO:MCP23017-E_SO U1
U 1 1 5DC4497A
P 7725 3900
F 0 "U1" H 7725 5065 50  0000 C CNN
F 1 "MCP23017-E_SO" H 7725 4974 50  0000 C CNN
F 2 "lib_fp:SOIC127P1030X265-28N" H 7725 3900 50  0001 L BNN
F 3 "http://ww1.microchip.com/downloads/en/DeviceDoc/20001952C.pdf" H 7725 3900 50  0001 L BNN
F 4 "IC I/O EXPANDER I2C 16B 28SOIC" H 7725 3900 50  0001 L BNN "Descripcion"
F 5 "Microchip Technology" H 7725 3900 50  0001 L BNN "Fabricante"
F 6 "MCP23017T-E/SO" H 7725 3900 50  0001 L BNN "Codigo Fabricante"
F 7 "MCP23017T-E/SOCT-ND" H 7725 3900 50  0001 L BNN "Codigo Digikey"
	1    7725 3900
	1    0    0    -1  
$EndComp
$Sheet
S 9525 2100 1100 1300
U 5DC45DB1
F0 "Relays_1" 50
F1 "Relays_1.sch" 50
F2 "IN_1" I L 9525 2225 50 
F3 "IN_2" I L 9525 2375 50 
F4 "IN_3" I L 9525 2525 50 
F5 "IN_4" I L 9525 2675 50 
F6 "IN_5" I L 9525 2825 50 
F7 "IN_6" I L 9525 2975 50 
F8 "IN_7" I L 9525 3125 50 
F9 "IN_8" I L 9525 3275 50 
$EndSheet
$Sheet
S 9525 4700 1100 1300
U 5E07C1CD
F0 "Relays_2" 50
F1 "Relays_2.sch" 50
F2 "IN_1" I L 9525 4825 50 
F3 "IN_2" I L 9525 4975 50 
F4 "IN_3" I L 9525 5125 50 
F5 "IN_4" I L 9525 5275 50 
F6 "IN_5" I L 9525 5425 50 
F7 "IN_6" I L 9525 5575 50 
F8 "IN_7" I L 9525 5725 50 
F9 "IN_8" I L 9525 5875 50 
$EndSheet
$Comp
L power:+3.3V #PWR011
U 1 1 5E084317
P 8475 2950
AR Path="/5E084317" Ref="#PWR011"  Part="1" 
AR Path="/5DC45DB1/5E084317" Ref="#PWR?"  Part="1" 
F 0 "#PWR011" H 8475 2800 50  0001 C CNN
F 1 "+3.3V" H 8490 3123 50  0000 C CNN
F 2 "" H 8475 2950 50  0001 C CNN
F 3 "" H 8475 2950 50  0001 C CNN
	1    8475 2950
	1    0    0    -1  
$EndComp
Wire Wire Line
	8425 3000 8475 3000
$Comp
L power:+3.3V #PWR015
U 1 1 5E084351
P 8825 4550
AR Path="/5E084351" Ref="#PWR015"  Part="1" 
AR Path="/5DC45DB1/5E084351" Ref="#PWR?"  Part="1" 
F 0 "#PWR015" H 8825 4400 50  0001 C CNN
F 1 "+3.3V" H 8840 4723 50  0000 C CNN
F 2 "" H 8825 4550 50  0001 C CNN
F 3 "" H 8825 4550 50  0001 C CNN
	1    8825 4550
	1    0    0    -1  
$EndComp
Wire Wire Line
	8775 4600 8825 4600
Wire Wire Line
	8825 4600 8825 4550
Wire Wire Line
	8475 4600 8425 4600
NoConn ~ 8425 4400
NoConn ~ 8425 4500
$Comp
L power:GND #PWR017
U 1 1 5E084462
P 8475 4850
F 0 "#PWR017" H 8475 4600 50  0001 C CNN
F 1 "GND" H 8480 4677 50  0000 C CNN
F 2 "" H 8475 4850 50  0001 C CNN
F 3 "" H 8475 4850 50  0001 C CNN
	1    8475 4850
	1    0    0    -1  
$EndComp
Wire Wire Line
	8425 4800 8475 4800
Wire Wire Line
	8475 4800 8475 4850
$Comp
L power:+3.3V #PWR014
U 1 1 5E084650
P 6500 4450
AR Path="/5E084650" Ref="#PWR014"  Part="1" 
AR Path="/5DC45DB1/5E084650" Ref="#PWR?"  Part="1" 
F 0 "#PWR014" H 6500 4300 50  0001 C CNN
F 1 "+3.3V" H 6515 4623 50  0000 C CNN
F 2 "" H 6500 4450 50  0001 C CNN
F 3 "" H 6500 4450 50  0001 C CNN
	1    6500 4450
	-1   0    0    -1  
$EndComp
Wire Wire Line
	6550 4500 6500 4500
Wire Wire Line
	6500 4500 6500 4450
Wire Wire Line
	7025 4500 6850 4500
$Comp
L power:GND #PWR016
U 1 1 5E0847E4
P 6975 4650
F 0 "#PWR016" H 6975 4400 50  0001 C CNN
F 1 "GND" H 6980 4477 50  0000 C CNN
F 2 "" H 6975 4650 50  0001 C CNN
F 3 "" H 6975 4650 50  0001 C CNN
	1    6975 4650
	-1   0    0    -1  
$EndComp
Wire Wire Line
	7025 4600 6975 4600
Wire Wire Line
	6975 4600 6975 4650
Wire Wire Line
	6975 4600 6975 4400
Wire Wire Line
	6975 4400 7025 4400
Connection ~ 6975 4600
Text Notes 6250 4675 0    50   ~ 0
Address 0100010
Text Label 8425 3500 0    50   ~ 0
Lock1
Text Label 8425 3600 0    50   ~ 0
Lock2
Text Label 8425 3700 0    50   ~ 0
Lock3
Text Label 8425 3800 0    50   ~ 0
Lock4
Text Label 8425 3900 0    50   ~ 0
Lock5
Text Label 8425 4000 0    50   ~ 0
Lock6
Text Label 8425 4100 0    50   ~ 0
Lock7
Text Label 8425 4200 0    50   ~ 0
Lock8
Text Label 6775 3500 0    50   ~ 0
Lock9
Text Label 6775 3600 0    50   ~ 0
Lock10
Text Label 6775 3700 0    50   ~ 0
Lock11
Text Label 6775 3800 0    50   ~ 0
Lock12
Text Label 6775 3900 0    50   ~ 0
Lock13
Text Label 6775 4000 0    50   ~ 0
Lock14
Text Label 6775 4100 0    50   ~ 0
Lock15
Text Label 6775 4200 0    50   ~ 0
Lock16
Wire Wire Line
	7025 3500 6175 3500
Entry Wire Line
	6075 3600 6175 3500
Wire Wire Line
	7025 3600 6175 3600
Entry Wire Line
	6075 3700 6175 3600
Wire Wire Line
	7025 3700 6175 3700
Entry Wire Line
	6075 3800 6175 3700
Wire Wire Line
	7025 3800 6175 3800
Entry Wire Line
	6075 3900 6175 3800
Wire Wire Line
	7025 3900 6175 3900
Entry Wire Line
	6075 4000 6175 3900
Wire Wire Line
	7025 4000 6175 4000
Entry Wire Line
	6075 4100 6175 4000
Wire Wire Line
	7025 4100 6175 4100
Entry Wire Line
	6075 4200 6175 4100
Wire Wire Line
	7025 4200 6175 4200
Entry Wire Line
	6075 4300 6175 4200
Text Label 9225 4975 0    50   ~ 0
Lock10
Text Label 9225 5125 0    50   ~ 0
Lock11
Text Label 9225 5275 0    50   ~ 0
Lock12
Text Label 9225 5425 0    50   ~ 0
Lock13
Text Label 9225 5575 0    50   ~ 0
Lock14
Text Label 9225 5725 0    50   ~ 0
Lock15
Text Label 9225 5875 0    50   ~ 0
Lock16
Wire Wire Line
	9525 4825 9225 4825
Entry Wire Line
	9125 4925 9225 4825
Wire Wire Line
	9525 4975 9225 4975
Entry Wire Line
	9125 5075 9225 4975
Wire Wire Line
	9525 5125 9225 5125
Entry Wire Line
	9125 5225 9225 5125
Wire Wire Line
	9525 5275 9225 5275
Entry Wire Line
	9125 5375 9225 5275
Wire Wire Line
	9525 5425 9225 5425
Entry Wire Line
	9125 5525 9225 5425
Wire Wire Line
	9525 5575 9225 5575
Entry Wire Line
	9125 5675 9225 5575
Wire Wire Line
	9525 5725 9225 5725
Entry Wire Line
	9125 5825 9225 5725
Wire Wire Line
	9525 5875 9225 5875
Entry Wire Line
	9125 5975 9225 5875
Text Label 9225 4825 0    50   ~ 0
Lock9
Text Label 9225 2225 0    50   ~ 0
Lock1
Text Label 9225 2375 0    50   ~ 0
Lock2
Text Label 9225 2525 0    50   ~ 0
Lock3
Text Label 9225 2675 0    50   ~ 0
Lock4
Text Label 9225 2825 0    50   ~ 0
Lock5
Text Label 9225 2975 0    50   ~ 0
Lock6
Text Label 9225 3125 0    50   ~ 0
Lock7
Text Label 9225 3275 0    50   ~ 0
Lock8
Wire Wire Line
	8425 3500 8675 3500
Entry Wire Line
	8675 3500 8775 3400
Wire Wire Line
	8425 3600 8675 3600
Entry Wire Line
	8675 3600 8775 3500
Wire Wire Line
	8425 3700 8675 3700
Entry Wire Line
	8675 3700 8775 3600
Wire Wire Line
	8425 3800 8675 3800
Entry Wire Line
	8675 3800 8775 3700
Wire Wire Line
	8425 3900 8675 3900
Entry Wire Line
	8675 3900 8775 3800
Wire Wire Line
	8425 4000 8675 4000
Entry Wire Line
	8675 4000 8775 3900
Wire Wire Line
	8425 4100 8675 4100
Entry Wire Line
	8675 4100 8775 4000
Wire Wire Line
	8425 4200 8675 4200
Entry Wire Line
	8675 4200 8775 4100
Entry Wire Line
	9125 2325 9225 2225
Entry Wire Line
	9125 2475 9225 2375
Entry Wire Line
	9125 2625 9225 2525
Entry Wire Line
	9125 2775 9225 2675
Entry Wire Line
	9125 2925 9225 2825
Entry Wire Line
	9125 3075 9225 2975
Entry Wire Line
	9125 3225 9225 3125
Entry Wire Line
	9125 3375 9225 3275
Wire Bus Line
	9125 3375 8775 3375
Wire Wire Line
	3250 3200 3250 3150
Wire Wire Line
	3050 3300 3050 3150
$Comp
L power:+3.3V #PWR09
U 1 1 5E0940DD
P 3150 2750
AR Path="/5E0940DD" Ref="#PWR09"  Part="1" 
AR Path="/5DC45DB1/5E0940DD" Ref="#PWR?"  Part="1" 
F 0 "#PWR09" H 3150 2600 50  0001 C CNN
F 1 "+3.3V" H 3165 2923 50  0000 C CNN
F 2 "" H 3150 2750 50  0001 C CNN
F 3 "" H 3150 2750 50  0001 C CNN
	1    3150 2750
	1    0    0    -1  
$EndComp
Wire Wire Line
	3250 2850 3250 2800
Wire Wire Line
	3250 2800 3150 2800
Wire Wire Line
	3050 2800 3050 2850
Wire Wire Line
	3150 2750 3150 2800
Connection ~ 3150 2800
Wire Wire Line
	3150 2800 3050 2800
$Comp
L Connector:Screw_Terminal_01x04 J3
U 1 1 5E0965FD
P 1750 3300
F 0 "J3" H 1670 2875 50  0000 C CNN
F 1 "I2C" H 1670 2966 50  0000 C CNN
F 2 "lib_fp:5013310407" H 1750 3300 50  0001 C CNN
F 3 "http://www.literature.molex.com/SQLImages/kelmscott/Molex/PDF_Images/987651-6111.PDF" H 1750 3300 50  0001 C CNN
F 4 "CONN HEADER SMD 4POS 1MM" H 1750 3300 50  0001 C CNN "Descripcion"
F 5 "Molex" H 1750 3300 50  0001 C CNN "Fabricante"
F 6 "5013310407" H 1750 3300 50  0001 C CNN "Codigo Fabricante"
F 7 "WM7881CT-ND" H 1750 3300 50  0001 C CNN "Codigo Digikey"
	1    1750 3300
	-1   0    0    1   
$EndComp
Wire Wire Line
	1950 3400 2000 3400
Wire Wire Line
	2000 3400 2000 3450
Wire Wire Line
	1950 3100 2300 3100
Wire Wire Line
	2300 3100 2300 2900
$Comp
L power:+3.3V #PWR010
U 1 1 5E09D362
P 2300 2900
AR Path="/5E09D362" Ref="#PWR010"  Part="1" 
AR Path="/5DC45DB1/5E09D362" Ref="#PWR?"  Part="1" 
F 0 "#PWR010" H 2300 2750 50  0001 C CNN
F 1 "+3.3V" H 2315 3073 50  0000 C CNN
F 2 "" H 2300 2900 50  0001 C CNN
F 3 "" H 2300 2900 50  0001 C CNN
	1    2300 2900
	1    0    0    -1  
$EndComp
$Comp
L power:GND #PWR013
U 1 1 5E09D3BB
P 2000 3450
F 0 "#PWR013" H 2000 3200 50  0001 C CNN
F 1 "GND" H 2005 3277 50  0000 C CNN
F 2 "" H 2000 3450 50  0001 C CNN
F 3 "" H 2000 3450 50  0001 C CNN
	1    2000 3450
	-1   0    0    -1  
$EndComp
$Comp
L Connector:Screw_Terminal_01x02 J2
U 1 1 5E09D7BC
P 1750 2275
F 0 "J2" H 1670 1950 50  0000 C CNN
F 1 "12V" H 1670 2041 50  0000 C CNN
F 2 "lib_fp:1757242" H 1750 2275 50  0001 C CNN
F 3 "https://media.digikey.com/pdf/Data%20Sheets/Phoenix%20Contact%20PDFs/1757242.pdf" H 1750 2275 50  0001 C CNN
F 4 "TERM BLOCK HDR 2POS 90DEG 5.08MM" H 1750 2275 50  0001 C CNN "Descripcion"
F 5 "Phoenix Contact" H 1750 2275 50  0001 C CNN "Fabricante"
F 6 "1757242" H 1750 2275 50  0001 C CNN "Codigo Fabricante"
F 7 "277-1106-ND" H 1750 2275 50  0001 C CNN "Codigo Digikey"
	1    1750 2275
	-1   0    0    1   
$EndComp
$Comp
L Connector:Screw_Terminal_01x03 J1
U 1 1 5E0A08A0
P 1725 1300
F 0 "J1" H 1645 975 50  0000 C CNN
F 1 "220VAC" H 1645 1066 50  0000 C CNN
F 2 "lib_fp:1804807" H 1725 1300 50  0001 C CNN
F 3 "https://media.digikey.com/pdf/Data%20Sheets/Phoenix%20Contact%20PDFs/1804807.pdf" H 1725 1300 50  0001 C CNN
F 4 "TERM BLOCK HDR 3POS 90DEG 7.62MM" H 1725 1300 50  0001 C CNN "Descripcion"
F 5 "Phoenix Contact" H 1725 1300 50  0001 C CNN "Fabricante"
F 6 "1804807" H 1725 1300 50  0001 C CNN "Codigo Fabricante"
F 7 "277-1467-ND" H 1725 1300 50  0001 C CNN "Codigo Digikey"
	1    1725 1300
	-1   0    0    1   
$EndComp
$Comp
L power:LINE #PWR01
U 1 1 5E0A08F1
P 2350 1150
F 0 "#PWR01" H 2350 1000 50  0001 C CNN
F 1 "LINE" H 2367 1323 50  0000 C CNN
F 2 "" H 2350 1150 50  0001 C CNN
F 3 "" H 2350 1150 50  0001 C CNN
	1    2350 1150
	1    0    0    -1  
$EndComp
$Comp
L power:NEUT #PWR02
U 1 1 5E0A0953
P 3100 1250
F 0 "#PWR02" H 3100 1100 50  0001 C CNN
F 1 "NEUT" H 3117 1423 50  0000 C CNN
F 2 "" H 3100 1250 50  0001 C CNN
F 3 "" H 3100 1250 50  0001 C CNN
	1    3100 1250
	1    0    0    -1  
$EndComp
$Comp
L power:+12V #PWR07
U 1 1 5E0A0993
P 2375 2125
F 0 "#PWR07" H 2375 1975 50  0001 C CNN
F 1 "+12V" H 2390 2298 50  0000 C CNN
F 2 "" H 2375 2125 50  0001 C CNN
F 3 "" H 2375 2125 50  0001 C CNN
	1    2375 2125
	1    0    0    -1  
$EndComp
Wire Wire Line
	1925 1200 2350 1200
Wire Wire Line
	2350 1200 2350 1150
Wire Wire Line
	3100 1250 3100 1300
Wire Wire Line
	1950 2175 2375 2175
Wire Wire Line
	2375 2175 2375 2125
$Comp
L power:Earth #PWR08
U 1 1 5E0A5970
P 2000 2325
F 0 "#PWR08" H 2000 2075 50  0001 C CNN
F 1 "Earth" H 2000 2175 50  0001 C CNN
F 2 "" H 2000 2325 50  0001 C CNN
F 3 "~" H 2000 2325 50  0001 C CNN
	1    2000 2325
	1    0    0    -1  
$EndComp
Wire Wire Line
	1950 2275 2000 2275
Wire Wire Line
	2000 2275 2000 2325
Wire Wire Line
	9225 2225 9525 2225
Wire Wire Line
	9225 2375 9525 2375
Wire Wire Line
	9225 2525 9525 2525
Wire Wire Line
	9225 2675 9525 2675
Wire Wire Line
	9225 2825 9525 2825
Wire Wire Line
	9225 2975 9525 2975
Wire Wire Line
	9225 3125 9525 3125
Wire Wire Line
	9225 3275 9525 3275
$Sheet
S 4950 1550 925  1175
U 5DCC1C1C
F0 "Consumo" 50
F1 "Consumo.sch" 50
F2 "SDA" I L 4950 2125 50 
F3 "SCL" I L 4950 2225 50 
F4 "LINE_IN" I L 4950 1650 50 
F5 "NEUT_IN" I L 4950 1750 50 
F6 "LINE_OUT" O R 5875 1650 50 
F7 "NEUT_OUT" O R 5875 1750 50 
$EndSheet
Text Notes 4275 2100 0    50   ~ 0
Address 1100000
Wire Wire Line
	4950 2225 4725 2225
Wire Wire Line
	4725 2225 4725 3200
Wire Wire Line
	4625 2125 4625 3300
Wire Wire Line
	4625 2125 4950 2125
Connection ~ 4625 3300
Connection ~ 4725 3200
Text Label 1950 3200 0    50   ~ 0
SDA
Text Label 1950 3300 0    50   ~ 0
SCL
$Comp
L power:LINE #PWR04
U 1 1 5DD00B1C
P 4650 1600
F 0 "#PWR04" H 4650 1450 50  0001 C CNN
F 1 "LINE" H 4667 1773 50  0000 C CNN
F 2 "" H 4650 1600 50  0001 C CNN
F 3 "" H 4650 1600 50  0001 C CNN
	1    4650 1600
	-1   0    0    -1  
$EndComp
$Comp
L power:NEUT #PWR05
U 1 1 5DD00B22
P 4500 1700
F 0 "#PWR05" H 4500 1550 50  0001 C CNN
F 1 "NEUT" H 4517 1873 50  0000 C CNN
F 2 "" H 4500 1700 50  0001 C CNN
F 3 "" H 4500 1700 50  0001 C CNN
	1    4500 1700
	-1   0    0    -1  
$EndComp
Wire Wire Line
	4950 1650 4650 1650
Wire Wire Line
	4650 1650 4650 1600
Wire Wire Line
	4500 1700 4500 1750
Wire Wire Line
	4500 1750 4950 1750
$Comp
L power:NEUT #PWR06
U 1 1 5DD0C7C1
P 6600 1700
F 0 "#PWR06" H 6600 1550 50  0001 C CNN
F 1 "NEUT" H 6617 1873 50  0000 C CNN
F 2 "" H 6600 1700 50  0001 C CNN
F 3 "" H 6600 1700 50  0001 C CNN
	1    6600 1700
	1    0    0    -1  
$EndComp
Wire Wire Line
	5875 1650 6150 1650
Wire Wire Line
	6150 1650 6150 1600
Wire Wire Line
	6600 1700 6600 1750
$Comp
L power:PWR_FLAG #FLG03
U 1 1 5DD1432E
P 6150 1600
F 0 "#FLG03" H 6150 1675 50  0001 C CNN
F 1 "PWR_FLAG" H 6150 1774 50  0000 C CNN
F 2 "" H 6150 1600 50  0001 C CNN
F 3 "~" H 6150 1600 50  0001 C CNN
	1    6150 1600
	1    0    0    -1  
$EndComp
Wire Wire Line
	5875 1750 6600 1750
Wire Wire Line
	6400 1600 6400 1650
Wire Wire Line
	6400 1650 6150 1650
Connection ~ 6150 1650
Text GLabel 6400 1600 1    50   BiDi ~ 0
VPOW
Wire Bus Line
	6075 6050 9125 6050
Wire Wire Line
	1950 3200 3250 3200
Wire Wire Line
	1950 3300 3050 3300
$Comp
L power:GND #PWR012
U 1 1 5DE11099
P 8900 3050
F 0 "#PWR012" H 8900 2800 50  0001 C CNN
F 1 "GND" H 8905 2877 50  0000 C CNN
F 2 "" H 8900 3050 50  0001 C CNN
F 3 "" H 8900 3050 50  0001 C CNN
	1    8900 3050
	1    0    0    -1  
$EndComp
Wire Wire Line
	8550 3000 8475 3000
Connection ~ 8475 3000
Wire Wire Line
	8900 3050 8900 3000
Wire Wire Line
	8900 3000 8850 3000
Wire Wire Line
	8475 2950 8475 3000
$Comp
L power:PWR_FLAG #FLG02
U 1 1 5DCDA0D6
P 3450 1275
F 0 "#FLG02" H 3450 1350 50  0001 C CNN
F 1 "PWR_FLAG" H 3450 1449 50  0000 C CNN
F 2 "" H 3450 1275 50  0001 C CNN
F 3 "~" H 3450 1275 50  0001 C CNN
	1    3450 1275
	1    0    0    -1  
$EndComp
$Comp
L power:PWR_FLAG #FLG01
U 1 1 5DCDCE56
P 2725 1150
F 0 "#FLG01" H 2725 1225 50  0001 C CNN
F 1 "PWR_FLAG" H 2725 1324 50  0000 C CNN
F 2 "" H 2725 1150 50  0001 C CNN
F 3 "~" H 2725 1150 50  0001 C CNN
	1    2725 1150
	1    0    0    -1  
$EndComp
Wire Wire Line
	2725 1200 2725 1150
Wire Wire Line
	3450 1275 3450 1300
Wire Wire Line
	1925 1300 3100 1300
$Comp
L power:PWR_FLAG #FLG04
U 1 1 5DCE5E27
P 2725 2125
F 0 "#FLG04" H 2725 2200 50  0001 C CNN
F 1 "PWR_FLAG" H 2725 2299 50  0000 C CNN
F 2 "" H 2725 2125 50  0001 C CNN
F 3 "~" H 2725 2125 50  0001 C CNN
	1    2725 2125
	1    0    0    -1  
$EndComp
Wire Wire Line
	2375 2175 2725 2175
Wire Wire Line
	2725 2175 2725 2125
Connection ~ 2375 2175
$Comp
L power:PWR_FLAG #FLG06
U 1 1 5DCE91AB
P 2650 3050
F 0 "#FLG06" H 2650 3125 50  0001 C CNN
F 1 "PWR_FLAG" H 2650 3224 50  0000 C CNN
F 2 "" H 2650 3050 50  0001 C CNN
F 3 "~" H 2650 3050 50  0001 C CNN
	1    2650 3050
	1    0    0    -1  
$EndComp
Wire Wire Line
	2300 3100 2650 3100
Wire Wire Line
	2650 3100 2650 3050
Connection ~ 2300 3100
$Comp
L power:PWR_FLAG #FLG05
U 1 1 5DCECB11
P 2150 2325
F 0 "#FLG05" H 2150 2400 50  0001 C CNN
F 1 "PWR_FLAG" H 2150 2499 50  0000 C CNN
F 2 "" H 2150 2325 50  0001 C CNN
F 3 "~" H 2150 2325 50  0001 C CNN
	1    2150 2325
	-1   0    0    1   
$EndComp
Wire Wire Line
	2000 2275 2150 2275
Wire Wire Line
	2150 2275 2150 2325
Connection ~ 2000 2275
$Comp
L power:PWR_FLAG #FLG07
U 1 1 5DCFA649
P 2275 3450
F 0 "#FLG07" H 2275 3525 50  0001 C CNN
F 1 "PWR_FLAG" H 2275 3624 50  0000 C CNN
F 2 "" H 2275 3450 50  0001 C CNN
F 3 "~" H 2275 3450 50  0001 C CNN
	1    2275 3450
	-1   0    0    1   
$EndComp
Wire Wire Line
	2275 3400 2275 3450
Wire Wire Line
	2000 3400 2275 3400
Connection ~ 2000 3400
$Comp
L power:Earth_Protective #PWR03
U 1 1 5DD9A9F5
P 2350 1450
F 0 "#PWR03" H 2600 1200 50  0001 C CNN
F 1 "Earth_Protective" H 2800 1300 50  0001 C CNN
F 2 "" H 2350 1350 50  0001 C CNN
F 3 "~" H 2350 1350 50  0001 C CNN
	1    2350 1450
	1    0    0    -1  
$EndComp
Connection ~ 2350 1200
Wire Wire Line
	2350 1200 2725 1200
Connection ~ 3100 1300
Wire Wire Line
	3100 1300 3450 1300
Wire Wire Line
	1925 1400 2350 1400
Wire Wire Line
	2350 1400 2350 1450
Connection ~ 3050 3300
Wire Wire Line
	3050 3300 4625 3300
Connection ~ 3250 3200
Wire Wire Line
	3250 3200 4725 3200
Wire Wire Line
	4725 3200 7025 3200
Wire Wire Line
	4625 3300 7025 3300
$Comp
L Mechanical:MountingHole_Pad MH1
U 1 1 5DDDD1CA
P 1850 4750
F 0 "MH1" V 2087 4755 50  0000 C CNN
F 1 "MountingHole_Pad" V 1996 4755 50  0000 C CNN
F 2 "Mounting_Holes:MountingHole_3.5mm_Pad_Via" H 1850 4750 50  0001 C CNN
F 3 "~" H 1850 4750 50  0001 C CNN
	1    1850 4750
	0    -1   -1   0   
$EndComp
$Comp
L Mechanical:MountingHole_Pad MH2
U 1 1 5DDDD30D
P 1850 5150
F 0 "MH2" V 2087 5155 50  0000 C CNN
F 1 "MountingHole_Pad" V 1996 5155 50  0000 C CNN
F 2 "Mounting_Holes:MountingHole_3.5mm_Pad_Via" H 1850 5150 50  0001 C CNN
F 3 "~" H 1850 5150 50  0001 C CNN
	1    1850 5150
	0    -1   -1   0   
$EndComp
$Comp
L Mechanical:MountingHole_Pad MH3
U 1 1 5DDDD386
P 1850 5550
F 0 "MH3" V 2087 5555 50  0000 C CNN
F 1 "MountingHole_Pad" V 1996 5555 50  0000 C CNN
F 2 "Mounting_Holes:MountingHole_3.5mm_Pad_Via" H 1850 5550 50  0001 C CNN
F 3 "~" H 1850 5550 50  0001 C CNN
	1    1850 5550
	0    -1   -1   0   
$EndComp
$Comp
L Mechanical:MountingHole_Pad MH4
U 1 1 5DDDD534
P 1850 5950
F 0 "MH4" V 2087 5955 50  0000 C CNN
F 1 "MountingHole_Pad" V 1996 5955 50  0000 C CNN
F 2 "Mounting_Holes:MountingHole_3.5mm_Pad_Via" H 1850 5950 50  0001 C CNN
F 3 "~" H 1850 5950 50  0001 C CNN
	1    1850 5950
	0    -1   -1   0   
$EndComp
$Comp
L power:Earth_Protective #PWR075
U 1 1 5DDDD8FE
P 2300 6050
F 0 "#PWR075" H 2550 5800 50  0001 C CNN
F 1 "Earth_Protective" H 2750 5900 50  0001 C CNN
F 2 "" H 2300 5950 50  0001 C CNN
F 3 "~" H 2300 5950 50  0001 C CNN
	1    2300 6050
	1    0    0    -1  
$EndComp
Wire Wire Line
	1950 4750 2300 4750
Wire Wire Line
	2300 4750 2300 5150
Connection ~ 2300 5950
Wire Wire Line
	2300 5950 2300 6050
Wire Wire Line
	1950 5950 2300 5950
Wire Wire Line
	1950 5550 2300 5550
Connection ~ 2300 5550
Wire Wire Line
	2300 5550 2300 5950
Wire Wire Line
	1950 5150 2300 5150
Connection ~ 2300 5150
Wire Wire Line
	2300 5150 2300 5550
$Comp
L Device:R R1
U 1 1 5DDD5E3B
P 3050 3000
AR Path="/5DDD5E3B" Ref="R1"  Part="1" 
AR Path="/5DCC1C1C/5DDD5E3B" Ref="R?"  Part="1" 
F 0 "R1" V 2950 3000 50  0000 C CNN
F 1 "10K" V 3050 3000 50  0000 C CNN
F 2 "lib_fp:R_0603" V 2980 3000 50  0001 C CNN
F 3 "https://www.yageo.com/upload/media/product/productsearch/datasheet/rchip/PYu-RC_Group_51_RoHS_L_10.pdf" H 3050 3000 50  0001 C CNN
F 4 "RES SMD 10K OHM 5% 1/10W 0603" V 3050 3000 50  0001 C CNN "Descripcion"
F 5 "Yageo" V 3050 3000 50  0001 C CNN "Fabricante"
F 6 "RC0603JR-0710KL" V 3050 3000 50  0001 C CNN "Codigo Fabricante"
F 7 "311-10KGRCT-ND" V 3050 3000 50  0001 C CNN "Codigo Digikey"
	1    3050 3000
	1    0    0    1   
$EndComp
$Comp
L Device:R R2
U 1 1 5DDDA2D0
P 3250 3000
AR Path="/5DDDA2D0" Ref="R2"  Part="1" 
AR Path="/5DCC1C1C/5DDDA2D0" Ref="R?"  Part="1" 
F 0 "R2" V 3150 3000 50  0000 C CNN
F 1 "10K" V 3250 3000 50  0000 C CNN
F 2 "lib_fp:R_0603" V 3180 3000 50  0001 C CNN
F 3 "https://www.yageo.com/upload/media/product/productsearch/datasheet/rchip/PYu-RC_Group_51_RoHS_L_10.pdf" H 3250 3000 50  0001 C CNN
F 4 "RES SMD 10K OHM 5% 1/10W 0603" V 3250 3000 50  0001 C CNN "Descripcion"
F 5 "Yageo" V 3250 3000 50  0001 C CNN "Fabricante"
F 6 "RC0603JR-0710KL" V 3250 3000 50  0001 C CNN "Codigo Fabricante"
F 7 "311-10KGRCT-ND" V 3250 3000 50  0001 C CNN "Codigo Digikey"
	1    3250 3000
	1    0    0    1   
$EndComp
$Comp
L Device:R R3
U 1 1 5DDDA6B7
P 6700 4500
AR Path="/5DDDA6B7" Ref="R3"  Part="1" 
AR Path="/5DCC1C1C/5DDDA6B7" Ref="R?"  Part="1" 
F 0 "R3" V 6600 4500 50  0000 C CNN
F 1 "10K" V 6700 4500 50  0000 C CNN
F 2 "lib_fp:R_0603" V 6630 4500 50  0001 C CNN
F 3 "https://www.yageo.com/upload/media/product/productsearch/datasheet/rchip/PYu-RC_Group_51_RoHS_L_10.pdf" H 6700 4500 50  0001 C CNN
F 4 "RES SMD 10K OHM 5% 1/10W 0603" V 6700 4500 50  0001 C CNN "Descripcion"
F 5 "Yageo" V 6700 4500 50  0001 C CNN "Fabricante"
F 6 "RC0603JR-0710KL" V 6700 4500 50  0001 C CNN "Codigo Fabricante"
F 7 "311-10KGRCT-ND" V 6700 4500 50  0001 C CNN "Codigo Digikey"
	1    6700 4500
	0    -1   1    0   
$EndComp
$Comp
L Device:R R4
U 1 1 5DDDEA29
P 8625 4600
AR Path="/5DDDEA29" Ref="R4"  Part="1" 
AR Path="/5DCC1C1C/5DDDEA29" Ref="R?"  Part="1" 
F 0 "R4" V 8525 4600 50  0000 C CNN
F 1 "10K" V 8625 4600 50  0000 C CNN
F 2 "lib_fp:R_0603" V 8555 4600 50  0001 C CNN
F 3 "https://www.yageo.com/upload/media/product/productsearch/datasheet/rchip/PYu-RC_Group_51_RoHS_L_10.pdf" H 8625 4600 50  0001 C CNN
F 4 "RES SMD 10K OHM 5% 1/10W 0603" V 8625 4600 50  0001 C CNN "Descripcion"
F 5 "Yageo" V 8625 4600 50  0001 C CNN "Fabricante"
F 6 "RC0603JR-0710KL" V 8625 4600 50  0001 C CNN "Codigo Fabricante"
F 7 "311-10KGRCT-ND" V 8625 4600 50  0001 C CNN "Codigo Digikey"
	1    8625 4600
	0    -1   1    0   
$EndComp
$Comp
L Device:C C?
U 1 1 5DDE566D
P 8700 3000
AR Path="/5DCC1C1C/5DDE566D" Ref="C?"  Part="1" 
AR Path="/5DDE566D" Ref="C1"  Part="1" 
F 0 "C1" V 8448 3000 50  0000 C CNN
F 1 "0.1uF" V 8539 3000 50  0000 C CNN
F 2 "lib_fp:C_0603" H 8738 2850 50  0001 C CNN
F 3 "https://api.kemet.com/component-edge/download/datasheet/C0603C104Z3VACTU.pdf" H 8700 3000 50  0001 C CNN
F 4 "CAP CER 0.1UF 25V Y5V 0603" V 8700 3000 50  0001 C CNN "Descripcion"
F 5 "KEMET" V 8700 3000 50  0001 C CNN "Fabricante"
F 6 "C0603C104Z3VACTU" V 8700 3000 50  0001 C CNN "Codigo Fabricante"
F 7 "399-1100-1-ND" V 8700 3000 50  0001 C CNN "Codigo Digikey"
	1    8700 3000
	0    1    1    0   
$EndComp
Wire Bus Line
	9125 2325 9125 3375
Wire Bus Line
	8775 3375 8775 4100
Wire Bus Line
	6075 3600 6075 6050
Wire Bus Line
	9125 4925 9125 6050
$EndSCHEMATC
