(module 5013310407 (layer F.Cu) (tedit 5DD4485D)
  (fp_text reference REF** (at 0 3.1) (layer F.SilkS)
    (effects (font (size 1 1) (thickness 0.15)))
  )
  (fp_text value 5013310407 (at 0 -8.4) (layer F.Fab)
    (effects (font (size 1 1) (thickness 0.15)))
  )
  (fp_line (start 1.8 1.2) (end 1.8 0) (layer F.SilkS) (width 0.2))
  (fp_line (start -1.8 1.2) (end 1.8 1.2) (layer F.SilkS) (width 0.2))
  (fp_line (start -1.8 0) (end -1.8 1.2) (layer F.SilkS) (width 0.2))
  (fp_line (start -3.4 -3.3) (end -2 -3.3) (layer F.SilkS) (width 0.2))
  (fp_line (start -3.4 -2) (end -3.4 -3.3) (layer F.SilkS) (width 0.2))
  (fp_line (start 3.4 -3.3) (end 2 -3.3) (layer F.SilkS) (width 0.2))
  (fp_line (start 3.4 -2) (end 3.4 -3.3) (layer F.SilkS) (width 0.2))
  (pad 0 smd rect (at -2.8 -0.9) (size 1.2 1.8) (layers F.Cu F.Paste F.Mask))
  (pad 0 smd rect (at 2.8 -0.9) (size 1.2 1.8) (layers F.Cu F.Paste F.Mask))
  (pad 4 smd rect (at -1.5 -3.425) (size 0.6 1.55) (layers F.Cu F.Paste F.Mask))
  (pad 3 smd rect (at -0.5 -3.425) (size 0.6 1.55) (layers F.Cu F.Paste F.Mask))
  (pad 2 smd rect (at 0.5 -3.425) (size 0.6 1.55) (layers F.Cu F.Paste F.Mask))
  (pad 1 smd rect (at 1.5 -3.425) (size 0.6 1.55) (layers F.Cu F.Paste F.Mask))
  (model ${KIPRJMOD}/3d_models/5013310407.stp
    (offset (xyz 0 1.8 2.7))
    (scale (xyz 1 1 1))
    (rotate (xyz -90 0 0))
  )
)
