(module Resistors_SMD:R_1206 (layer F.Cu) (tedit 5DCC4A4F)
  (descr "Resistor SMD 1206, reflow soldering, Vishay (see dcrcw.pdf)")
  (tags "resistor 1206")
  (attr smd)
  (fp_text reference REF** (at 0 -1.85) (layer F.SilkS)
    (effects (font (size 1 1) (thickness 0.15)))
  )
  (fp_text value R_1206 (at 0 1.95) (layer F.Fab)
    (effects (font (size 1 1) (thickness 0.15)))
  )
  (fp_text user %R (at 0 0) (layer F.Fab)
    (effects (font (size 0.7 0.7) (thickness 0.105)))
  )
  (fp_line (start -1.6 0.8) (end -1.6 -0.8) (layer F.Fab) (width 0.1))
  (fp_line (start 1.6 0.8) (end -1.6 0.8) (layer F.Fab) (width 0.1))
  (fp_line (start 1.6 -0.8) (end 1.6 0.8) (layer F.Fab) (width 0.1))
  (fp_line (start -1.6 -0.8) (end 1.6 -0.8) (layer F.Fab) (width 0.1))
  (fp_line (start 1 1.07) (end -1 1.07) (layer F.SilkS) (width 0.12))
  (fp_line (start -1 -1.07) (end 1 -1.07) (layer F.SilkS) (width 0.12))
  (fp_line (start -2.15 -1.11) (end 2.15 -1.11) (layer F.CrtYd) (width 0.05))
  (fp_line (start -2.15 -1.11) (end -2.15 1.1) (layer F.CrtYd) (width 0.05))
  (fp_line (start 2.15 1.1) (end 2.15 -1.11) (layer F.CrtYd) (width 0.05))
  (fp_line (start 2.15 1.1) (end -2.15 1.1) (layer F.CrtYd) (width 0.05))
  (pad 1 smd rect (at -1.45 0) (size 0.9 1.7) (layers F.Cu F.Paste F.Mask))
  (pad 2 smd rect (at 1.45 0) (size 0.9 1.7) (layers F.Cu F.Paste F.Mask))
  (model ${KISYS3DMOD}/Resistors_SMD.3dshapes/R_1206.wrl
    (at (xyz 0 0 0))
    (scale (xyz 1 1 1))
    (rotate (xyz 0 0 0))
  )
  (model ${KIPRJMOD}/3d_models/R1206.step
    (at (xyz 0 0 0))
    (scale (xyz 1 1 1))
    (rotate (xyz -90 0 0))
  )
)
