PCBNEW-LibModule-V1  
# encoding utf-8
Units mm
$INDEX
DIL16
SO16
$EndINDEX
$MODULE DIL16
Po 0 0 0 15 00000000 00000000 ~~
Li DIL16
Cd <b>Dual In Line Package</b>
Sc 00000000
At STD
Op 0 0 0
.SolderMask 0
.SolderPaste 0
T0 -11.1957 0.38166 1.00176 1.00176 900 0.05 N V 21 "DIL16"
T1 -4.32106 2e-06 1.0007 1.0007 0 0.05 N V 21 "VAL**"
DS 10.16 -2.921 -10.16 -2.921 0.1524 21
DS -10.16 2.921 10.16 2.921 0.1524 21
DS 10.16 -2.921 10.16 2.921 0.1524 21
DS -10.16 -2.921 -10.16 -1.016 0.1524 21
DS -10.16 2.921 -10.16 1.016 0.1524 21
DA -10.16 0 -10.16 1.016 -1800 0.1524 21
$PAD
Sh "1" O 2.6416 1.3208 0 0 900
Dr 0.8128 0 0
At STD N 00C0FFFF
.SolderMask 0
Ne 0 ""
Po -8.89 3.81
$EndPAD
$PAD
Sh "2" O 2.6416 1.3208 0 0 900
Dr 0.8128 0 0
At STD N 00C0FFFF
.SolderMask 0
Ne 0 ""
Po -6.35 3.81
$EndPAD
$PAD
Sh "7" O 2.6416 1.3208 0 0 900
Dr 0.8128 0 0
At STD N 00C0FFFF
.SolderMask 0
Ne 0 ""
Po 6.35 3.81
$EndPAD
$PAD
Sh "8" O 2.6416 1.3208 0 0 900
Dr 0.8128 0 0
At STD N 00C0FFFF
.SolderMask 0
Ne 0 ""
Po 8.89 3.81
$EndPAD
$PAD
Sh "3" O 2.6416 1.3208 0 0 900
Dr 0.8128 0 0
At STD N 00C0FFFF
.SolderMask 0
Ne 0 ""
Po -3.81 3.81
$EndPAD
$PAD
Sh "4" O 2.6416 1.3208 0 0 900
Dr 0.8128 0 0
At STD N 00C0FFFF
.SolderMask 0
Ne 0 ""
Po -1.27 3.81
$EndPAD
$PAD
Sh "6" O 2.6416 1.3208 0 0 900
Dr 0.8128 0 0
At STD N 00C0FFFF
.SolderMask 0
Ne 0 ""
Po 3.81 3.81
$EndPAD
$PAD
Sh "5" O 2.6416 1.3208 0 0 900
Dr 0.8128 0 0
At STD N 00C0FFFF
.SolderMask 0
Ne 0 ""
Po 1.27 3.81
$EndPAD
$PAD
Sh "9" O 2.6416 1.3208 0 0 900
Dr 0.8128 0 0
At STD N 00C0FFFF
.SolderMask 0
Ne 0 ""
Po 8.89 -3.81
$EndPAD
$PAD
Sh "10" O 2.6416 1.3208 0 0 900
Dr 0.8128 0 0
At STD N 00C0FFFF
.SolderMask 0
Ne 0 ""
Po 6.35 -3.81
$EndPAD
$PAD
Sh "11" O 2.6416 1.3208 0 0 900
Dr 0.8128 0 0
At STD N 00C0FFFF
.SolderMask 0
Ne 0 ""
Po 3.81 -3.81
$EndPAD
$PAD
Sh "12" O 2.6416 1.3208 0 0 900
Dr 0.8128 0 0
At STD N 00C0FFFF
.SolderMask 0
Ne 0 ""
Po 1.27 -3.81
$EndPAD
$PAD
Sh "13" O 2.6416 1.3208 0 0 900
Dr 0.8128 0 0
At STD N 00C0FFFF
.SolderMask 0
Ne 0 ""
Po -1.27 -3.81
$EndPAD
$PAD
Sh "14" O 2.6416 1.3208 0 0 900
Dr 0.8128 0 0
At STD N 00C0FFFF
.SolderMask 0
Ne 0 ""
Po -3.81 -3.81
$EndPAD
$PAD
Sh "15" O 2.6416 1.3208 0 0 900
Dr 0.8128 0 0
At STD N 00C0FFFF
.SolderMask 0
Ne 0 ""
Po -6.35 -3.81
$EndPAD
$PAD
Sh "16" O 2.6416 1.3208 0 0 900
Dr 0.8128 0 0
At STD N 00C0FFFF
.SolderMask 0
Ne 0 ""
Po -8.89 -3.81
$EndPAD
$EndMODULE DIL16
$MODULE SO16
Po 0 0 0 15 00000000 00000000 ~~
Li SO16
Cd <b>Small Outline Package</b>
Sc 00000000
At SMD
Op 0 0 0
.SolderMask 0
.SolderPaste 0
T0 -6.10332 -0.76292 1.0012 1.0012 900 0.05 N V 21 "SO16"
T1 -0.889385 -2e-06 1.00045 1.00045 0 0.05 N V 21 "VAL**"
DS 4.699 -1.9558 -4.699 -1.9558 0.1524 21
DA 4.699 1.5748 5.08 1.5748 900 0.1524 21
DA -4.699 -1.5748 -4.699 -1.9558 -900 0.1524 21
DA 4.699 -1.5748 5.08 -1.5748 -900 0.1524 21
DA -4.699 1.5748 -4.699 1.9558 900 0.1524 21
DS -4.699 1.9558 4.699 1.9558 0.1524 21
DA -5.08 0 -5.08 0.508 -1800 0.1524 21
DS -5.08 1.6002 5.08 1.6002 0.0508 21
DP 0 0 0 0 4 0 27
Dl -0.89023 -3.0988
Dl -0.381 -3.0988
Dl -0.381 -1.9585
Dl -0.89023 -1.9585
DP 0 0 0 0 4 0 27
Dl -4.70747 1.9558
Dl -4.191 1.9558
Dl -4.191 3.10439
Dl -4.70747 3.10439
DP 0 0 0 0 4 0 27
Dl -3.42994 1.9558
Dl -2.921 1.9558
Dl -2.921 3.09965
Dl -3.42994 3.09965
DP 0 0 0 0 4 0 27
Dl -2.16269 1.9304
Dl -1.651 1.9304
Dl -1.651 3.07866
Dl -2.16269 3.07866
DP 0 0 0 0 4 0 27
Dl -0.890322 1.9558
Dl -0.381 1.9558
Dl -0.381 3.10341
Dl -0.890322 3.10341
DP 0 0 0 0 4 0 27
Dl -2.16056 -3.0988
Dl -1.651 -3.0988
Dl -1.651 -1.95722
Dl -2.16056 -1.95722
DP 0 0 0 0 4 0 27
Dl -3.43264 -3.0988
Dl -2.921 -3.0988
Dl -2.921 -1.95788
Dl -3.43264 -1.95788
DP 0 0 0 0 4 0 27
Dl -4.70553 -3.0988
Dl -4.191 -3.0988
Dl -4.191 -1.95852
Dl -4.70553 -1.95852
DP 0 0 0 0 4 0 27
Dl 0.381003 1.9558
Dl 0.889 1.9558
Dl 0.889 3.09882
Dl 0.381003 3.09882
DP 0 0 0 0 4 0 27
Dl 1.65349 1.9558
Dl 2.159 1.9558
Dl 2.159 3.10347
Dl 1.65349 3.10347
DP 0 0 0 0 4 0 27
Dl 2.92416 1.9558
Dl 3.429 1.9558
Dl 3.429 3.10215
Dl 2.92416 3.10215
DP 0 0 0 0 4 0 27
Dl 4.19668 1.9558
Dl 4.699 1.9558
Dl 4.699 3.103
Dl 4.19668 3.103
DP 0 0 0 0 4 0 27
Dl 0.381119 -3.0988
Dl 0.889 -3.0988
Dl 0.889 -1.95641
Dl 0.381119 -1.95641
DP 0 0 0 0 4 0 27
Dl 1.65417 -3.0988
Dl 2.159 -3.0988
Dl 2.159 -1.95955
Dl 1.65417 -1.95955
DP 0 0 0 0 4 0 27
Dl 2.92254 -3.0988
Dl 3.429 -3.0988
Dl 3.429 -1.95683
Dl 2.92254 -1.95683
DP 0 0 0 0 4 0 27
Dl 4.19736 -3.0988
Dl 4.699 -3.0988
Dl 4.699 -1.95877
Dl 4.19736 -1.95877
$PAD
Sh "1" R 0.6604 2.032 0 0 0
At SMD N 00888000
.SolderMask 0
.SolderPaste 0
Ne 0 ""
Po -4.445 3.0734
$EndPAD
$PAD
Sh "16" R 0.6604 2.032 0 0 0
At SMD N 00888000
.SolderMask 0
.SolderPaste 0
Ne 0 ""
Po -4.445 -3.0734
$EndPAD
$PAD
Sh "2" R 0.6604 2.032 0 0 0
At SMD N 00888000
.SolderMask 0
.SolderPaste 0
Ne 0 ""
Po -3.175 3.0734
$EndPAD
$PAD
Sh "3" R 0.6604 2.032 0 0 0
At SMD N 00888000
.SolderMask 0
.SolderPaste 0
Ne 0 ""
Po -1.905 3.0734
$EndPAD
$PAD
Sh "15" R 0.6604 2.032 0 0 0
At SMD N 00888000
.SolderMask 0
.SolderPaste 0
Ne 0 ""
Po -3.175 -3.0734
$EndPAD
$PAD
Sh "14" R 0.6604 2.032 0 0 0
At SMD N 00888000
.SolderMask 0
.SolderPaste 0
Ne 0 ""
Po -1.905 -3.0734
$EndPAD
$PAD
Sh "4" R 0.6604 2.032 0 0 0
At SMD N 00888000
.SolderMask 0
.SolderPaste 0
Ne 0 ""
Po -0.635 3.0734
$EndPAD
$PAD
Sh "13" R 0.6604 2.032 0 0 0
At SMD N 00888000
.SolderMask 0
.SolderPaste 0
Ne 0 ""
Po -0.635 -3.0734
$EndPAD
$PAD
Sh "5" R 0.6604 2.032 0 0 0
At SMD N 00888000
.SolderMask 0
.SolderPaste 0
Ne 0 ""
Po 0.635 3.0734
$EndPAD
$PAD
Sh "12" R 0.6604 2.032 0 0 0
At SMD N 00888000
.SolderMask 0
.SolderPaste 0
Ne 0 ""
Po 0.635 -3.0734
$EndPAD
$PAD
Sh "6" R 0.6604 2.032 0 0 0
At SMD N 00888000
.SolderMask 0
.SolderPaste 0
Ne 0 ""
Po 1.905 3.0734
$EndPAD
$PAD
Sh "7" R 0.6604 2.032 0 0 0
At SMD N 00888000
.SolderMask 0
.SolderPaste 0
Ne 0 ""
Po 3.175 3.0734
$EndPAD
$PAD
Sh "11" R 0.6604 2.032 0 0 0
At SMD N 00888000
.SolderMask 0
.SolderPaste 0
Ne 0 ""
Po 1.905 -3.0734
$EndPAD
$PAD
Sh "10" R 0.6604 2.032 0 0 0
At SMD N 00888000
.SolderMask 0
.SolderPaste 0
Ne 0 ""
Po 3.175 -3.0734
$EndPAD
$PAD
Sh "8" R 0.6604 2.032 0 0 0
At SMD N 00888000
.SolderMask 0
.SolderPaste 0
Ne 0 ""
Po 4.445 3.0734
$EndPAD
$PAD
Sh "9" R 0.6604 2.032 0 0 0
At SMD N 00888000
.SolderMask 0
.SolderPaste 0
Ne 0 ""
Po 4.445 -3.0734
$EndPAD
$EndMODULE SO16
