ISO-10303-21;
HEADER;
FILE_DESCRIPTION (( 'STEP AP214' ),
    '1' );
FILE_NAME ('User Library-CR3216-1206.STEP',
    '2019-11-13T09:06:26',
    ( '' ),
    ( '' ),
    'SwSTEP 2.0',
    'SolidWorks 2019',
    '' );
FILE_SCHEMA (( 'AUTOMOTIVE_DESIGN' ));
ENDSEC;

DATA;
#1 = CARTESIAN_POINT ( 'NONE',  ( -1.550000000000000488, 0.05000000000000000971, -0.8000000000000001554 ) ) ;
#2 = ORIENTED_EDGE ( 'NONE', *, *, #88, .F. ) ;
#3 = CARTESIAN_POINT ( 'NONE',  ( -1.400000000000000133, -0.001000000000000349568, -0.8000000000000000444 ) ) ;
#4 = LINE ( 'NONE', #1143, #1140 ) ;
#5 = CARTESIAN_POINT ( 'NONE',  ( -1.100000000000000533, 0.5500000000000000444, 0.8000000000000001554 ) ) ;
#6 = EDGE_CURVE ( 'NONE', #1062, #165, #643, .T. ) ;
#7 = ORIENTED_EDGE ( 'NONE', *, *, #217, .F. ) ;
#8 = DIRECTION ( 'NONE',  ( -0.0000000000000000000, 1.000000000000000000, 0.0000000000000000000 ) ) ;
#9 = VECTOR ( 'NONE', #1179, 1000.000000000000000 ) ;
#10 = DIRECTION ( 'NONE',  ( 1.000000000000000000, 0.0000000000000000000, 1.734723475976807094E-16 ) ) ;
#11 = AXIS2_PLACEMENT_3D ( 'NONE', #576, #774, #26 ) ;
#12 = DIRECTION ( 'NONE',  ( -1.000000000000000000, 0.0000000000000000000, 0.0000000000000000000 ) ) ;
#13 = VERTEX_POINT ( 'NONE', #366 ) ;
#14 = VECTOR ( 'NONE', #574, 1000.000000000000000 ) ;
#15 = DIRECTION ( 'NONE',  ( 0.0000000000000000000, 0.0000000000000000000, -1.000000000000000000 ) ) ;
#16 = EDGE_CURVE ( 'NONE', #294, #775, #444, .T. ) ;
#17 = LINE ( 'NONE', #785, #486 ) ;
#18 = CARTESIAN_POINT ( 'NONE',  ( 1.100000000000000089, -2.168404344971008868E-16, -0.8000000000000001554 ) ) ;
#19 = FACE_OUTER_BOUND ( 'NONE', #1030, .T. ) ;
#20 = ORIENTED_EDGE ( 'NONE', *, *, #1185, .T. ) ;
#21 = ORIENTED_EDGE ( 'NONE', *, *, #784, .F. ) ;
#22 = LINE ( 'NONE', #1047, #157 ) ;
#23 = EDGE_CURVE ( 'NONE', #694, #1196, #155, .T. ) ;
#24 = DIRECTION ( 'NONE',  ( 1.000000000000000000, 0.0000000000000000000, -1.398970545142586541E-16 ) ) ;
#25 = LINE ( 'NONE', #1073, #630 ) ;
#26 = DIRECTION ( 'NONE',  ( 0.0000000000000000000, -1.000000000000000000, -2.168404344970998613E-15 ) ) ;
#27 = ORIENTED_EDGE ( 'NONE', *, *, #1079, .F. ) ;
#28 = EDGE_CURVE ( 'NONE', #1190, #1182, #1211, .T. ) ;
#29 = CARTESIAN_POINT ( 'NONE',  ( 1.100000000000000533, 0.5500000000000000444, 0.8000000000000011546 ) ) ;
#30 = PLANE ( 'NONE',  #1027 ) ;
#31 = EDGE_CURVE ( 'NONE', #263, #380, #1200, .T. ) ;
#32 = VECTOR ( 'NONE', #53, 1000.000000000000000 ) ;
#33 = PLANE ( 'NONE',  #1184 ) ;
#34 = ORIENTED_EDGE ( 'NONE', *, *, #6, .F. ) ;
#35 = VECTOR ( 'NONE', #673, 1000.000000000000000 ) ;
#36 = UNCERTAINTY_MEASURE_WITH_UNIT (LENGTH_MEASURE( 1.000000000000000082E-05 ), #1177, 'distance_accuracy_value', 'NONE');
#37 = ORIENTED_EDGE ( 'NONE', *, *, #636, .T. ) ;
#38 = APPLICATION_CONTEXT ( 'automotive_design' ) ;
#39 = LINE ( 'NONE', #45, #870 ) ;
#40 = LINE ( 'NONE', #508, #1010 ) ;
#41 = LINE ( 'NONE', #142, #550 ) ;
#42 = ORIENTED_EDGE ( 'NONE', *, *, #817, .T. ) ;
#43 = ORIENTED_EDGE ( 'NONE', *, *, #544, .F. ) ;
#44 = DIRECTION ( 'NONE',  ( 0.0000000000000000000, 0.0000000000000000000, -1.000000000000000000 ) ) ;
#45 = CARTESIAN_POINT ( 'NONE',  ( -1.100000000000000311, 0.2999999999999999334, -0.8000000000000003775 ) ) ;
#46 = CARTESIAN_POINT ( 'NONE',  ( 1.399999999999999467, 0.6000000000000005329, -0.8000000000000000444 ) ) ;
#47 = DIRECTION ( 'NONE',  ( 1.000000000000000000, 0.0000000000000000000, 3.614007241618349264E-16 ) ) ;
#48 = ORIENTED_EDGE ( 'NONE', *, *, #1079, .T. ) ;
#49 = EDGE_CURVE ( 'NONE', #1083, #1051, #1216, .T. ) ;
#50 = VERTEX_POINT ( 'NONE', #82 ) ;
#51 = CARTESIAN_POINT ( 'NONE',  ( 1.399999999999999245, -0.001000000000001000089, -0.8000000000000000444 ) ) ;
#52 = LINE ( 'NONE', #1193, #216 ) ;
#53 = DIRECTION ( 'NONE',  ( -0.0000000000000000000, -1.000000000000000000, -0.0000000000000000000 ) ) ;
#54 = CARTESIAN_POINT ( 'NONE',  ( 1.600000000000000755, 0.6000000000000004219, 0.7999999999999998224 ) ) ;
#55 = EDGE_LOOP ( 'NONE', ( #606, #21, #543, #284 ) ) ;
#56 = VECTOR ( 'NONE', #658, 1000.000000000000000 ) ;
#57 = EDGE_LOOP ( 'NONE', ( #401, #48, #156, #226 ) ) ;
#58 = MECHANICAL_DESIGN_GEOMETRIC_PRESENTATION_REPRESENTATION (  '', ( #966 ), #289 ) ;
#59 = LINE ( 'NONE', #1192, #1011 ) ;
#60 = VECTOR ( 'NONE', #339, 1000.000000000000000 ) ;
#61 = EDGE_CURVE ( 'NONE', #441, #659, #1024, .T. ) ;
#62 = VECTOR ( 'NONE', #200, 1000.000000000000000 ) ;
#63 = CARTESIAN_POINT ( 'NONE',  ( -1.550000000000000488, 0.5500000000000000444, -0.7999999999999997113 ) ) ;
#64 = LINE ( 'NONE', #54, #812 ) ;
#65 = ORIENTED_EDGE ( 'NONE', *, *, #824, .F. ) ;
#66 = ORIENTED_EDGE ( 'NONE', *, *, #74, .F. ) ;
#67 = ADVANCED_FACE ( 'NONE', ( #747 ), #268, .F. ) ;
#68 =( LENGTH_UNIT ( ) NAMED_UNIT ( * ) SI_UNIT ( .MILLI., .METRE. ) );
#69 = CARTESIAN_POINT ( 'NONE',  ( 1.600000000000000533, -2.168404344971008868E-16, 0.7999999999999998224 ) ) ;
#70 = ORIENTED_EDGE ( 'NONE', *, *, #458, .T. ) ;
#71 = ORIENTED_EDGE ( 'NONE', *, *, #1199, .T. ) ;
#72 = ADVANCED_FACE ( 'NONE', ( #259 ), #179, .F. ) ;
#73 = CARTESIAN_POINT ( 'NONE',  ( 1.100000000000000533, 2.710505431213761085E-16, 0.7999999999999999334 ) ) ;
#74 = EDGE_CURVE ( 'NONE', #239, #694, #638, .T. ) ;
#75 = ORIENTED_EDGE ( 'NONE', *, *, #1069, .F. ) ;
#76 = ORIENTED_EDGE ( 'NONE', *, *, #207, .F. ) ;
#77 = VECTOR ( 'NONE', #99, 1000.000000000000000 ) ;
#78 = CARTESIAN_POINT ( 'NONE',  ( 1.100000000000000533, 0.6000000000000003109, 0.7999999999999999334 ) ) ;
#79 = VECTOR ( 'NONE', #959, 1000.000000000000000 ) ;
#80 = VECTOR ( 'NONE', #674, 1000.000000000000000 ) ;
#81 = SURFACE_STYLE_USAGE ( .BOTH. , #182 ) ;
#82 = CARTESIAN_POINT ( 'NONE',  ( 1.099999999999999645, 0.5500000000000000444, 0.6500000000000001332 ) ) ;
#83 = VERTEX_POINT ( 'NONE', #252 ) ;
#84 = DIRECTION ( 'NONE',  ( 2.710505431213760592E-16, 1.000000000000000000, 4.701977403289147842E-32 ) ) ;
#85 = DIRECTION ( 'NONE',  ( 1.000000000000000000, 0.0000000000000000000, 0.0000000000000000000 ) ) ;
#86 = ORIENTED_EDGE ( 'NONE', *, *, #1041, .T. ) ;
#87 = ORIENTED_EDGE ( 'NONE', *, *, #280, .T. ) ;
#88 = EDGE_CURVE ( 'NONE', #165, #775, #384, .T. ) ;
#89 = DIRECTION ( 'NONE',  ( 0.0000000000000000000, -0.0000000000000000000, 1.000000000000000000 ) ) ;
#90 = DIRECTION ( 'NONE',  ( -4.336808689942020201E-16, 1.000000000000000000, 0.0000000000000000000 ) ) ;
#91 = DIRECTION ( 'NONE',  ( 2.185891476785291856E-18, 1.000000000000000000, 0.0000000000000000000 ) ) ;
#92 = ORIENTED_EDGE ( 'NONE', *, *, #1156, .F. ) ;
#93 = LINE ( 'NONE', #851, #1044 ) ;
#94 = AXIS2_PLACEMENT_3D ( 'NONE', #1155, #1081, #595 ) ;
#95 = VECTOR ( 'NONE', #416, 1000.000000000000000 ) ;
#96 =( GEOMETRIC_REPRESENTATION_CONTEXT ( 3 ) GLOBAL_UNCERTAINTY_ASSIGNED_CONTEXT ( ( #796 ) ) GLOBAL_UNIT_ASSIGNED_CONTEXT ( ( #853, #562, #945 ) ) REPRESENTATION_CONTEXT ( 'NONE', 'WORKASPACE' ) );
#97 = CARTESIAN_POINT ( 'NONE',  ( -1.550000000000000044, 0.05000000000000012768, -0.7999999999999998224 ) ) ;
#98 = ORIENTED_EDGE ( 'NONE', *, *, #124, .T. ) ;
#99 = DIRECTION ( 'NONE',  ( 0.0000000000000000000, -1.000000000000000000, 0.0000000000000000000 ) ) ;
#100 = ADVANCED_FACE ( 'NONE', ( #1222 ), #773, .T. ) ;
#101 = DIRECTION ( 'NONE',  ( 2.710505431213760592E-16, 1.000000000000000000, 4.701977403289147842E-32 ) ) ;
#102 = CARTESIAN_POINT ( 'NONE',  ( 1.549999999999999378, 0.05000000000000000278, 0.8000000000000001554 ) ) ;
#103 = ORIENTED_EDGE ( 'NONE', *, *, #681, .T. ) ;
#104 = CARTESIAN_POINT ( 'NONE',  ( 1.549999999999999378, 0.5500000000000000444, -0.8000000000000001554 ) ) ;
#105 = FACE_OUTER_BOUND ( 'NONE', #445, .T. ) ;
#106 = LINE ( 'NONE', #787, #389 ) ;
#107 = EDGE_LOOP ( 'NONE', ( #836, #754, #571, #448 ) ) ;
#108 = LINE ( 'NONE', #220, #1203 ) ;
#109 = FACE_OUTER_BOUND ( 'NONE', #323, .T. ) ;
#110 = VECTOR ( 'NONE', #1129, 1000.000000000000000 ) ;
#111 = PLANE ( 'NONE',  #191 ) ;
#112 = VECTOR ( 'NONE', #717, 1000.000000000000000 ) ;
#113 = DIRECTION ( 'NONE',  ( 0.0000000000000000000, 0.0000000000000000000, -1.000000000000000000 ) ) ;
#114 = VERTEX_POINT ( 'NONE', #763 ) ;
#115 = VECTOR ( 'NONE', #981, 1000.000000000000000 ) ;
#116 = ADVANCED_FACE ( 'NONE', ( #105 ), #1149, .F. ) ;
#117 = ORIENTED_EDGE ( 'NONE', *, *, #411, .F. ) ;
#118 = CARTESIAN_POINT ( 'NONE',  ( 1.399999999999999245, -0.001000000000001000089, -0.8000000000000000444 ) ) ;
#119 = PLANE ( 'NONE',  #634 ) ;
#120 = DIRECTION ( 'NONE',  ( 1.000000000000000000, 0.0000000000000000000, -3.614007241618348771E-16 ) ) ;
#121 = FACE_OUTER_BOUND ( 'NONE', #735, .T. ) ;
#122 = ORIENTED_EDGE ( 'NONE', *, *, #505, .T. ) ;
#123 = ORIENTED_EDGE ( 'NONE', *, *, #28, .T. ) ;
#124 = EDGE_CURVE ( 'NONE', #151, #701, #195, .T. ) ;
#125 = EDGE_CURVE ( 'NONE', #849, #172, #283, .T. ) ;
#126 = DIRECTION ( 'NONE',  ( 4.336808689942020201E-16, -1.000000000000000000, 0.0000000000000000000 ) ) ;
#127 = FACE_OUTER_BOUND ( 'NONE', #800, .T. ) ;
#128 = ORIENTED_EDGE ( 'NONE', *, *, #893, .F. ) ;
#129 = PLANE ( 'NONE',  #848 ) ;
#130 = CARTESIAN_POINT ( 'NONE',  ( 1.100000000000000089, 0.5500000000000000444, -0.6500000000000001332 ) ) ;
#131 = CARTESIAN_POINT ( 'NONE',  ( -1.399999999999999911, 0.5499999999999999334, 0.8000000000000000444 ) ) ;
#132 = AXIS2_PLACEMENT_3D ( 'NONE', #241, #418, #691 ) ;
#133 = PLANE ( 'NONE',  #549 ) ;
#134 = ORIENTED_EDGE ( 'NONE', *, *, #963, .F. ) ;
#135 = VECTOR ( 'NONE', #919, 1000.000000000000000 ) ;
#136 = VECTOR ( 'NONE', #1158, 1000.000000000000000 ) ;
#137 = VERTEX_POINT ( 'NONE', #1144 ) ;
#138 = CARTESIAN_POINT ( 'NONE',  ( -1.100000000000000533, 0.5500000000000000444, 0.8000000000000001554 ) ) ;
#139 = CARTESIAN_POINT ( 'NONE',  ( 1.549999999999999378, 0.5500000000000000444, -0.8000000000000001554 ) ) ;
#140 = DIRECTION ( 'NONE',  ( 2.710505431213760592E-16, 1.000000000000000000, 4.701977403289147842E-32 ) ) ;
#141 = ADVANCED_FACE ( 'NONE', ( #183 ), #111, .F. ) ;
#142 = CARTESIAN_POINT ( 'NONE',  ( -1.100000000000000311, -0.001000000000000349568, -0.6500000000000001332 ) ) ;
#143 = ORIENTED_EDGE ( 'NONE', *, *, #285, .T. ) ;
#144 = EDGE_LOOP ( 'NONE', ( #1223, #422, #1212, #759 ) ) ;
#145 = CARTESIAN_POINT ( 'NONE',  ( -1.100000000000000311, 0.05000000000000132117, -0.7999999999999998224 ) ) ;
#146 = PRESENTATION_STYLE_ASSIGNMENT (( #161 ) ) ;
#147 = DIRECTION ( 'NONE',  ( -4.336808689942020201E-16, -1.000000000000000000, 9.898899796398218314E-32 ) ) ;
#148 = DIRECTION ( 'NONE',  ( -1.000000000000000000, 2.710505431213760592E-16, 0.0000000000000000000 ) ) ;
#149 = ORIENTED_EDGE ( 'NONE', *, *, #666, .F. ) ;
#150 = PRODUCT_RELATED_PRODUCT_CATEGORY ( 'part', '', ( #535 ) ) ;
#151 = VERTEX_POINT ( 'NONE', #102 ) ;
#152 = PRESENTATION_STYLE_ASSIGNMENT (( #520 ) ) ;
#153 = DIRECTION ( 'NONE',  ( -4.949449898199082664E-31, -1.000000000000000000, -2.168404344970998613E-15 ) ) ;
#154 = DIRECTION ( 'NONE',  ( 1.000000000000000000, -4.336808689942020201E-16, -2.282530889443167515E-16 ) ) ;
#155 = LINE ( 'NONE', #362, #464 ) ;
#156 = ORIENTED_EDGE ( 'NONE', *, *, #207, .T. ) ;
#157 = VECTOR ( 'NONE', #402, 1000.000000000000000 ) ;
#158 = DIRECTION ( 'NONE',  ( 0.0000000000000000000, 0.0000000000000000000, -1.000000000000000000 ) ) ;
#159 = ADVANCED_FACE ( 'NONE', ( #1131 ), #757, .T. ) ;
#160 = STYLED_ITEM ( 'NONE', ( #146 ), #279 ) ;
#161 = SURFACE_STYLE_USAGE ( .BOTH. , #527 ) ;
#162 = PLANE ( 'NONE',  #1121 ) ;
#163 = EDGE_LOOP ( 'NONE', ( #533, #306, #1075, #314 ) ) ;
#164 = PRODUCT_DEFINITION_SHAPE ( 'NONE', 'NONE',  #296 ) ;
#165 = VERTEX_POINT ( 'NONE', #955 ) ;
#166 = EDGE_CURVE ( 'NONE', #644, #923, #292, .T. ) ;
#167 = EDGE_CURVE ( 'NONE', #1133, #114, #557, .T. ) ;
#168 = DIRECTION ( 'NONE',  ( -0.0000000000000000000, -0.0000000000000000000, -1.000000000000000000 ) ) ;
#169 = ORIENTED_EDGE ( 'NONE', *, *, #911, .T. ) ;
#170 = ORIENTED_EDGE ( 'NONE', *, *, #766, .F. ) ;
#171 = ORIENTED_EDGE ( 'NONE', *, *, #1209, .T. ) ;
#172 = VERTEX_POINT ( 'NONE', #1043 ) ;
#173 = VECTOR ( 'NONE', #246, 1000.000000000000000 ) ;
#174 = CARTESIAN_POINT ( 'NONE',  ( -1.400000000000000133, -0.001000000000000349568, 0.8000000000000000444 ) ) ;
#175 = VECTOR ( 'NONE', #971, 1000.000000000000000 ) ;
#176 = VECTOR ( 'NONE', #168, 1000.000000000000000 ) ;
#177 = CARTESIAN_POINT ( 'NONE',  ( 2.700781059358212222, 0.5999999999999999778, 0.8000000000000008216 ) ) ;
#178 = ADVANCED_FACE ( 'NONE', ( #675 ), #570, .F. ) ;
#179 = PLANE ( 'NONE',  #506 ) ;
#180 = EDGE_LOOP ( 'NONE', ( #1007, #1208, #797, #244, #635, #143, #328, #727 ) ) ;
#181 = DIRECTION ( 'NONE',  ( 0.0000000000000000000, 1.000000000000000000, 0.0000000000000000000 ) ) ;
#182 = SURFACE_SIDE_STYLE ('',( #657 ) ) ;
#183 = FACE_OUTER_BOUND ( 'NONE', #275, .T. ) ;
#184 = ORIENTED_EDGE ( 'NONE', *, *, #248, .T. ) ;
#185 = DIRECTION ( 'NONE',  ( -1.000000000000000000, 0.0000000000000000000, 2.282530889443167515E-16 ) ) ;
#186 = FILL_AREA_STYLE ('',( #365 ) ) ;
#187 = DIRECTION ( 'NONE',  ( -1.000000000000000000, 0.0000000000000000000, 0.0000000000000000000 ) ) ;
#188 = ORIENTED_EDGE ( 'NONE', *, *, #346, .T. ) ;
#189 = ADVANCED_FACE ( 'NONE', ( #476 ), #488, .F. ) ;
#190 = CARTESIAN_POINT ( 'NONE',  ( 1.550000000000000266, 0.5499999999999999334, 0.7999999999999998224 ) ) ;
#191 = AXIS2_PLACEMENT_3D ( 'NONE', #1, #91, #1136 ) ;
#192 = COLOUR_RGB ( '',0.8431372549019607865, 0.8156862745098039102, 0.7529411764705882248 ) ;
#193 = PRESENTATION_LAYER_ASSIGNMENT (  '', '', ( #390 ) ) ;
#194 =( NAMED_UNIT ( * ) SI_UNIT ( $, .STERADIAN. ) SOLID_ANGLE_UNIT ( ) );
#195 = LINE ( 'NONE', #580, #288 ) ;
#196 = ORIENTED_EDGE ( 'NONE', *, *, #379, .T. ) ;
#197 = FILL_AREA_STYLE_COLOUR ( '', #192 ) ;
#198 = ADVANCED_FACE ( 'NONE', ( #392 ), #298, .F. ) ;
#199 = EDGE_CURVE ( 'NONE', #849, #1163, #1055, .T. ) ;
#200 = DIRECTION ( 'NONE',  ( 1.000000000000000000, 0.0000000000000000000, 0.0000000000000000000 ) ) ;
#201 = CARTESIAN_POINT ( 'NONE',  ( -1.550000000000000488, 0.05000000000000000971, -0.8000000000000001554 ) ) ;
#202 = CARTESIAN_POINT ( 'NONE',  ( 1.099999999999999645, 0.5500000000000000444, 0.6500000000000001332 ) ) ;
#203 = VERTEX_POINT ( 'NONE', #18 ) ;
#204 =( NAMED_UNIT ( * ) PLANE_ANGLE_UNIT ( ) SI_UNIT ( $, .RADIAN. ) );
#205 = LINE ( 'NONE', #974, #14 ) ;
#206 = DIRECTION ( 'NONE',  ( -1.000000000000000000, 0.0000000000000000000, 2.282530889443167515E-16 ) ) ;
#207 = EDGE_CURVE ( 'NONE', #83, #1020, #278, .T. ) ;
#208 = CARTESIAN_POINT ( 'NONE',  ( 1.399999999999999467, 0.6000000000000005329, 0.6500000000000001332 ) ) ;
#209 = ORIENTED_EDGE ( 'NONE', *, *, #166, .F. ) ;
#210 = ORIENTED_EDGE ( 'NONE', *, *, #852, .F. ) ;
#211 = LINE ( 'NONE', #382, #687 ) ;
#212 = CLOSED_SHELL ( 'NONE', ( #999, #261, #801, #1125, #1022, #141 ) ) ;
#213 = DIRECTION ( 'NONE',  ( 1.398970545142586541E-16, -0.0000000000000000000, 1.000000000000000000 ) ) ;
#214 = STYLED_ITEM ( 'NONE', ( #152 ), #617 ) ;
#215 = DIRECTION ( 'NONE',  ( 0.0000000000000000000, 0.0000000000000000000, -1.000000000000000000 ) ) ;
#216 = VECTOR ( 'NONE', #343, 1000.000000000000000 ) ;
#217 = EDGE_CURVE ( 'NONE', #738, #441, #563, .T. ) ;
#218 = VERTEX_POINT ( 'NONE', #589 ) ;
#219 = VECTOR ( 'NONE', #515, 1000.000000000000000 ) ;
#220 = CARTESIAN_POINT ( 'NONE',  ( 1.549999999999999822, 0.05000000000000012768, -0.8000000000000001554 ) ) ;
#221 = DIRECTION ( 'NONE',  ( -1.000000000000000000, 0.0000000000000000000, 1.398970545142586541E-16 ) ) ;
#222 = DIRECTION ( 'NONE',  ( -1.398970545142586541E-16, 0.0000000000000000000, -1.000000000000000000 ) ) ;
#223 = PLANE ( 'NONE',  #1160 ) ;
#224 = ORIENTED_EDGE ( 'NONE', *, *, #61, .F. ) ;
#225 = UNCERTAINTY_MEASURE_WITH_UNIT (LENGTH_MEASURE( 1.000000000000000082E-05 ), #267, 'distance_accuracy_value', 'NONE');
#226 = ORIENTED_EDGE ( 'NONE', *, *, #253, .F. ) ;
#227 = LINE ( 'NONE', #295, #485 ) ;
#228 = DIRECTION ( 'NONE',  ( -0.0000000000000000000, -0.0000000000000000000, 1.000000000000000000 ) ) ;
#229 = DIRECTION ( 'NONE',  ( -1.000000000000000000, 0.0000000000000000000, 0.0000000000000000000 ) ) ;
#230 = ORIENTED_EDGE ( 'NONE', *, *, #287, .T. ) ;
#231 = VERTEX_POINT ( 'NONE', #982 ) ;
#232 = DIRECTION ( 'NONE',  ( 0.0000000000000000000, 0.0000000000000000000, 1.000000000000000000 ) ) ;
#233 = CARTESIAN_POINT ( 'NONE',  ( 1.549999999999999378, 0.5500000000000000444, 0.7999999999999999334 ) ) ;
#234 = AXIS2_PLACEMENT_3D ( 'NONE', #940, #181, #89 ) ;
#235 = LINE ( 'NONE', #531, #467 ) ;
#236 = ORIENTED_EDGE ( 'NONE', *, *, #992, .T. ) ;
#237 = VECTOR ( 'NONE', #1093, 1000.000000000000000 ) ;
#238 = VECTOR ( 'NONE', #438, 1000.000000000000000 ) ;
#239 = VERTEX_POINT ( 'NONE', #786 ) ;
#240 = APPLICATION_PROTOCOL_DEFINITION ( 'draft international standard', 'automotive_design', 1998, #38 ) ;
#241 = CARTESIAN_POINT ( 'NONE',  ( -1.600000000000000311, 0.6000000000000000888, 0.8000000000000001554 ) ) ;
#242 = CARTESIAN_POINT ( 'NONE',  ( -1.550000000000000044, 0.05000000000000083544, 0.8000000000000001554 ) ) ;
#243 = ORIENTED_EDGE ( 'NONE', *, *, #1185, .F. ) ;
#244 = ORIENTED_EDGE ( 'NONE', *, *, #1209, .F. ) ;
#245 = FILL_AREA_STYLE ('',( #417 ) ) ;
#246 = DIRECTION ( 'NONE',  ( 0.0000000000000000000, -1.000000000000000000, 0.0000000000000000000 ) ) ;
#247 = CARTESIAN_POINT ( 'NONE',  ( 1.099999999999999645, 0.6000000000000005329, -0.6500000000000001332 ) ) ;
#248 = EDGE_CURVE ( 'NONE', #1116, #923, #991, .T. ) ;
#249 = ORIENTED_EDGE ( 'NONE', *, *, #125, .T. ) ;
#250 = VERTEX_POINT ( 'NONE', #884 ) ;
#251 = LINE ( 'NONE', #51, #237 ) ;
#252 = CARTESIAN_POINT ( 'NONE',  ( -1.100000000000000089, 0.5999999999999999778, -0.7999999999999999334 ) ) ;
#253 = EDGE_CURVE ( 'NONE', #457, #1020, #40, .T. ) ;
#254 = ORIENTED_EDGE ( 'NONE', *, *, #498, .T. ) ;
#255 = VECTOR ( 'NONE', #983, 1000.000000000000000 ) ;
#256 = EDGE_CURVE ( 'NONE', #1163, #1070, #25, .T. ) ;
#257 = VECTOR ( 'NONE', #1194, 1000.000000000000000 ) ;
#258 = CARTESIAN_POINT ( 'NONE',  ( 1.600000000000000755, 0.6000000000000004219, 0.7999999999999998224 ) ) ;
#259 = FACE_OUTER_BOUND ( 'NONE', #472, .T. ) ;
#260 = EDGE_LOOP ( 'NONE', ( #1000, #70, #597, #1120, #386, #1113, #415, #1201 ) ) ;
#261 = ADVANCED_FACE ( 'NONE', ( #970 ), #30, .F. ) ;
#262 = CARTESIAN_POINT ( 'NONE',  ( -1.550000000000000266, 0.5500000000000000444, 0.8000000000000003775 ) ) ;
#263 = VERTEX_POINT ( 'NONE', #410 ) ;
#264 = ORIENTED_EDGE ( 'NONE', *, *, #395, .T. ) ;
#265 = LINE ( 'NONE', #1036, #112 ) ;
#266 = ADVANCED_FACE ( 'NONE', ( #404 ), #879, .T. ) ;
#267 =( LENGTH_UNIT ( ) NAMED_UNIT ( * ) SI_UNIT ( .MILLI., .METRE. ) );
#268 = PLANE ( 'NONE',  #1085 ) ;
#269 = ORIENTED_EDGE ( 'NONE', *, *, #88, .T. ) ;
#270 = LINE ( 'NONE', #1218, #110 ) ;
#271 = VECTOR ( 'NONE', #869, 1000.000000000000000 ) ;
#272 = VECTOR ( 'NONE', #829, 1000.000000000000000 ) ;
#273 = AXIS2_PLACEMENT_3D ( 'NONE', #460, #642, #85 ) ;
#274 = ADVANCED_FACE ( 'NONE', ( #1067 ), #798, .T. ) ;
#275 = EDGE_LOOP ( 'NONE', ( #98, #782, #1175, #881 ) ) ;
#276 = EDGE_LOOP ( 'NONE', ( #1098, #1139, #117, #66 ) ) ;
#277 = DIRECTION ( 'NONE',  ( 3.761581922631327032E-31, 1.000000000000000000, 1.019578823124771402E-46 ) ) ;
#278 = LINE ( 'NONE', #398, #308 ) ;
#279 = ADVANCED_BREP_SHAPE_REPRESENTATION ( 'User Library-CR3216-1206', ( #607, #1008, #1021, #617, #273 ), #689 ) ;
#280 = EDGE_CURVE ( 'NONE', #1196, #151, #516, .T. ) ;
#281 = VERTEX_POINT ( 'NONE', #793 ) ;
#282 = LINE ( 'NONE', #190, #730 ) ;
#283 = LINE ( 'NONE', #1033, #547 ) ;
#284 = ORIENTED_EDGE ( 'NONE', *, *, #921, .F. ) ;
#285 = EDGE_CURVE ( 'NONE', #137, #1083, #975, .T. ) ;
#286 = DIRECTION ( 'NONE',  ( -2.710505431213760592E-16, -1.000000000000000000, 0.0000000000000000000 ) ) ;
#287 = EDGE_CURVE ( 'NONE', #218, #830, #611, .T. ) ;
#288 = VECTOR ( 'NONE', #779, 1000.000000000000000 ) ;
#289 =( GEOMETRIC_REPRESENTATION_CONTEXT ( 3 ) GLOBAL_UNCERTAINTY_ASSIGNED_CONTEXT ( ( #407 ) ) GLOBAL_UNIT_ASSIGNED_CONTEXT ( ( #497, #204, #578 ) ) REPRESENTATION_CONTEXT ( 'NONE', 'WORKASPACE' ) );
#290 = AXIS2_PLACEMENT_3D ( 'NONE', #356, #737, #741 ) ;
#291 = DIRECTION ( 'NONE',  ( 0.0000000000000000000, -1.000000000000000000, 0.0000000000000000000 ) ) ;
#292 = LINE ( 'NONE', #5, #729 ) ;
#293 = CARTESIAN_POINT ( 'NONE',  ( 1.549999999999999378, 0.5500000000000000444, -0.8000000000000001554 ) ) ;
#294 = VERTEX_POINT ( 'NONE', #711 ) ;
#295 = CARTESIAN_POINT ( 'NONE',  ( -1.100000000000000533, 0.5500000000000000444, 0.6500000000000001332 ) ) ;
#296 = PRODUCT_DEFINITION ( 'UNKNOWN', '', #771, #322 ) ;
#297 = CARTESIAN_POINT ( 'NONE',  ( 1.099999999999999645, 0.6000000000000005329, -0.6500000000000001332 ) ) ;
#298 = PLANE ( 'NONE',  #529 ) ;
#299 = DIRECTION ( 'NONE',  ( 0.0000000000000000000, 0.0000000000000000000, 1.000000000000000000 ) ) ;
#300 = EDGE_LOOP ( 'NONE', ( #760, #837, #335, #254, #1217, #702, #928, #210 ) ) ;
#301 = DIRECTION ( 'NONE',  ( -1.000000000000000000, 2.710505431213760592E-16, 0.0000000000000000000 ) ) ;
#302 = EDGE_CURVE ( 'NONE', #1133, #151, #699, .T. ) ;
#303 = DIRECTION ( 'NONE',  ( 1.000000000000000000, 4.336808689942020201E-16, 0.0000000000000000000 ) ) ;
#304 = DIRECTION ( 'NONE',  ( -0.0000000000000000000, 1.000000000000000000, -0.0000000000000000000 ) ) ;
#305 = CARTESIAN_POINT ( 'NONE',  ( 3.175781059358211866, 0.5499999999999991562, 0.7999999999999993783 ) ) ;
#306 = ORIENTED_EDGE ( 'NONE', *, *, #253, .T. ) ;
#307 = LINE ( 'NONE', #803, #530 ) ;
#308 = VECTOR ( 'NONE', #1037, 1000.000000000000000 ) ;
#309 = DIRECTION ( 'NONE',  ( 0.0000000000000000000, 1.000000000000000000, 0.0000000000000000000 ) ) ;
#310 = VECTOR ( 'NONE', #624, 1000.000000000000000 ) ;
#311 = DIRECTION ( 'NONE',  ( -1.000000000000000000, 3.761581922631327032E-31, -1.734723475976807587E-16 ) ) ;
#312 = AXIS2_PLACEMENT_3D ( 'NONE', #841, #446, #1042 ) ;
#313 = LINE ( 'NONE', #495, #79 ) ;
#314 = ORIENTED_EDGE ( 'NONE', *, *, #925, .F. ) ;
#315 = COLOUR_RGB ( '',0.8980392156862745390, 0.9176470588235293713, 0.9294117647058823817 ) ;
#316 = ORIENTED_EDGE ( 'NONE', *, *, #371, .F. ) ;
#317 = DIRECTION ( 'NONE',  ( 1.000000000000000000, -2.710505431213760592E-16, 0.0000000000000000000 ) ) ;
#318 = DIRECTION ( 'NONE',  ( 0.0000000000000000000, -1.000000000000000000, 0.0000000000000000000 ) ) ;
#319 = CARTESIAN_POINT ( 'NONE',  ( 1.399999999999999245, -0.001000000000001000089, 0.6500000000000001332 ) ) ;
#320 = LINE ( 'NONE', #1138, #175 ) ;
#321 = ORIENTED_EDGE ( 'NONE', *, *, #876, .F. ) ;
#322 = PRODUCT_DEFINITION_CONTEXT ( 'detailed design', #426, 'design' ) ;
#323 = EDGE_LOOP ( 'NONE', ( #683, #65, #984, #264 ) ) ;
#324 = LINE ( 'NONE', #703, #1220 ) ;
#325 = DIRECTION ( 'NONE',  ( -1.000000000000000000, 4.336808689942020201E-16, 2.282530889443167515E-16 ) ) ;
#326 = CARTESIAN_POINT ( 'NONE',  ( -1.100000000000000311, -0.001000000000000349568, -0.6500000000000001332 ) ) ;
#327 = CARTESIAN_POINT ( 'NONE',  ( -1.100000000000000311, -0.001000000000000349568, 0.6500000000000001332 ) ) ;
#328 = ORIENTED_EDGE ( 'NONE', *, *, #911, .F. ) ;
#329 = ORIENTED_EDGE ( 'NONE', *, *, #817, .F. ) ;
#330 = LINE ( 'NONE', #629, #135 ) ;
#331 = PLANE ( 'NONE',  #986 ) ;
#332 = CARTESIAN_POINT ( 'NONE',  ( -1.400000000000000133, -0.001000000000000349568, 0.8000000000000000444 ) ) ;
#333 = VERTEX_POINT ( 'NONE', #131 ) ;
#334 = PRESENTATION_LAYER_ASSIGNMENT (  '', '', ( #214 ) ) ;
#335 = ORIENTED_EDGE ( 'NONE', *, *, #285, .F. ) ;
#336 = SURFACE_SIDE_STYLE ('',( #1071 ) ) ;
#337 = ADVANCED_FACE ( 'NONE', ( #892 ), #900, .F. ) ;
#338 = DIRECTION ( 'NONE',  ( 0.0000000000000000000, -1.000000000000000000, 0.0000000000000000000 ) ) ;
#339 = DIRECTION ( 'NONE',  ( -2.282530889443167515E-16, 0.0000000000000000000, -1.000000000000000000 ) ) ;
#340 = DIRECTION ( 'NONE',  ( 2.710505431213760592E-16, 1.000000000000000000, 4.701977403289147842E-32 ) ) ;
#341 = VERTEX_POINT ( 'NONE', #46 ) ;
#342 = ORIENTED_EDGE ( 'NONE', *, *, #23, .T. ) ;
#343 = DIRECTION ( 'NONE',  ( 0.0000000000000000000, 0.0000000000000000000, 1.000000000000000000 ) ) ;
#344 = ADVANCED_FACE ( 'NONE', ( #425 ), #331, .F. ) ;
#345 = CARTESIAN_POINT ( 'NONE',  ( -1.550000000000000044, 0.5499999999999999334, 0.8000000000000001554 ) ) ;
#346 = EDGE_CURVE ( 'NONE', #923, #83, #431, .T. ) ;
#347 = ORIENTED_EDGE ( 'NONE', *, *, #784, .T. ) ;
#348 = ORIENTED_EDGE ( 'NONE', *, *, #447, .T. ) ;
#349 = LINE ( 'NONE', #609, #612 ) ;
#350 = FACE_OUTER_BOUND ( 'NONE', #615, .T. ) ;
#351 = DIRECTION ( 'NONE',  ( 2.710505431213760592E-16, 1.000000000000000000, 4.701977403289147842E-32 ) ) ;
#352 = VECTOR ( 'NONE', #927, 1000.000000000000000 ) ;
#353 = EDGE_LOOP ( 'NONE', ( #171, #103, #414, #196, #918, #663, #795, #1151 ) ) ;
#354 = AXIS2_PLACEMENT_3D ( 'NONE', #3, #301, #286 ) ;
#355 = AXIS2_PLACEMENT_3D ( 'NONE', #403, #762, #1066 ) ;
#356 = CARTESIAN_POINT ( 'NONE',  ( -1.550000000000000488, 0.5500000000000000444, -0.7999999999999997113 ) ) ;
#357 = VERTEX_POINT ( 'NONE', #680 ) ;
#358 = ORIENTED_EDGE ( 'NONE', *, *, #28, .F. ) ;
#359 = ADVANCED_FACE ( 'NONE', ( #494 ), #755, .F. ) ;
#360 = FACE_OUTER_BOUND ( 'NONE', #1172, .T. ) ;
#361 = LINE ( 'NONE', #752, #272 ) ;
#362 = CARTESIAN_POINT ( 'NONE',  ( 1.549999999999999378, 0.5500000000000000444, 0.7999999999999999334 ) ) ;
#363 = ORIENTED_EDGE ( 'NONE', *, *, #475, .F. ) ;
#364 = CARTESIAN_POINT ( 'NONE',  ( 1.549999999999999156, 0.05000000000000110606, -0.8000000000000001554 ) ) ;
#365 = FILL_AREA_STYLE_COLOUR ( '', #791 ) ;
#366 = CARTESIAN_POINT ( 'NONE',  ( 1.600000000000000755, 2.710505431213761085E-16, 0.7999999999999998224 ) ) ;
#367 = VERTEX_POINT ( 'NONE', #744 ) ;
#368 = MECHANICAL_DESIGN_GEOMETRIC_PRESENTATION_REPRESENTATION (  '', ( #214 ), #1137 ) ;
#369 = DIRECTION ( 'NONE',  ( 1.000000000000000000, 0.0000000000000000000, -2.282530889443167515E-16 ) ) ;
#370 = AXIS2_PLACEMENT_3D ( 'NONE', #332, #148, #1100 ) ;
#371 = EDGE_CURVE ( 'NONE', #1020, #644, #1214, .T. ) ;
#372 = FILL_AREA_STYLE ('',( #926 ) ) ;
#373 = DIRECTION ( 'NONE',  ( -2.282530889443167515E-16, 0.0000000000000000000, -1.000000000000000000 ) ) ;
#374 = EDGE_LOOP ( 'NONE', ( #71, #1019, #170, #123 ) ) ;
#375 = CARTESIAN_POINT ( 'NONE',  ( 1.550000000000000266, 0.05000000000000083544, 0.7999999999999998224 ) ) ;
#376 = CARTESIAN_POINT ( 'NONE',  ( 1.549999999999999156, 0.05000000000000110606, -0.8000000000000001554 ) ) ;
#377 = ADVANCED_FACE ( 'NONE', ( #360 ), #1094, .T. ) ;
#378 = DIRECTION ( 'NONE',  ( 2.710505431213760592E-16, 1.000000000000000000, 4.701977403289147842E-32 ) ) ;
#379 = EDGE_CURVE ( 'NONE', #614, #933, #452, .T. ) ;
#380 = VERTEX_POINT ( 'NONE', #834 ) ;
#381 = EDGE_LOOP ( 'NONE', ( #882, #1112, #874, #819 ) ) ;
#382 = CARTESIAN_POINT ( 'NONE',  ( -1.100000000000000311, 0.6000000000000003109, 0.8000000000000001554 ) ) ;
#383 = CARTESIAN_POINT ( 'NONE',  ( 1.100000000000000533, 0.6000000000000003109, 0.6500000000000001332 ) ) ;
#384 = LINE ( 'NONE', #859, #56 ) ;
#385 = DIRECTION ( 'NONE',  ( 0.0000000000000000000, 0.0000000000000000000, -1.000000000000000000 ) ) ;
#386 = ORIENTED_EDGE ( 'NONE', *, *, #718, .T. ) ;
#387 = FILL_AREA_STYLE_COLOUR ( '', #433 ) ;
#388 = CLOSED_SHELL ( 'NONE', ( #116, #1102, #100, #832, #943, #468, #344, #822, #540, #274, #67, #72, #989, #573 ) ) ;
#389 = VECTOR ( 'NONE', #865, 1000.000000000000000 ) ;
#390 = STYLED_ITEM ( 'NONE', ( #1029 ), #1021 ) ;
#391 = FACE_OUTER_BOUND ( 'NONE', #1057, .T. ) ;
#392 = FACE_OUTER_BOUND ( 'NONE', #260, .T. ) ;
#393 = CARTESIAN_POINT ( 'NONE',  ( -1.400000000000000133, 0.5499999999999999334, -0.7999999999999998224 ) ) ;
#394 = ORIENTED_EDGE ( 'NONE', *, *, #280, .F. ) ;
#395 = EDGE_CURVE ( 'NONE', #13, #1016, #270, .T. ) ;
#396 = LINE ( 'NONE', #790, #451 ) ;
#397 = FACE_OUTER_BOUND ( 'NONE', #707, .T. ) ;
#398 = CARTESIAN_POINT ( 'NONE',  ( -1.100000000000000533, 0.5999999999999999778, 0.8000000000000001554 ) ) ;
#399 = CARTESIAN_POINT ( 'NONE',  ( 1.600000000000000089, -2.168404344971008868E-16, -0.8000000000000002665 ) ) ;
#400 = ORIENTED_EDGE ( 'NONE', *, *, #601, .F. ) ;
#401 = ORIENTED_EDGE ( 'NONE', *, *, #745, .F. ) ;
#402 = DIRECTION ( 'NONE',  ( 2.282530889443167515E-16, 0.0000000000000000000, 1.000000000000000000 ) ) ;
#403 = CARTESIAN_POINT ( 'NONE',  ( -1.100000000000000533, 0.5500000000000000444, 0.8000000000000001554 ) ) ;
#404 = FACE_OUTER_BOUND ( 'NONE', #374, .T. ) ;
#405 = LINE ( 'NONE', #399, #136 ) ;
#406 = EDGE_LOOP ( 'NONE', ( #169, #935, #435, #909 ) ) ;
#407 = UNCERTAINTY_MEASURE_WITH_UNIT (LENGTH_MEASURE( 1.000000000000000082E-05 ), #497, 'distance_accuracy_value', 'NONE');
#408 = VECTOR ( 'NONE', #842, 1000.000000000000000 ) ;
#409 = LINE ( 'NONE', #487, #1186 ) ;
#410 = CARTESIAN_POINT ( 'NONE',  ( -1.399999999999999911, 0.6000000000000010880, 0.6500000000000001332 ) ) ;
#411 = EDGE_CURVE ( 'NONE', #694, #701, #556, .T. ) ;
#412 = AXIS2_PLACEMENT_3D ( 'NONE', #679, #8, #883 ) ;
#413 = FACE_OUTER_BOUND ( 'NONE', #463, .T. ) ;
#414 = ORIENTED_EDGE ( 'NONE', *, *, #736, .F. ) ;
#415 = ORIENTED_EDGE ( 'NONE', *, *, #953, .F. ) ;
#416 = DIRECTION ( 'NONE',  ( -4.949449898199082664E-31, 1.000000000000000000, -2.168404344970998613E-15 ) ) ;
#417 = FILL_AREA_STYLE_COLOUR ( '', #315 ) ;
#418 = DIRECTION ( 'NONE',  ( -1.000000000000000000, 0.0000000000000000000, -0.0000000000000000000 ) ) ;
#419 = EDGE_CURVE ( 'NONE', #1159, #849, #1188, .T. ) ;
#420 = DIRECTION ( 'NONE',  ( -2.282530889443167515E-16, 0.0000000000000000000, -1.000000000000000000 ) ) ;
#421 = ORIENTED_EDGE ( 'NONE', *, *, #963, .T. ) ;
#422 = ORIENTED_EDGE ( 'NONE', *, *, #480, .T. ) ;
#423 = LINE ( 'NONE', #888, #586 ) ;
#424 = DIRECTION ( 'NONE',  ( 0.0000000000000000000, 1.000000000000000000, -2.168404344970998613E-15 ) ) ;
#425 = FACE_OUTER_BOUND ( 'NONE', #1025, .T. ) ;
#426 = APPLICATION_CONTEXT ( 'automotive_design' ) ;
#427 = DIRECTION ( 'NONE',  ( 2.282530889443167515E-16, 0.0000000000000000000, 1.000000000000000000 ) ) ;
#428 = ORIENTED_EDGE ( 'NONE', *, *, #16, .F. ) ;
#429 = ORIENTED_EDGE ( 'NONE', *, *, #430, .T. ) ;
#430 = EDGE_CURVE ( 'NONE', #875, #614, #844, .T. ) ;
#431 = LINE ( 'NONE', #811, #449 ) ;
#432 = EDGE_LOOP ( 'NONE', ( #316, #76, #814, #209 ) ) ;
#433 = COLOUR_RGB ( '',0.8980392156862745390, 0.9176470588235293713, 0.9294117647058823817 ) ;
#434 = VECTOR ( 'NONE', #1082, 1000.000000000000000 ) ;
#435 = ORIENTED_EDGE ( 'NONE', *, *, #666, .T. ) ;
#436 = DIRECTION ( 'NONE',  ( -1.000000000000000000, 4.336808689942020201E-16, 2.282530889443167515E-16 ) ) ;
#437 = EDGE_CURVE ( 'NONE', #985, #1128, #1040, .T. ) ;
#438 = DIRECTION ( 'NONE',  ( -0.0000000000000000000, -1.000000000000000000, -0.0000000000000000000 ) ) ;
#439 = DIRECTION ( 'NONE',  ( 0.0000000000000000000, 0.0000000000000000000, 1.000000000000000000 ) ) ;
#440 = CARTESIAN_POINT ( 'NONE',  ( -1.100000000000000533, 0.5500000000000000444, -0.6500000000000001332 ) ) ;
#441 = VERTEX_POINT ( 'NONE', #551 ) ;
#442 = LINE ( 'NONE', #1178, #915 ) ;
#443 = LINE ( 'NONE', #613, #568 ) ;
#444 = LINE ( 'NONE', #1005, #946 ) ;
#445 = EDGE_LOOP ( 'NONE', ( #347, #513, #995, #1097 ) ) ;
#446 = DIRECTION ( 'NONE',  ( -3.614007241618348771E-16, 5.093808853563249882E-32, 1.000000000000000000 ) ) ;
#447 = EDGE_CURVE ( 'NONE', #775, #250, #265, .T. ) ;
#448 = ORIENTED_EDGE ( 'NONE', *, *, #248, .F. ) ;
#449 = VECTOR ( 'NONE', #304, 1000.000000000000000 ) ;
#450 = EDGE_LOOP ( 'NONE', ( #815, #622, #394, #512 ) ) ;
#451 = VECTOR ( 'NONE', #856, 1000.000000000000000 ) ;
#452 = LINE ( 'NONE', #1210, #173 ) ;
#453 = ORIENTED_EDGE ( 'NONE', *, *, #1168, .T. ) ;
#454 = CARTESIAN_POINT ( 'NONE',  ( 1.100000000000000533, 0.05000000000000012768, 0.8000000000000000444 ) ) ;
#455 = PLANE ( 'NONE',  #312 ) ;
#456 = DIRECTION ( 'NONE',  ( 1.000000000000000000, 4.336808689942020201E-16, -0.0000000000000000000 ) ) ;
#457 = VERTEX_POINT ( 'NONE', #1114 ) ;
#458 = EDGE_CURVE ( 'NONE', #333, #380, #652, .T. ) ;
#459 = CARTESIAN_POINT ( 'NONE',  ( -1.100000000000000533, 0.5999999999999999778, 0.8000000000000001554 ) ) ;
#460 = CARTESIAN_POINT ( 'NONE',  ( 0.0000000000000000000, 0.0000000000000000000, 0.0000000000000000000 ) ) ;
#461 = SURFACE_SIDE_STYLE ('',( #552 ) ) ;
#462 = DIRECTION ( 'NONE',  ( -0.0000000000000000000, 0.0000000000000000000, -1.000000000000000000 ) ) ;
#463 = EDGE_LOOP ( 'NONE', ( #1045, #977, #1017, #128 ) ) ;
#464 = VECTOR ( 'NONE', #633, 1000.000000000000000 ) ;
#465 = VECTOR ( 'NONE', #232, 1000.000000000000000 ) ;
#466 = CARTESIAN_POINT ( 'NONE',  ( 1.600000000000000533, 0.6000000000000000888, 0.7999999999999998224 ) ) ;
#467 = VECTOR ( 'NONE', #1090, 1000.000000000000000 ) ;
#468 = ADVANCED_FACE ( 'NONE', ( #1031 ), #625, .F. ) ;
#469 = ADVANCED_FACE ( 'NONE', ( #528 ), #936, .F. ) ;
#470 = PLANE ( 'NONE',  #770 ) ;
#471 = CARTESIAN_POINT ( 'NONE',  ( 1.549999999999999822, 0.5499999999999999334, -0.8000000000000001554 ) ) ;
#472 = EDGE_LOOP ( 'NONE', ( #591, #230, #421, #363 ) ) ;
#473 = CARTESIAN_POINT ( 'NONE',  ( 1.099999999999999423, -0.001000000000001000089, 0.6500000000000001332 ) ) ;
#474 = DIRECTION ( 'NONE',  ( 0.0000000000000000000, -1.000000000000000000, 0.0000000000000000000 ) ) ;
#475 = EDGE_CURVE ( 'NONE', #50, #1152, #839, .T. ) ;
#476 = FACE_OUTER_BOUND ( 'NONE', #743, .T. ) ;
#477 = ORIENTED_EDGE ( 'NONE', *, *, #1141, .T. ) ;
#478 = LINE ( 'NONE', #579, #890 ) ;
#479 = CARTESIAN_POINT ( 'NONE',  ( -1.100000000000000311, -0.001000000000000349568, 0.6500000000000001332 ) ) ;
#480 = EDGE_CURVE ( 'NONE', #1063, #263, #93, .T. ) ;
#481 = LINE ( 'NONE', #202, #631 ) ;
#482 = ORIENTED_EDGE ( 'NONE', *, *, #1219, .T. ) ;
#483 = FACE_OUTER_BOUND ( 'NONE', #519, .T. ) ;
#484 = AXIS2_PLACEMENT_3D ( 'NONE', #575, #662, #462 ) ;
#485 = VECTOR ( 'NONE', #600, 1000.000000000000000 ) ;
#486 = VECTOR ( 'NONE', #291, 1000.000000000000000 ) ;
#487 = CARTESIAN_POINT ( 'NONE',  ( -1.600000000000000311, -2.168404344971008868E-16, 0.8000000000000001554 ) ) ;
#488 = PLANE ( 'NONE',  #1157 ) ;
#489 = DIRECTION ( 'NONE',  ( 2.282530889443167515E-16, 0.0000000000000000000, 1.000000000000000000 ) ) ;
#490 = VERTEX_POINT ( 'NONE', #454 ) ;
#491 = ORIENTED_EDGE ( 'NONE', *, *, #745, .T. ) ;
#492 = FACE_OUTER_BOUND ( 'NONE', #895, .T. ) ;
#493 = CARTESIAN_POINT ( 'NONE',  ( -3.175781059358211866, 0.5999999999999994227, 0.8000000000000001554 ) ) ;
#494 = FACE_OUTER_BOUND ( 'NONE', #555, .T. ) ;
#495 = CARTESIAN_POINT ( 'NONE',  ( -1.600000000000000533, 0.6000000000000004219, 0.8000000000000001554 ) ) ;
#496 = EDGE_LOOP ( 'NONE', ( #87, #903, #781, #807 ) ) ;
#497 =( LENGTH_UNIT ( ) NAMED_UNIT ( * ) SI_UNIT ( .MILLI., .METRE. ) );
#498 = EDGE_CURVE ( 'NONE', #137, #502, #282, .T. ) ;
#499 = CARTESIAN_POINT ( 'NONE',  ( -1.399999999999999911, 0.5499999999999999334, 0.6500000000000001332 ) ) ;
#500 = CARTESIAN_POINT ( 'NONE',  ( 2.700781059358212222, 0.5500000000000000444, -0.7999999999999992673 ) ) ;
#501 = FACE_OUTER_BOUND ( 'NONE', #300, .T. ) ;
#502 = VERTEX_POINT ( 'NONE', #375 ) ;
#503 = ORIENTED_EDGE ( 'NONE', *, *, #599, .T. ) ;
#504 = CARTESIAN_POINT ( 'NONE',  ( -1.100000000000000311, 2.710505431213761085E-16, 0.8000000000000001554 ) ) ;
#505 = EDGE_CURVE ( 'NONE', #978, #739, #567, .T. ) ;
#506 = AXIS2_PLACEMENT_3D ( 'NONE', #553, #532, #917 ) ;
#507 =( NAMED_UNIT ( * ) PLANE_ANGLE_UNIT ( ) SI_UNIT ( $, .RADIAN. ) );
#508 = CARTESIAN_POINT ( 'NONE',  ( 2.700781059358212222, 0.5999999999999999778, 0.8000000000000008216 ) ) ;
#509 = ADVANCED_FACE ( 'NONE', ( #678 ), #1134, .F. ) ;
#510 = AXIS2_PLACEMENT_3D ( 'NONE', #1059, #213, #24 ) ;
#511 = CARTESIAN_POINT ( 'NONE',  ( -1.600000000000000311, -2.168404344971008868E-16, -0.7999999999999999334 ) ) ;
#512 = ORIENTED_EDGE ( 'NONE', *, *, #23, .F. ) ;
#513 = ORIENTED_EDGE ( 'NONE', *, *, #646, .F. ) ;
#514 = LINE ( 'NONE', #616, #665 ) ;
#515 = DIRECTION ( 'NONE',  ( 0.0000000000000000000, -1.000000000000000000, 0.0000000000000000000 ) ) ;
#516 = LINE ( 'NONE', #805, #32 ) ;
#517 = LINE ( 'NONE', #1180, #750 ) ;
#518 = ORIENTED_EDGE ( 'NONE', *, *, #167, .T. ) ;
#519 = EDGE_LOOP ( 'NONE', ( #453, #706, #503, #788 ) ) ;
#520 = SURFACE_STYLE_USAGE ( .BOTH. , #336 ) ;
#521 = DIRECTION ( 'NONE',  ( -1.000000000000000000, 4.336808689942020201E-16, 2.282530889443167515E-16 ) ) ;
#522 = DIRECTION ( 'NONE',  ( 4.336808689942020201E-16, 1.000000000000000000, -9.898899796398218314E-32 ) ) ;
#523 = ORIENTED_EDGE ( 'NONE', *, *, #867, .F. ) ;
#524 = EDGE_CURVE ( 'NONE', #1190, #380, #783, .T. ) ;
#525 = ORIENTED_EDGE ( 'NONE', *, *, #641, .T. ) ;
#526 =( NAMED_UNIT ( * ) PLANE_ANGLE_UNIT ( ) SI_UNIT ( $, .RADIAN. ) );
#527 = SURFACE_SIDE_STYLE ('',( #1012 ) ) ;
#528 = FACE_OUTER_BOUND ( 'NONE', #107, .T. ) ;
#529 = AXIS2_PLACEMENT_3D ( 'NONE', #947, #1126, #187 ) ;
#530 = VECTOR ( 'NONE', #1078, 1000.000000000000000 ) ;
#531 = CARTESIAN_POINT ( 'NONE',  ( -1.399999999999999911, 0.6000000000000010880, -0.8000000000000000444 ) ) ;
#532 = DIRECTION ( 'NONE',  ( -3.614007241618348771E-16, 1.449776366014154666E-31, -1.000000000000000000 ) ) ;
#533 = ORIENTED_EDGE ( 'NONE', *, *, #692, .F. ) ;
#534 = LINE ( 'NONE', #590, #610 ) ;
#535 = PRODUCT ( 'User Library-CR3216-1206', 'User Library-CR3216-1206', '', ( #561 ) ) ;
#536 = LINE ( 'NONE', #912, #219 ) ;
#537 = LINE ( 'NONE', #242, #257 ) ;
#538 = ORIENTED_EDGE ( 'NONE', *, *, #952, .F. ) ;
#539 = ORIENTED_EDGE ( 'NONE', *, *, #1041, .F. ) ;
#540 = ADVANCED_FACE ( 'NONE', ( #483 ), #129, .F. ) ;
#541 = DIRECTION ( 'NONE',  ( 0.0000000000000000000, 0.0000000000000000000, 1.000000000000000000 ) ) ;
#542 = DIRECTION ( 'NONE',  ( -1.000000000000000000, -4.336808689942020201E-16, 3.614007241618348771E-16 ) ) ;
#543 = ORIENTED_EDGE ( 'NONE', *, *, #640, .F. ) ;
#544 = EDGE_CURVE ( 'NONE', #1182, #250, #396, .T. ) ;
#545 = EDGE_CURVE ( 'NONE', #960, #985, #776, .T. ) ;
#546 = CARTESIAN_POINT ( 'NONE',  ( -1.600000000000000311, 0.6000000000000000888, 0.8000000000000001554 ) ) ;
#547 = VECTOR ( 'NONE', #378, 1000.000000000000000 ) ;
#548 = ORIENTED_EDGE ( 'NONE', *, *, #952, .T. ) ;
#549 = AXIS2_PLACEMENT_3D ( 'NONE', #1145, #604, #1074 ) ;
#550 = VECTOR ( 'NONE', #340, 1000.000000000000000 ) ;
#551 = CARTESIAN_POINT ( 'NONE',  ( -1.549999999999999378, 0.05000000000000110606, -0.7999999999999998224 ) ) ;
#552 = SURFACE_STYLE_FILL_AREA ( #372 ) ;
#553 = CARTESIAN_POINT ( 'NONE',  ( 1.099999999999999423, -0.001000000000001000089, 0.6500000000000001332 ) ) ;
#554 = EDGE_CURVE ( 'NONE', #281, #739, #211, .T. ) ;
#555 = EDGE_LOOP ( 'NONE', ( #329, #696, #887, #582 ) ) ;
#556 = LINE ( 'NONE', #944, #809 ) ;
#557 = LINE ( 'NONE', #201, #1060 ) ;
#558 = ORIENTED_EDGE ( 'NONE', *, *, #554, .F. ) ;
#559 = EDGE_CURVE ( 'NONE', #114, #701, #761, .T. ) ;
#560 = DIRECTION ( 'NONE',  ( 2.710505431213760592E-16, 1.000000000000000000, 4.701977403289147842E-32 ) ) ;
#561 = PRODUCT_CONTEXT ( 'NONE', #38, 'mechanical' ) ;
#562 =( NAMED_UNIT ( * ) PLANE_ANGLE_UNIT ( ) SI_UNIT ( $, .RADIAN. ) );
#563 = LINE ( 'NONE', #97, #648 ) ;
#564 = ORIENTED_EDGE ( 'NONE', *, *, #736, .T. ) ;
#565 = AXIS2_PLACEMENT_3D ( 'NONE', #471, #206, #941 ) ;
#566 = PRESENTATION_LAYER_ASSIGNMENT (  '', '', ( #966 ) ) ;
#567 = LINE ( 'NONE', #951, #749 ) ;
#568 = VECTOR ( 'NONE', #993, 1000.000000000000000 ) ;
#569 = LINE ( 'NONE', #954, #831 ) ;
#570 = PLANE ( 'NONE',  #685 ) ;
#571 = ORIENTED_EDGE ( 'NONE', *, *, #166, .T. ) ;
#572 = CARTESIAN_POINT ( 'NONE',  ( 1.100000000000000533, 0.6000000000000003109, 0.7999999999999999334 ) ) ;
#573 = ADVANCED_FACE ( 'NONE', ( #492 ), #967, .F. ) ;
#574 = DIRECTION ( 'NONE',  ( 1.000000000000000000, 4.336808689942020201E-16, -0.0000000000000000000 ) ) ;
#575 = CARTESIAN_POINT ( 'NONE',  ( -1.550000000000000044, 0.5499999999999999334, -0.7999999999999998224 ) ) ;
#576 = CARTESIAN_POINT ( 'NONE',  ( -3.175781059358211866, 0.5999999999999994227, -0.7999999999999997113 ) ) ;
#577 = ORIENTED_EDGE ( 'NONE', *, *, #554, .T. ) ;
#578 =( NAMED_UNIT ( * ) SI_UNIT ( $, .STERADIAN. ) SOLID_ANGLE_UNIT ( ) );
#579 = CARTESIAN_POINT ( 'NONE',  ( 1.549999999999999822, 0.5499999999999999334, -0.8000000000000001554 ) ) ;
#580 = CARTESIAN_POINT ( 'NONE',  ( -1.550000000000000488, 0.05000000000000000971, 0.8000000000000001554 ) ) ;
#581 = DIRECTION ( 'NONE',  ( 1.000000000000000000, 0.0000000000000000000, 0.0000000000000000000 ) ) ;
#582 = ORIENTED_EDGE ( 'NONE', *, *, #1156, .T. ) ;
#583 = ORIENTED_EDGE ( 'NONE', *, *, #1168, .F. ) ;
#584 = VECTOR ( 'NONE', #351, 1000.000000000000000 ) ;
#585 = CARTESIAN_POINT ( 'NONE',  ( -3.175781059358211866, 0.5999999999999994227, 0.8000000000000001554 ) ) ;
#586 = VECTOR ( 'NONE', #44, 1000.000000000000000 ) ;
#587 = PRESENTATION_LAYER_ASSIGNMENT (  '', '', ( #733 ) ) ;
#588 = LINE ( 'NONE', #690, #1046 ) ;
#589 = CARTESIAN_POINT ( 'NONE',  ( 1.399999999999999467, 0.5499999999999999334, 0.6500000000000001332 ) ) ;
#590 = CARTESIAN_POINT ( 'NONE',  ( -1.600000000000000533, 2.710505431213761085E-16, 0.8000000000000001554 ) ) ;
#591 = ORIENTED_EDGE ( 'NONE', *, *, #734, .T. ) ;
#592 = EDGE_CURVE ( 'NONE', #1063, #357, #227, .T. ) ;
#593 = SURFACE_SIDE_STYLE ('',( #1064 ) ) ;
#594 = CARTESIAN_POINT ( 'NONE',  ( 1.399999999999999467, 0.6000000000000005329, 0.8000000000000000444 ) ) ;
#595 = DIRECTION ( 'NONE',  ( -2.282530889443167515E-16, 0.0000000000000000000, -1.000000000000000000 ) ) ;
#596 = DIRECTION ( 'NONE',  ( 1.000000000000000000, 0.0000000000000000000, 0.0000000000000000000 ) ) ;
#597 = ORIENTED_EDGE ( 'NONE', *, *, #524, .F. ) ;
#598 = ORIENTED_EDGE ( 'NONE', *, *, #932, .F. ) ;
#599 = EDGE_CURVE ( 'NONE', #1163, #50, #22, .T. ) ;
#600 = DIRECTION ( 'NONE',  ( 1.000000000000000000, 4.336808689942020201E-16, 3.614007241618348771E-16 ) ) ;
#601 = EDGE_CURVE ( 'NONE', #502, #985, #108, .T. ) ;
#602 = DIRECTION ( 'NONE',  ( -2.282530889443167515E-16, 0.0000000000000000000, -1.000000000000000000 ) ) ;
#603 = DIRECTION ( 'NONE',  ( -1.000000000000000000, 3.761581922631327032E-31, -1.734723475976807587E-16 ) ) ;
#604 = DIRECTION ( 'NONE',  ( -3.761581922631327032E-31, -1.000000000000000000, -1.019578823124771402E-46 ) ) ;
#605 = VERTEX_POINT ( 'NONE', #769 ) ;
#606 = ORIENTED_EDGE ( 'NONE', *, *, #1039, .F. ) ;
#607 = MANIFOLD_SOLID_BREP ( 'Extruir2', #212 ) ;
#608 = VECTOR ( 'NONE', #228, 1000.000000000000000 ) ;
#609 = CARTESIAN_POINT ( 'NONE',  ( 1.100000000000000533, 0.6000000000000003109, 0.7999999999999999334 ) ) ;
#610 = VECTOR ( 'NONE', #596, 1000.000000000000000 ) ;
#611 = LINE ( 'NONE', #319, #767 ) ;
#612 = VECTOR ( 'NONE', #602, 1000.000000000000000 ) ;
#613 = CARTESIAN_POINT ( 'NONE',  ( 1.099999999999999645, 0.6000000000000005329, 0.6500000000000001332 ) ) ;
#614 = VERTEX_POINT ( 'NONE', #1164 ) ;
#615 = EDGE_LOOP ( 'NONE', ( #37, #1122, #965, #75, #1176, #866, #2, #34 ) ) ;
#616 = CARTESIAN_POINT ( 'NONE',  ( 1.550000000000000266, 0.05000000000000083544, 0.7999999999999998224 ) ) ;
#617 = MANIFOLD_SOLID_BREP ( 'Extruir4[2]', #388 ) ;
#618 =( LENGTH_UNIT ( ) NAMED_UNIT ( * ) SI_UNIT ( .MILLI., .METRE. ) );
#619 = CARTESIAN_POINT ( 'NONE',  ( 1.549999999999999378, 0.05000000000000000278, -0.8000000000000001554 ) ) ;
#620 = EDGE_CURVE ( 'NONE', #367, #649, #307, .T. ) ;
#621 = DIRECTION ( 'NONE',  ( 0.0000000000000000000, -1.000000000000000000, 0.0000000000000000000 ) ) ;
#622 = ORIENTED_EDGE ( 'NONE', *, *, #124, .F. ) ;
#623 = ORIENTED_EDGE ( 'NONE', *, *, #681, .F. ) ;
#624 = DIRECTION ( 'NONE',  ( -1.000000000000000000, 0.0000000000000000000, -3.614007241618349264E-16 ) ) ;
#625 = PLANE ( 'NONE',  #889 ) ;
#626 = CARTESIAN_POINT ( 'NONE',  ( -1.100000000000000311, -2.168404344971008868E-16, -0.7999999999999999334 ) ) ;
#627 = ORIENTED_EDGE ( 'NONE', *, *, #858, .F. ) ;
#628 = ORIENTED_EDGE ( 'NONE', *, *, #1199, .F. ) ;
#629 = CARTESIAN_POINT ( 'NONE',  ( 1.100000000000000533, 0.5999999999999999778, 0.8000000000000004885 ) ) ;
#630 = VECTOR ( 'NONE', #140, 1000.000000000000000 ) ;
#631 = VECTOR ( 'NONE', #1150, 1000.000000000000000 ) ;
#632 = CARTESIAN_POINT ( 'NONE',  ( -1.100000000000000089, 0.5500000000000000444, -0.7999999999999999334 ) ) ;
#633 = DIRECTION ( 'NONE',  ( 1.000000000000000000, -0.0000000000000000000, -1.398970545142586541E-16 ) ) ;
#634 = AXIS2_PLACEMENT_3D ( 'NONE', #493, #126, #303 ) ;
#635 = ORIENTED_EDGE ( 'NONE', *, *, #1077, .T. ) ;
#636 = EDGE_CURVE ( 'NONE', #1062, #357, #1142, .T. ) ;
#637 = LINE ( 'NONE', #713, #850 ) ;
#638 = LINE ( 'NONE', #938, #1104 ) ;
#639 = EDGE_LOOP ( 'NONE', ( #1206, #677, #721, #1103 ) ) ;
#640 = EDGE_CURVE ( 'NONE', #203, #1128, #1099, .T. ) ;
#641 = EDGE_CURVE ( 'NONE', #231, #1133, #324, .T. ) ;
#642 = DIRECTION ( 'NONE',  ( 0.0000000000000000000, 0.0000000000000000000, 1.000000000000000000 ) ) ;
#643 = LINE ( 'NONE', #440, #664 ) ;
#644 = VERTEX_POINT ( 'NONE', #138 ) ;
#645 = DIRECTION ( 'NONE',  ( 2.710505431213760592E-16, 1.000000000000000000, 4.701977403289147842E-32 ) ) ;
#646 = EDGE_CURVE ( 'NONE', #502, #490, #514, .T. ) ;
#647 = CARTESIAN_POINT ( 'NONE',  ( 1.399999999999999245, -0.001000000000001000089, 0.8000000000000000444 ) ) ;
#648 = VECTOR ( 'NONE', #215, 1000.000000000000000 ) ;
#649 = VERTEX_POINT ( 'NONE', #504 ) ;
#650 = AXIS2_PLACEMENT_3D ( 'NONE', #118, #317, #1058 ) ;
#651 = AXIS2_PLACEMENT_3D ( 'NONE', #818, #338, #1089 ) ;
#652 = LINE ( 'NONE', #174, #1105 ) ;
#653 = EDGE_CURVE ( 'NONE', #875, #1051, #898, .T. ) ;
#654 = DIRECTION ( 'NONE',  ( 0.0000000000000000000, -1.000000000000000000, -0.0000000000000000000 ) ) ;
#655 = ORIENTED_EDGE ( 'NONE', *, *, #1213, .T. ) ;
#656 = CARTESIAN_POINT ( 'NONE',  ( 1.399999999999999467, 0.5499999999999999334, -0.8000000000000000444 ) ) ;
#657 = SURFACE_STYLE_FILL_AREA ( #186 ) ;
#658 = DIRECTION ( 'NONE',  ( 0.0000000000000000000, 0.0000000000000000000, -1.000000000000000000 ) ) ;
#659 = VERTEX_POINT ( 'NONE', #145 ) ;
#660 = DIRECTION ( 'NONE',  ( -1.000000000000000000, 3.761581922631327032E-31, 0.0000000000000000000 ) ) ;
#661 = PLANE ( 'NONE',  #290 ) ;
#662 = DIRECTION ( 'NONE',  ( 1.000000000000000000, 0.0000000000000000000, -0.0000000000000000000 ) ) ;
#663 = ORIENTED_EDGE ( 'NONE', *, *, #640, .T. ) ;
#664 = VECTOR ( 'NONE', #542, 1000.000000000000000 ) ;
#665 = VECTOR ( 'NONE', #904, 1000.000000000000000 ) ;
#666 = EDGE_CURVE ( 'NONE', #1051, #830, #423, .T. ) ;
#667 = DIRECTION ( 'NONE',  ( 1.000000000000000000, 4.336808689942020201E-16, -0.0000000000000000000 ) ) ;
#668 = AXIS2_PLACEMENT_3D ( 'NONE', #700, #229, #541 ) ;
#669 = DIRECTION ( 'NONE',  ( -2.282530889443167515E-16, 1.878171516282473717E-46, -1.000000000000000000 ) ) ;
#670 = DIRECTION ( 'NONE',  ( 2.710505431213761085E-16, 0.0000000000000000000, -1.000000000000000000 ) ) ;
#671 = PLANE ( 'NONE',  #1087 ) ;
#672 = ORIENTED_EDGE ( 'NONE', *, *, #498, .F. ) ;
#673 = DIRECTION ( 'NONE',  ( -0.0000000000000000000, -0.0000000000000000000, 1.000000000000000000 ) ) ;
#674 = DIRECTION ( 'NONE',  ( -1.000000000000000000, 3.761581922631327032E-31, -1.734723475976807587E-16 ) ) ;
#675 = FACE_OUTER_BOUND ( 'NONE', #381, .T. ) ;
#676 = FACE_OUTER_BOUND ( 'NONE', #496, .T. ) ;
#677 = ORIENTED_EDGE ( 'NONE', *, *, #256, .T. ) ;
#678 = FACE_OUTER_BOUND ( 'NONE', #949, .T. ) ;
#679 = CARTESIAN_POINT ( 'NONE',  ( 1.600000000000000533, -2.168404344971008868E-16, 0.7999999999999998224 ) ) ;
#680 = CARTESIAN_POINT ( 'NONE',  ( -1.100000000000000311, 0.5500000000000000444, 0.6499999999999996891 ) ) ;
#681 = EDGE_CURVE ( 'NONE', #1159, #341, #251, .T. ) ;
#682 = LINE ( 'NONE', #1056, #1028 ) ;
#683 = ORIENTED_EDGE ( 'NONE', *, *, #921, .T. ) ;
#684 = ORIENTED_EDGE ( 'NONE', *, *, #447, .F. ) ;
#685 = AXIS2_PLACEMENT_3D ( 'NONE', #479, #753, #864 ) ;
#686 = FILL_AREA_STYLE ('',( #197 ) ) ;
#687 = VECTOR ( 'NONE', #15, 1000.000000000000000 ) ;
#688 = MECHANICAL_DESIGN_GEOMETRIC_PRESENTATION_REPRESENTATION (  '', ( #390 ), #96 ) ;
#689 =( GEOMETRIC_REPRESENTATION_CONTEXT ( 3 ) GLOBAL_UNCERTAINTY_ASSIGNED_CONTEXT ( ( #896 ) ) GLOBAL_UNIT_ASSIGNED_CONTEXT ( ( #618, #507, #899 ) ) REPRESENTATION_CONTEXT ( 'NONE', 'WORKASPACE' ) );
#690 = CARTESIAN_POINT ( 'NONE',  ( -1.549999999999999378, 0.5499999999999991562, -0.7999999999999998224 ) ) ;
#691 = DIRECTION ( 'NONE',  ( -0.0000000000000000000, 0.0000000000000000000, 1.000000000000000000 ) ) ;
#692 = EDGE_CURVE ( 'NONE', #457, #605, #330, .T. ) ;
#693 = DIRECTION ( 'NONE',  ( 1.000000000000000000, 0.0000000000000000000, -2.282530889443167515E-16 ) ) ;
#694 = VERTEX_POINT ( 'NONE', #708 ) ;
#695 = EDGE_CURVE ( 'NONE', #281, #263, #1009, .T. ) ;
#696 = ORIENTED_EDGE ( 'NONE', *, *, #718, .F. ) ;
#697 = FILL_AREA_STYLE ('',( #387 ) ) ;
#698 = CARTESIAN_POINT ( 'NONE',  ( 1.100000000000000089, 0.05000000000000132117, -0.8000000000000000444 ) ) ;
#699 = LINE ( 'NONE', #619, #608 ) ;
#700 = CARTESIAN_POINT ( 'NONE',  ( -1.100000000000000311, 0.6000000000000003109, 0.8000000000000001554 ) ) ;
#701 = VERTEX_POINT ( 'NONE', #910 ) ;
#702 = ORIENTED_EDGE ( 'NONE', *, *, #1039, .T. ) ;
#703 = CARTESIAN_POINT ( 'NONE',  ( 1.549999999999999378, 0.5500000000000000444, -0.8000000000000001554 ) ) ;
#704 = DIRECTION ( 'NONE',  ( 3.614007241618348771E-16, -1.449776366014154666E-31, 1.000000000000000000 ) ) ;
#705 = CARTESIAN_POINT ( 'NONE',  ( 1.399999999999999467, 0.5499999999999999334, -0.6500000000000001332 ) ) ;
#706 = ORIENTED_EDGE ( 'NONE', *, *, #256, .F. ) ;
#707 = EDGE_LOOP ( 'NONE', ( #861, #902, #577, #714, #538, #43, #358, #1132 ) ) ;
#708 = CARTESIAN_POINT ( 'NONE',  ( -1.550000000000000488, 0.5500000000000000444, 0.8000000000000003775 ) ) ;
#709 = EDGE_CURVE ( 'NONE', #333, #1063, #59, .T. ) ;
#710 = VECTOR ( 'NONE', #872, 1000.000000000000000 ) ;
#711 = CARTESIAN_POINT ( 'NONE',  ( -1.549999999999999378, 0.5499999999999991562, -0.7999999999999998224 ) ) ;
#712 = VECTOR ( 'NONE', #221, 1000.000000000000000 ) ;
#713 = CARTESIAN_POINT ( 'NONE',  ( 1.100000000000000533, -2.168404344971008868E-16, 0.7999999999999999334 ) ) ;
#714 = ORIENTED_EDGE ( 'NONE', *, *, #505, .F. ) ;
#715 = VERTEX_POINT ( 'NONE', #722 ) ;
#716 = CARTESIAN_POINT ( 'NONE',  ( 3.175781059358211866, 0.5999999999999994227, 0.7999999999999993783 ) ) ;
#717 = DIRECTION ( 'NONE',  ( 2.710505431213760592E-16, 1.000000000000000000, 4.701977403289147842E-32 ) ) ;
#718 = EDGE_CURVE ( 'NONE', #715, #649, #534, .T. ) ;
#719 = LINE ( 'NONE', #1018, #934 ) ;
#720 = ORIENTED_EDGE ( 'NONE', *, *, #953, .T. ) ;
#721 = ORIENTED_EDGE ( 'NONE', *, *, #858, .T. ) ;
#722 = CARTESIAN_POINT ( 'NONE',  ( -1.600000000000000533, 2.710505431213761085E-16, 0.8000000000000001554 ) ) ;
#723 = CARTESIAN_POINT ( 'NONE',  ( -1.600000000000000311, 0.6000000000000000888, -0.7999999999999999334 ) ) ;
#724 = FACE_OUTER_BOUND ( 'NONE', #144, .T. ) ;
#725 = ADVANCED_FACE ( 'NONE', ( #121 ), #223, .T. ) ;
#726 = CARTESIAN_POINT ( 'NONE',  ( -1.399999999999999911, 0.6000000000000010880, 0.8000000000000000444 ) ) ;
#727 = ORIENTED_EDGE ( 'NONE', *, *, #734, .F. ) ;
#728 = LINE ( 'NONE', #139, #115 ) ;
#729 = VECTOR ( 'NONE', #670, 1000.000000000000000 ) ;
#730 = VECTOR ( 'NONE', #1224, 1000.000000000000000 ) ;
#731 = PLANE ( 'NONE',  #1106 ) ;
#732 = DIRECTION ( 'NONE',  ( 2.710505431213760592E-16, 1.000000000000000000, 0.0000000000000000000 ) ) ;
#733 = STYLED_ITEM ( 'NONE', ( #845 ), #1008 ) ;
#734 = EDGE_CURVE ( 'NONE', #50, #218, #481, .T. ) ;
#735 = EDGE_LOOP ( 'NONE', ( #1092, #42, #20, #855 ) ) ;
#736 = EDGE_CURVE ( 'NONE', #614, #341, #320, .T. ) ;
#737 = DIRECTION ( 'NONE',  ( 1.000000000000000000, 0.0000000000000000000, 0.0000000000000000000 ) ) ;
#738 = VERTEX_POINT ( 'NONE', #1050 ) ;
#739 = VERTEX_POINT ( 'NONE', #964 ) ;
#740 = DIRECTION ( 'NONE',  ( 2.683102166117815845E-47, 9.898899796398218314E-32, 1.000000000000000000 ) ) ;
#741 = DIRECTION ( 'NONE',  ( 0.0000000000000000000, 0.0000000000000000000, -1.000000000000000000 ) ) ;
#742 = CARTESIAN_POINT ( 'NONE',  ( 1.399999999999999245, -0.001000000000001000089, 0.8000000000000000444 ) ) ;
#743 = EDGE_LOOP ( 'NONE', ( #1076, #184, #188, #27 ) ) ;
#744 = CARTESIAN_POINT ( 'NONE',  ( -1.100000000000000311, 0.05000000000000012768, 0.8000000000000002665 ) ) ;
#745 = EDGE_CURVE ( 'NONE', #1191, #457, #976, .T. ) ;
#746 = AXIS2_PLACEMENT_3D ( 'NONE', #854, #654, #373 ) ;
#747 = FACE_OUTER_BOUND ( 'NONE', #406, .T. ) ;
#748 = ORIENTED_EDGE ( 'NONE', *, *, #217, .T. ) ;
#749 = VECTOR ( 'NONE', #914, 1000.000000000000000 ) ;
#750 = VECTOR ( 'NONE', #998, 1000.000000000000000 ) ;
#751 = DIRECTION ( 'NONE',  ( 2.282530889443158147E-16, -2.168404344970998613E-15, 1.000000000000000000 ) ) ;
#752 = CARTESIAN_POINT ( 'NONE',  ( -1.550000000000000044, 0.5499999999999999334, 0.8000000000000001554 ) ) ;
#753 = DIRECTION ( 'NONE',  ( 3.614007241618348771E-16, -5.093808853563249882E-32, -1.000000000000000000 ) ) ;
#754 = ORIENTED_EDGE ( 'NONE', *, *, #925, .T. ) ;
#755 = PLANE ( 'NONE',  #234 ) ;
#756 = FACE_OUTER_BOUND ( 'NONE', #163, .T. ) ;
#757 = PLANE ( 'NONE',  #484 ) ;
#758 = ADVANCED_FACE ( 'NONE', ( #127 ), #1061, .F. ) ;
#759 = ORIENTED_EDGE ( 'NONE', *, *, #458, .F. ) ;
#760 = ORIENTED_EDGE ( 'NONE', *, *, #653, .T. ) ;
#761 = LINE ( 'NONE', #862, #35 ) ;
#762 = DIRECTION ( 'NONE',  ( 1.000000000000000000, 0.0000000000000000000, 2.710505431213761085E-16 ) ) ;
#763 = CARTESIAN_POINT ( 'NONE',  ( -1.550000000000000488, 0.05000000000000002359, -0.7999999999999997113 ) ) ;
#764 = DIRECTION ( 'NONE',  ( -2.282530889443167515E-16, 0.0000000000000000000, -1.000000000000000000 ) ) ;
#765 = EDGE_LOOP ( 'NONE', ( #523, #224, #7, #720 ) ) ;
#766 = EDGE_CURVE ( 'NONE', #1190, #715, #313, .T. ) ;
#767 = VECTOR ( 'NONE', #1173, 1000.000000000000000 ) ;
#768 = VECTOR ( 'NONE', #740, 1000.000000000000000 ) ;
#769 = CARTESIAN_POINT ( 'NONE',  ( 1.100000000000000755, 0.5500000000000000444, 0.8000000000000004885 ) ) ;
#770 = AXIS2_PLACEMENT_3D ( 'NONE', #262, #474, #857 ) ;
#771 = PRODUCT_DEFINITION_FORMATION_WITH_SPECIFIED_SOURCE ( 'ANY', '', #535, .NOT_KNOWN. ) ;
#772 = LINE ( 'NONE', #29, #1162 ) ;
#773 = PLANE ( 'NONE',  #565 ) ;
#774 = DIRECTION ( 'NONE',  ( 9.403954806578259776E-31, -2.168404344970998613E-15, 1.000000000000000000 ) ) ;
#775 = VERTEX_POINT ( 'NONE', #393 ) ;
#776 = LINE ( 'NONE', #877, #271 ) ;
#777 = ADVANCED_FACE ( 'NONE', ( #880 ), #133, .F. ) ;
#778 = CARTESIAN_POINT ( 'NONE',  ( 1.100000000000000533, 0.5500000000000000444, -0.7999999999999996003 ) ) ;
#779 = DIRECTION ( 'NONE',  ( -1.000000000000000000, 2.185891476785291471E-18, -0.0000000000000000000 ) ) ;
#780 = PLANE ( 'NONE',  #1204 ) ;
#781 = ORIENTED_EDGE ( 'NONE', *, *, #641, .F. ) ;
#782 = ORIENTED_EDGE ( 'NONE', *, *, #559, .F. ) ;
#783 = LINE ( 'NONE', #585, #828 ) ;
#784 = EDGE_CURVE ( 'NONE', #1128, #490, #106, .T. ) ;
#785 = CARTESIAN_POINT ( 'NONE',  ( 1.100000000000000533, 0.3000000000000001554, 0.7999999999999999334 ) ) ;
#786 = CARTESIAN_POINT ( 'NONE',  ( -1.550000000000000488, 0.5500000000000000444, -0.7999999999999997113 ) ) ;
#787 = CARTESIAN_POINT ( 'NONE',  ( 1.100000000000000089, 0.05000000000000012768, -0.8000000000000000444 ) ) ;
#788 = ORIENTED_EDGE ( 'NONE', *, *, #475, .T. ) ;
#789 = CLOSED_SHELL ( 'NONE', ( #1207, #359, #159, #266, #980, #758, #1095, #198, #838, #725, #509, #337, #178, #920 ) ) ;
#790 = CARTESIAN_POINT ( 'NONE',  ( -3.175781059358211866, 0.5999999999999994227, -0.7999999999999997113 ) ) ;
#791 = COLOUR_RGB ( '',0.8980392156862745390, 0.9176470588235293713, 0.9294117647058823817 ) ;
#792 = FACE_OUTER_BOUND ( 'NONE', #432, .T. ) ;
#793 = CARTESIAN_POINT ( 'NONE',  ( -1.100000000000000089, 0.6000000000000010880, 0.6500000000000001332 ) ) ;
#794 = CARTESIAN_POINT ( 'NONE',  ( 1.600000000000000533, 0.6000000000000000888, 0.7999999999999998224 ) ) ;
#795 = ORIENTED_EDGE ( 'NONE', *, *, #437, .F. ) ;
#796 = UNCERTAINTY_MEASURE_WITH_UNIT (LENGTH_MEASURE( 1.000000000000000082E-05 ), #853, 'distance_accuracy_value', 'NONE');
#797 = ORIENTED_EDGE ( 'NONE', *, *, #419, .F. ) ;
#798 = PLANE ( 'NONE',  #94 ) ;
#799 = LINE ( 'NONE', #327, #434 ) ;
#800 = EDGE_LOOP ( 'NONE', ( #820, #684, #428, #86, #1109, #243, #92, #628 ) ) ;
#801 = ADVANCED_FACE ( 'NONE', ( #676 ), #671, .F. ) ;
#802 = ORIENTED_EDGE ( 'NONE', *, *, #653, .F. ) ;
#803 = CARTESIAN_POINT ( 'NONE',  ( -1.100000000000000311, 0.3000000000000001554, 0.8000000000000001554 ) ) ;
#804 = CARTESIAN_POINT ( 'NONE',  ( -1.600000000000000533, 0.6000000000000004219, 0.8000000000000001554 ) ) ;
#805 = CARTESIAN_POINT ( 'NONE',  ( 1.549999999999999378, 0.5500000000000000444, 0.7999999999999999334 ) ) ;
#806 = LINE ( 'NONE', #916, #176 ) ;
#807 = ORIENTED_EDGE ( 'NONE', *, *, #1213, .F. ) ;
#808 = VERTEX_POINT ( 'NONE', #511 ) ;
#809 = VECTOR ( 'NONE', #1026, 1000.000000000000000 ) ;
#810 = VECTOR ( 'NONE', #84, 1000.000000000000000 ) ;
#811 = CARTESIAN_POINT ( 'NONE',  ( -1.100000000000000089, 0.5999999999999999778, -0.7999999999999999334 ) ) ;
#812 = VECTOR ( 'NONE', #621, 1000.000000000000000 ) ;
#813 = LINE ( 'NONE', #1189, #968 ) ;
#814 = ORIENTED_EDGE ( 'NONE', *, *, #346, .F. ) ;
#815 = ORIENTED_EDGE ( 'NONE', *, *, #411, .T. ) ;
#816 = CARTESIAN_POINT ( 'NONE',  ( -1.100000000000000311, 0.5500000000000000444, -0.7999999999999998224 ) ) ;
#817 = EDGE_CURVE ( 'NONE', #649, #924, #682, .T. ) ;
#818 = CARTESIAN_POINT ( 'NONE',  ( -1.550000000000000044, 0.05000000000000012768, -0.7999999999999998224 ) ) ;
#819 = ORIENTED_EDGE ( 'NONE', *, *, #480, .F. ) ;
#820 = ORIENTED_EDGE ( 'NONE', *, *, #544, .T. ) ;
#821 =( NAMED_UNIT ( * ) PLANE_ANGLE_UNIT ( ) SI_UNIT ( $, .RADIAN. ) );
#822 = ADVANCED_FACE ( 'NONE', ( #501 ), #33, .F. ) ;
#823 = CARTESIAN_POINT ( 'NONE',  ( -1.399999999999999911, 0.6000000000000010880, -0.6500000000000001332 ) ) ;
#824 = EDGE_CURVE ( 'NONE', #933, #203, #405, .T. ) ;
#825 = ORIENTED_EDGE ( 'NONE', *, *, #6, .T. ) ;
#826 = ORIENTED_EDGE ( 'NONE', *, *, #1127, .T. ) ;
#827 = AXIS2_PLACEMENT_3D ( 'NONE', #326, #704, #120 ) ;
#828 = VECTOR ( 'NONE', #667, 1000.000000000000000 ) ;
#829 = DIRECTION ( 'NONE',  ( 0.0000000000000000000, -1.000000000000000000, 0.0000000000000000000 ) ) ;
#830 = VERTEX_POINT ( 'NONE', #208 ) ;
#831 = VECTOR ( 'NONE', #101, 1000.000000000000000 ) ;
#832 = ADVANCED_FACE ( 'NONE', ( #413 ), #780, .T. ) ;
#833 = ORIENTED_EDGE ( 'NONE', *, *, #636, .F. ) ;
#834 = CARTESIAN_POINT ( 'NONE',  ( -1.399999999999999911, 0.6000000000000010880, 0.8000000000000000444 ) ) ;
#835 = FACE_OUTER_BOUND ( 'NONE', #897, .T. ) ;
#836 = ORIENTED_EDGE ( 'NONE', *, *, #1053, .F. ) ;
#837 = ORIENTED_EDGE ( 'NONE', *, *, #49, .F. ) ;
#838 = ADVANCED_FACE ( 'NONE', ( #19 ), #1169, .F. ) ;
#839 = LINE ( 'NONE', #473, #810 ) ;
#840 = SHAPE_DEFINITION_REPRESENTATION ( #164, #279 ) ;
#841 = CARTESIAN_POINT ( 'NONE',  ( 1.099999999999999423, -0.001000000000001000089, -0.6500000000000001332 ) ) ;
#842 = DIRECTION ( 'NONE',  ( -0.0000000000000000000, -0.0000000000000000000, 1.000000000000000000 ) ) ;
#843 = ORIENTED_EDGE ( 'NONE', *, *, #1034, .T. ) ;
#844 = LINE ( 'NONE', #466, #60 ) ;
#845 = PRESENTATION_STYLE_ASSIGNMENT (( #931 ) ) ;
#846 = VECTOR ( 'NONE', #1195, 1000.000000000000000 ) ;
#847 = DIRECTION ( 'NONE',  ( -1.000000000000000000, 2.185891476785291471E-18, -0.0000000000000000000 ) ) ;
#848 = AXIS2_PLACEMENT_3D ( 'NONE', #572, #1147, #979 ) ;
#849 = VERTEX_POINT ( 'NONE', #705 ) ;
#850 = VECTOR ( 'NONE', #420, 1000.000000000000000 ) ;
#851 = CARTESIAN_POINT ( 'NONE',  ( -1.400000000000000133, -0.001000000000000349568, 0.6500000000000001332 ) ) ;
#852 = EDGE_CURVE ( 'NONE', #875, #13, #64, .T. ) ;
#853 =( LENGTH_UNIT ( ) NAMED_UNIT ( * ) SI_UNIT ( .MILLI., .METRE. ) );
#854 = CARTESIAN_POINT ( 'NONE',  ( 1.549999999999999822, 0.05000000000000012768, -0.8000000000000001554 ) ) ;
#855 = ORIENTED_EDGE ( 'NONE', *, *, #867, .T. ) ;
#856 = DIRECTION ( 'NONE',  ( 1.000000000000000000, 4.336808689942020201E-16, -0.0000000000000000000 ) ) ;
#857 = DIRECTION ( 'NONE',  ( 0.0000000000000000000, -0.0000000000000000000, -1.000000000000000000 ) ) ;
#858 = EDGE_CURVE ( 'NONE', #1070, #172, #1004, .T. ) ;
#859 = CARTESIAN_POINT ( 'NONE',  ( -1.399999999999999911, 0.5499999999999999334, -0.8000000000000000444 ) ) ;
#860 = EDGE_CURVE ( 'NONE', #172, #341, #806, .T. ) ;
#861 = ORIENTED_EDGE ( 'NONE', *, *, #31, .F. ) ;
#862 = CARTESIAN_POINT ( 'NONE',  ( -1.550000000000000488, 0.05000000000000000971, -0.8000000000000001554 ) ) ;
#863 = CARTESIAN_POINT ( 'NONE',  ( 2.700781059358212222, 0.5999999999999999778, -0.7999999999999992673 ) ) ;
#864 = DIRECTION ( 'NONE',  ( -1.000000000000000000, 0.0000000000000000000, -3.614007241618348771E-16 ) ) ;
#865 = DIRECTION ( 'NONE',  ( 2.282530889443167515E-16, 0.0000000000000000000, 1.000000000000000000 ) ) ;
#866 = ORIENTED_EDGE ( 'NONE', *, *, #16, .T. ) ;
#867 = EDGE_CURVE ( 'NONE', #659, #367, #813, .T. ) ;
#868 = VECTOR ( 'NONE', #185, 1000.000000000000000 ) ;
#869 = DIRECTION ( 'NONE',  ( 0.0000000000000000000, -1.000000000000000000, 0.0000000000000000000 ) ) ;
#870 = VECTOR ( 'NONE', #424, 1000.000000000000000 ) ;
#871 = LINE ( 'NONE', #863, #80 ) ;
#872 = DIRECTION ( 'NONE',  ( -1.000000000000000000, 4.336808689942020201E-16, -3.614007241618348771E-16 ) ) ;
#873 = DIRECTION ( 'NONE',  ( 1.000000000000000000, 0.0000000000000000000, -2.282530889443167515E-16 ) ) ;
#874 = ORIENTED_EDGE ( 'NONE', *, *, #695, .T. ) ;
#875 = VERTEX_POINT ( 'NONE', #258 ) ;
#876 = EDGE_CURVE ( 'NONE', #1062, #739, #41, .T. ) ;
#877 = CARTESIAN_POINT ( 'NONE',  ( 1.549999999999999156, 0.5499999999999991562, -0.8000000000000001554 ) ) ;
#878 = PLANE ( 'NONE',  #412 ) ;
#879 = PLANE ( 'NONE',  #132 ) ;
#880 = FACE_OUTER_BOUND ( 'NONE', #57, .T. ) ;
#881 = ORIENTED_EDGE ( 'NONE', *, *, #302, .T. ) ;
#882 = ORIENTED_EDGE ( 'NONE', *, *, #592, .T. ) ;
#883 = DIRECTION ( 'NONE',  ( 2.282530889443167515E-16, 0.0000000000000000000, 1.000000000000000000 ) ) ;
#884 = CARTESIAN_POINT ( 'NONE',  ( -1.399999999999999911, 0.6000000000000010880, -0.8000000000000000444 ) ) ;
#885 = CARTESIAN_POINT ( 'NONE',  ( 1.100000000000000533, 0.5999999999999999778, 0.8000000000000011546 ) ) ;
#886 = EDGE_LOOP ( 'NONE', ( #825, #477, #122, #321 ) ) ;
#887 = ORIENTED_EDGE ( 'NONE', *, *, #1110, .F. ) ;
#888 = CARTESIAN_POINT ( 'NONE',  ( 1.399999999999999467, 0.6000000000000005329, 0.8000000000000000444 ) ) ;
#889 = AXIS2_PLACEMENT_3D ( 'NONE', #1003, #751, #153 ) ;
#890 = VECTOR ( 'NONE', #1054, 1000.000000000000000 ) ;
#891 = FACE_OUTER_BOUND ( 'NONE', #765, .T. ) ;
#892 = FACE_OUTER_BOUND ( 'NONE', #886, .T. ) ;
#893 = EDGE_CURVE ( 'NONE', #933, #13, #907, .T. ) ;
#894 = CARTESIAN_POINT ( 'NONE',  ( -1.100000000000000311, 0.02500000000000044548, 1.084202172485504434E-16 ) ) ;
#895 = EDGE_LOOP ( 'NONE', ( #1001, #249, #994, #623 ) ) ;
#896 = UNCERTAINTY_MEASURE_WITH_UNIT (LENGTH_MEASURE( 1.000000000000000082E-05 ), #618, 'distance_accuracy_value', 'NONE');
#897 = EDGE_LOOP ( 'NONE', ( #1068, #342, #655, #826 ) ) ;
#898 = LINE ( 'NONE', #716, #930 ) ;
#899 =( NAMED_UNIT ( * ) SI_UNIT ( $, .STERADIAN. ) SOLID_ANGLE_UNIT ( ) );
#900 = PLANE ( 'NONE',  #827 ) ;
#901 = CARTESIAN_POINT ( 'NONE',  ( 1.600000000000000089, -2.168404344971008868E-16, -0.8000000000000002665 ) ) ;
#902 = ORIENTED_EDGE ( 'NONE', *, *, #695, .F. ) ;
#903 = ORIENTED_EDGE ( 'NONE', *, *, #302, .F. ) ;
#904 = DIRECTION ( 'NONE',  ( -1.000000000000000000, 0.0000000000000000000, 2.282530889443167515E-16 ) ) ;
#905 = LINE ( 'NONE', #63, #238 ) ;
#906 = DIRECTION ( 'NONE',  ( -1.000000000000000000, 0.0000000000000000000, 1.398970545142586541E-16 ) ) ;
#907 = LINE ( 'NONE', #69, #1088 ) ;
#908 = ORIENTED_EDGE ( 'NONE', *, *, #876, .T. ) ;
#909 = ORIENTED_EDGE ( 'NONE', *, *, #287, .F. ) ;
#910 = CARTESIAN_POINT ( 'NONE',  ( -1.550000000000000488, 0.05000000000000000971, 0.8000000000000001554 ) ) ;
#911 = EDGE_CURVE ( 'NONE', #218, #1083, #517, .T. ) ;
#912 = CARTESIAN_POINT ( 'NONE',  ( -1.600000000000000311, 0.6000000000000000888, -0.7999999999999999334 ) ) ;
#913 = VECTOR ( 'NONE', #47, 1000.000000000000000 ) ;
#914 = DIRECTION ( 'NONE',  ( 1.000000000000000000, -0.0000000000000000000, -3.614007241618349264E-16 ) ) ;
#915 = VECTOR ( 'NONE', #325, 1000.000000000000000 ) ;
#916 = CARTESIAN_POINT ( 'NONE',  ( 1.399999999999999467, 0.6000000000000005329, -0.8000000000000000444 ) ) ;
#917 = DIRECTION ( 'NONE',  ( -1.000000000000000000, 0.0000000000000000000, 3.614007241618348771E-16 ) ) ;
#918 = ORIENTED_EDGE ( 'NONE', *, *, #824, .T. ) ;
#919 = DIRECTION ( 'NONE',  ( 0.0000000000000000000, -1.000000000000000000, 0.0000000000000000000 ) ) ;
#920 = ADVANCED_FACE ( 'NONE', ( #724 ), #1015, .F. ) ;
#921 = EDGE_CURVE ( 'NONE', #1016, #203, #637, .T. ) ;
#922 = CARTESIAN_POINT ( 'NONE',  ( 1.549999999999999156, 0.5499999999999991562, -0.8000000000000001554 ) ) ;
#923 = VERTEX_POINT ( 'NONE', #632 ) ;
#924 = VERTEX_POINT ( 'NONE', #626 ) ;
#925 = EDGE_CURVE ( 'NONE', #605, #644, #719, .T. ) ;
#926 = FILL_AREA_STYLE_COLOUR ( '', #1013 ) ;
#927 = DIRECTION ( 'NONE',  ( 1.000000000000000000, 0.0000000000000000000, 0.0000000000000000000 ) ) ;
#928 = ORIENTED_EDGE ( 'NONE', *, *, #395, .F. ) ;
#929 = AXIS2_PLACEMENT_3D ( 'NONE', #78, #369, #1117 ) ;
#930 = VECTOR ( 'NONE', #436, 1000.000000000000000 ) ;
#931 = SURFACE_STYLE_USAGE ( .BOTH. , #461 ) ;
#932 = EDGE_CURVE ( 'NONE', #357, #281, #799, .T. ) ;
#933 = VERTEX_POINT ( 'NONE', #901 ) ;
#934 = VECTOR ( 'NONE', #1174, 1000.000000000000000 ) ;
#935 = ORIENTED_EDGE ( 'NONE', *, *, #49, .T. ) ;
#936 = PLANE ( 'NONE',  #948 ) ;
#937 =( NAMED_UNIT ( * ) PLANE_ANGLE_UNIT ( ) SI_UNIT ( $, .RADIAN. ) );
#938 = CARTESIAN_POINT ( 'NONE',  ( -1.550000000000000488, 0.5500000000000000444, -0.7999999999999997113 ) ) ;
#939 = EDGE_LOOP ( 'NONE', ( #236, #748, #539, #482 ) ) ;
#940 = CARTESIAN_POINT ( 'NONE',  ( -1.600000000000000311, -2.168404344971008868E-16, 0.8000000000000001554 ) ) ;
#941 = DIRECTION ( 'NONE',  ( -2.282530889443167515E-16, 0.0000000000000000000, -1.000000000000000000 ) ) ;
#942 = ORIENTED_EDGE ( 'NONE', *, *, #1077, .F. ) ;
#943 = ADVANCED_FACE ( 'NONE', ( #1096 ), #162, .F. ) ;
#944 = CARTESIAN_POINT ( 'NONE',  ( -1.550000000000000488, 0.5500000000000000444, 0.8000000000000003775 ) ) ;
#945 =( NAMED_UNIT ( * ) SI_UNIT ( $, .STERADIAN. ) SOLID_ANGLE_UNIT ( ) );
#946 = VECTOR ( 'NONE', #456, 1000.000000000000000 ) ;
#947 = CARTESIAN_POINT ( 'NONE',  ( -3.175781059358211866, 0.5499999999999991562, 0.8000000000000001554 ) ) ;
#948 = AXIS2_PLACEMENT_3D ( 'NONE', #1123, #277, #660 ) ;
#949 = EDGE_LOOP ( 'NONE', ( #269, #348, #548, #1170 ) ) ;
#950 =( GEOMETRIC_REPRESENTATION_CONTEXT ( 3 ) GLOBAL_UNCERTAINTY_ASSIGNED_CONTEXT ( ( #225 ) ) GLOBAL_UNIT_ASSIGNED_CONTEXT ( ( #267, #937, #194 ) ) REPRESENTATION_CONTEXT ( 'NONE', 'WORKASPACE' ) );
#951 = CARTESIAN_POINT ( 'NONE',  ( -1.100000000000000089, 0.6000000000000010880, -0.6500000000000001332 ) ) ;
#952 = EDGE_CURVE ( 'NONE', #250, #978, #235, .T. ) ;
#953 = EDGE_CURVE ( 'NONE', #738, #367, #537, .T. ) ;
#954 = CARTESIAN_POINT ( 'NONE',  ( -1.400000000000000133, -0.001000000000000349568, -0.6500000000000001332 ) ) ;
#955 = CARTESIAN_POINT ( 'NONE',  ( -1.399999999999999911, 0.5499999999999999334, -0.6500000000000001332 ) ) ;
#956 = VERTEX_POINT ( 'NONE', #345 ) ;
#957 = LINE ( 'NONE', #104, #712 ) ;
#958 = DIRECTION ( 'NONE',  ( -1.734723475976807094E-16, 0.0000000000000000000, 1.000000000000000000 ) ) ;
#959 = DIRECTION ( 'NONE',  ( 0.0000000000000000000, -1.000000000000000000, 0.0000000000000000000 ) ) ;
#960 = VERTEX_POINT ( 'NONE', #922 ) ;
#961 = CARTESIAN_POINT ( 'NONE',  ( 1.399999999999999245, 0.5499999999999999334, 0.7999999999999998224 ) ) ;
#962 = CARTESIAN_POINT ( 'NONE',  ( 1.099999999999999645, 0.5500000000000000444, -0.6500000000000001332 ) ) ;
#963 = EDGE_CURVE ( 'NONE', #830, #1152, #443, .T. ) ;
#964 = CARTESIAN_POINT ( 'NONE',  ( -1.100000000000000311, 0.6000000000000003109, -0.6499999999999998002 ) ) ;
#965 = ORIENTED_EDGE ( 'NONE', *, *, #709, .F. ) ;
#966 = STYLED_ITEM ( 'NONE', ( #1052 ), #607 ) ;
#967 = PLANE ( 'NONE',  #650 ) ;
#968 = VECTOR ( 'NONE', #439, 1000.000000000000000 ) ;
#969 = CARTESIAN_POINT ( 'NONE',  ( -1.100000000000000089, 0.5500000000000000444, -0.6500000000000001332 ) ) ;
#970 = FACE_OUTER_BOUND ( 'NONE', #450, .T. ) ;
#971 = DIRECTION ( 'NONE',  ( -1.000000000000000000, 4.336808689942020201E-16, 2.282530889443167515E-16 ) ) ;
#972 = ORIENTED_EDGE ( 'NONE', *, *, #860, .F. ) ;
#973 = SURFACE_STYLE_USAGE ( .BOTH. , #593 ) ;
#974 = CARTESIAN_POINT ( 'NONE',  ( -3.175781059358211866, 0.5499999999999991562, 0.8000000000000001554 ) ) ;
#975 = LINE ( 'NONE', #1167, #9 ) ;
#976 = LINE ( 'NONE', #885, #255 ) ;
#977 = ORIENTED_EDGE ( 'NONE', *, *, #430, .F. ) ;
#978 = VERTEX_POINT ( 'NONE', #823 ) ;
#979 = DIRECTION ( 'NONE',  ( 2.282530889443167515E-16, 0.0000000000000000000, 1.000000000000000000 ) ) ;
#980 = ADVANCED_FACE ( 'NONE', ( #350 ), #731, .F. ) ;
#981 = DIRECTION ( 'NONE',  ( -0.0000000000000000000, -0.0000000000000000000, -1.000000000000000000 ) ) ;
#982 = CARTESIAN_POINT ( 'NONE',  ( 1.549999999999999378, 0.5500000000000000444, -0.8000000000000001554 ) ) ;
#983 = DIRECTION ( 'NONE',  ( 2.282530889443167515E-16, -1.878171516282473717E-46, 1.000000000000000000 ) ) ;
#984 = ORIENTED_EDGE ( 'NONE', *, *, #893, .T. ) ;
#985 = VERTEX_POINT ( 'NONE', #376 ) ;
#986 = AXIS2_PLACEMENT_3D ( 'NONE', #997, #147, #521 ) ;
#987 = CARTESIAN_POINT ( 'NONE',  ( 1.100000000000000089, 0.2999999999999999334, -0.8000000000000005995 ) ) ;
#988 = MECHANICAL_DESIGN_GEOMETRIC_PRESENTATION_REPRESENTATION (  '', ( #733 ), #950 ) ;
#989 = ADVANCED_FACE ( 'NONE', ( #1023 ), #455, .F. ) ;
#990 = CARTESIAN_POINT ( 'NONE',  ( 1.100000000000000755, 0.5999999999999999778, -0.7999999999999996003 ) ) ;
#991 = LINE ( 'NONE', #500, #1202 ) ;
#992 = EDGE_CURVE ( 'NONE', #956, #738, #361, .T. ) ;
#993 = DIRECTION ( 'NONE',  ( -1.000000000000000000, -0.0000000000000000000, 3.614007241618349264E-16 ) ) ;
#994 = ORIENTED_EDGE ( 'NONE', *, *, #860, .T. ) ;
#995 = ORIENTED_EDGE ( 'NONE', *, *, #601, .T. ) ;
#996 = CARTESIAN_POINT ( 'NONE',  ( 1.399999999999999467, 0.5499999999999996003, -0.8000000000000000444 ) ) ;
#997 = CARTESIAN_POINT ( 'NONE',  ( 3.175781059358211866, 0.5999999999999994227, 0.7999999999999993783 ) ) ;
#998 = DIRECTION ( 'NONE',  ( 2.683102166117815845E-47, 9.898899796398218314E-32, 1.000000000000000000 ) ) ;
#999 = ADVANCED_FACE ( 'NONE', ( #1205 ), #661, .F. ) ;
#1000 = ORIENTED_EDGE ( 'NONE', *, *, #1069, .T. ) ;
#1001 = ORIENTED_EDGE ( 'NONE', *, *, #419, .T. ) ;
#1002 = DIRECTION ( 'NONE',  ( -0.0000000000000000000, -1.000000000000000000, -0.0000000000000000000 ) ) ;
#1003 = CARTESIAN_POINT ( 'NONE',  ( 3.175781059358211866, 0.5999999999999994227, -0.8000000000000004885 ) ) ;
#1004 = LINE ( 'NONE', #247, #913 ) ;
#1005 = CARTESIAN_POINT ( 'NONE',  ( -3.175781059358211866, 0.5499999999999991562, -0.7999999999999998224 ) ) ;
#1006 = ADVANCED_FACE ( 'NONE', ( #756 ), #1124, .F. ) ;
#1007 = ORIENTED_EDGE ( 'NONE', *, *, #599, .F. ) ;
#1008 = MANIFOLD_SOLID_BREP ( 'Extruir3', #1118 ) ;
#1009 = LINE ( 'NONE', #1086, #310 ) ;
#1010 = VECTOR ( 'NONE', #311, 1000.000000000000000 ) ;
#1011 = VECTOR ( 'NONE', #158, 1000.000000000000000 ) ;
#1012 = SURFACE_STYLE_FILL_AREA ( #245 ) ;
#1013 = COLOUR_RGB ( '',0.09803921568627450844, 0.09803921568627450844, 0.09803921568627450844 ) ;
#1014 = PRESENTATION_LAYER_ASSIGNMENT (  '', '', ( #160 ) ) ;
#1015 = PLANE ( 'NONE',  #370 ) ;
#1016 = VERTEX_POINT ( 'NONE', #73 ) ;
#1017 = ORIENTED_EDGE ( 'NONE', *, *, #852, .T. ) ;
#1018 = CARTESIAN_POINT ( 'NONE',  ( 2.700781059358212222, 0.5500000000000000444, 0.8000000000000008216 ) ) ;
#1019 = ORIENTED_EDGE ( 'NONE', *, *, #1110, .T. ) ;
#1020 = VERTEX_POINT ( 'NONE', #1111 ) ;
#1021 = MANIFOLD_SOLID_BREP ( 'Extruir4[1]', #789 ) ;
#1022 = ADVANCED_FACE ( 'NONE', ( #835 ), #470, .F. ) ;
#1023 = FACE_OUTER_BOUND ( 'NONE', #639, .T. ) ;
#1024 = LINE ( 'NONE', #1115, #352 ) ;
#1025 = EDGE_LOOP ( 'NONE', ( #972, #627, #583, #134, #149, #802, #429, #564 ) ) ;
#1026 = DIRECTION ( 'NONE',  ( -0.0000000000000000000, -1.000000000000000000, -0.0000000000000000000 ) ) ;
#1027 = AXIS2_PLACEMENT_3D ( 'NONE', #233, #222, #906 ) ;
#1028 = VECTOR ( 'NONE', #113, 1000.000000000000000 ) ;
#1029 = PRESENTATION_STYLE_ASSIGNMENT (( #81 ) ) ;
#1030 = EDGE_LOOP ( 'NONE', ( #558, #598, #833, #908 ) ) ;
#1031 = FACE_OUTER_BOUND ( 'NONE', #353, .T. ) ;
#1032 = DIRECTION ( 'NONE',  ( -1.000000000000000000, -4.336808689942020201E-16, 0.0000000000000000000 ) ) ;
#1033 = CARTESIAN_POINT ( 'NONE',  ( 1.399999999999999245, -0.001000000000001000089, -0.6500000000000001332 ) ) ;
#1034 = EDGE_CURVE ( 'NONE', #1116, #1191, #4, .T. ) ;
#1035 = ORIENTED_EDGE ( 'NONE', *, *, #692, .T. ) ;
#1036 = CARTESIAN_POINT ( 'NONE',  ( -1.400000000000000133, -0.001000000000000349568, -0.8000000000000000444 ) ) ;
#1037 = DIRECTION ( 'NONE',  ( -2.710505431213761085E-16, -0.0000000000000000000, 1.000000000000000000 ) ) ;
#1038 = ORIENTED_EDGE ( 'NONE', *, *, #1053, .T. ) ;
#1039 = EDGE_CURVE ( 'NONE', #490, #1016, #17, .T. ) ;
#1040 = LINE ( 'NONE', #364, #868 ) ;
#1041 = EDGE_CURVE ( 'NONE', #294, #441, #588, .T. ) ;
#1042 = DIRECTION ( 'NONE',  ( 1.000000000000000000, 0.0000000000000000000, 3.614007241618348771E-16 ) ) ;
#1043 = CARTESIAN_POINT ( 'NONE',  ( 1.399999999999999467, 0.6000000000000005329, -0.6500000000000001332 ) ) ;
#1044 = VECTOR ( 'NONE', #645, 1000.000000000000000 ) ;
#1045 = ORIENTED_EDGE ( 'NONE', *, *, #379, .F. ) ;
#1046 = VECTOR ( 'NONE', #318, 1000.000000000000000 ) ;
#1047 = CARTESIAN_POINT ( 'NONE',  ( 1.100000000000000089, 0.5500000000000000444, -0.8000000000000000444 ) ) ;
#1048 = CARTESIAN_POINT ( 'NONE',  ( -1.600000000000000311, -2.168404344971008868E-16, -0.7999999999999999334 ) ) ;
#1049 = CARTESIAN_POINT ( 'NONE',  ( 2.700781059358212222, 0.5999999999999999778, -0.7999999999999992673 ) ) ;
#1050 = CARTESIAN_POINT ( 'NONE',  ( -1.550000000000000044, 0.05000000000000083544, 0.8000000000000001554 ) ) ;
#1051 = VERTEX_POINT ( 'NONE', #594 ) ;
#1052 = PRESENTATION_STYLE_ASSIGNMENT (( #973 ) ) ;
#1053 = EDGE_CURVE ( 'NONE', #605, #1116, #772, .T. ) ;
#1054 = DIRECTION ( 'NONE',  ( 2.282530889443167515E-16, 0.0000000000000000000, 1.000000000000000000 ) ) ;
#1055 = LINE ( 'NONE', #962, #710 ) ;
#1056 = CARTESIAN_POINT ( 'NONE',  ( -1.100000000000000311, -2.168404344971008868E-16, 0.8000000000000001554 ) ) ;
#1057 = EDGE_LOOP ( 'NONE', ( #525, #518, #1181, #1091 ) ) ;
#1058 = DIRECTION ( 'NONE',  ( 2.710505431213760592E-16, 1.000000000000000000, 0.0000000000000000000 ) ) ;
#1059 = CARTESIAN_POINT ( 'NONE',  ( 1.549999999999999378, 0.5500000000000000444, -0.8000000000000001554 ) ) ;
#1060 = VECTOR ( 'NONE', #847, 1000.000000000000000 ) ;
#1061 = PLANE ( 'NONE',  #11 ) ;
#1062 = VERTEX_POINT ( 'NONE', #969 ) ;
#1063 = VERTEX_POINT ( 'NONE', #499 ) ;
#1064 = SURFACE_STYLE_FILL_AREA ( #686 ) ;
#1065 =( GEOMETRIC_REPRESENTATION_CONTEXT ( 3 ) GLOBAL_UNCERTAINTY_ASSIGNED_CONTEXT ( ( #1161 ) ) GLOBAL_UNIT_ASSIGNED_CONTEXT ( ( #68, #821, #1080 ) ) REPRESENTATION_CONTEXT ( 'NONE', 'WORKASPACE' ) );
#1066 = DIRECTION ( 'NONE',  ( 2.710505431213761085E-16, 0.0000000000000000000, -1.000000000000000000 ) ) ;
#1067 = FACE_OUTER_BOUND ( 'NONE', #55, .T. ) ;
#1068 = ORIENTED_EDGE ( 'NONE', *, *, #74, .T. ) ;
#1069 = EDGE_CURVE ( 'NONE', #956, #333, #205, .T. ) ;
#1070 = VERTEX_POINT ( 'NONE', #297 ) ;
#1071 = SURFACE_STYLE_FILL_AREA ( #697 ) ;
#1072 = CARTESIAN_POINT ( 'NONE',  ( 1.549999999999999378, 0.05000000000000000278, -0.8000000000000001554 ) ) ;
#1073 = CARTESIAN_POINT ( 'NONE',  ( 1.099999999999999423, -0.001000000000001000089, -0.6500000000000001332 ) ) ;
#1074 = DIRECTION ( 'NONE',  ( 1.000000000000000000, -3.761581922631327032E-31, 0.0000000000000000000 ) ) ;
#1075 = ORIENTED_EDGE ( 'NONE', *, *, #371, .T. ) ;
#1076 = ORIENTED_EDGE ( 'NONE', *, *, #1034, .F. ) ;
#1077 = EDGE_CURVE ( 'NONE', #960, #137, #478, .T. ) ;
#1078 = DIRECTION ( 'NONE',  ( 0.0000000000000000000, -1.000000000000000000, 0.0000000000000000000 ) ) ;
#1079 = EDGE_CURVE ( 'NONE', #1191, #83, #871, .T. ) ;
#1080 =( NAMED_UNIT ( * ) SI_UNIT ( $, .STERADIAN. ) SOLID_ANGLE_UNIT ( ) );
#1081 = DIRECTION ( 'NONE',  ( -1.000000000000000000, 0.0000000000000000000, 2.282530889443167515E-16 ) ) ;
#1082 = DIRECTION ( 'NONE',  ( 2.710505431213760592E-16, 1.000000000000000000, 4.701977403289147842E-32 ) ) ;
#1083 = VERTEX_POINT ( 'NONE', #961 ) ;
#1084 = ORIENTED_EDGE ( 'NONE', *, *, #545, .T. ) ;
#1085 = AXIS2_PLACEMENT_3D ( 'NONE', #647, #1108, #732 ) ;
#1086 = CARTESIAN_POINT ( 'NONE',  ( -1.100000000000000089, 0.6000000000000010880, 0.6500000000000001332 ) ) ;
#1087 = AXIS2_PLACEMENT_3D ( 'NONE', #293, #12, #299 ) ;
#1088 = VECTOR ( 'NONE', #427, 1000.000000000000000 ) ;
#1089 = DIRECTION ( 'NONE',  ( 0.0000000000000000000, -0.0000000000000000000, -1.000000000000000000 ) ) ;
#1090 = DIRECTION ( 'NONE',  ( 0.0000000000000000000, 0.0000000000000000000, 1.000000000000000000 ) ) ;
#1091 = ORIENTED_EDGE ( 'NONE', *, *, #1127, .F. ) ;
#1092 = ORIENTED_EDGE ( 'NONE', *, *, #620, .T. ) ;
#1093 = DIRECTION ( 'NONE',  ( 2.710505431213760592E-16, 1.000000000000000000, 4.701977403289147842E-32 ) ) ;
#1094 = PLANE ( 'NONE',  #929 ) ;
#1095 = ADVANCED_FACE ( 'NONE', ( #397 ), #119, .F. ) ;
#1096 = FACE_OUTER_BOUND ( 'NONE', #180, .T. ) ;
#1097 = ORIENTED_EDGE ( 'NONE', *, *, #437, .T. ) ;
#1098 = ORIENTED_EDGE ( 'NONE', *, *, #1171, .T. ) ;
#1099 = LINE ( 'NONE', #987, #95 ) ;
#1100 = DIRECTION ( 'NONE',  ( -2.710505431213760592E-16, -1.000000000000000000, 0.0000000000000000000 ) ) ;
#1101 = DIRECTION ( 'NONE',  ( 0.0000000000000000000, 0.0000000000000000000, 1.000000000000000000 ) ) ;
#1102 = ADVANCED_FACE ( 'NONE', ( #109 ), #878, .F. ) ;
#1103 = ORIENTED_EDGE ( 'NONE', *, *, #125, .F. ) ;
#1104 = VECTOR ( 'NONE', #1101, 1000.000000000000000 ) ;
#1105 = VECTOR ( 'NONE', #560, 1000.000000000000000 ) ;
#1106 = AXIS2_PLACEMENT_3D ( 'NONE', #1107, #90, #1032 ) ;
#1107 = CARTESIAN_POINT ( 'NONE',  ( -3.175781059358211866, 0.5499999999999991562, -0.7999999999999998224 ) ) ;
#1108 = DIRECTION ( 'NONE',  ( 1.000000000000000000, -2.710505431213760592E-16, 0.0000000000000000000 ) ) ;
#1109 = ORIENTED_EDGE ( 'NONE', *, *, #61, .T. ) ;
#1110 = EDGE_CURVE ( 'NONE', #808, #715, #409, .T. ) ;
#1111 = CARTESIAN_POINT ( 'NONE',  ( -1.100000000000000533, 0.5999999999999999778, 0.8000000000000001554 ) ) ;
#1112 = ORIENTED_EDGE ( 'NONE', *, *, #932, .T. ) ;
#1113 = ORIENTED_EDGE ( 'NONE', *, *, #620, .F. ) ;
#1114 = CARTESIAN_POINT ( 'NONE',  ( 1.100000000000000533, 0.5999999999999999778, 0.8000000000000008216 ) ) ;
#1115 = CARTESIAN_POINT ( 'NONE',  ( -1.549999999999999378, 0.05000000000000110606, -0.7999999999999998224 ) ) ;
#1116 = VERTEX_POINT ( 'NONE', #778 ) ;
#1117 = DIRECTION ( 'NONE',  ( 2.282530889443167515E-16, 0.0000000000000000000, 1.000000000000000000 ) ) ;
#1118 = CLOSED_SHELL ( 'NONE', ( #1006, #469, #189, #777, #1119, #377 ) ) ;
#1119 = ADVANCED_FACE ( 'NONE', ( #792 ), #1148, .F. ) ;
#1120 = ORIENTED_EDGE ( 'NONE', *, *, #766, .T. ) ;
#1121 = AXIS2_PLACEMENT_3D ( 'NONE', #1198, #522, #154 ) ;
#1122 = ORIENTED_EDGE ( 'NONE', *, *, #592, .F. ) ;
#1123 = CARTESIAN_POINT ( 'NONE',  ( 2.700781059358212222, 0.5500000000000000444, 0.8000000000000008216 ) ) ;
#1124 = PLANE ( 'NONE',  #1221 ) ;
#1125 = ADVANCED_FACE ( 'NONE', ( #391 ), #1166, .F. ) ;
#1126 = DIRECTION ( 'NONE',  ( 0.0000000000000000000, 0.0000000000000000000, -1.000000000000000000 ) ) ;
#1127 = EDGE_CURVE ( 'NONE', #231, #239, #957, .T. ) ;
#1128 = VERTEX_POINT ( 'NONE', #698 ) ;
#1129 = DIRECTION ( 'NONE',  ( -1.000000000000000000, 0.0000000000000000000, 2.282530889443167515E-16 ) ) ;
#1130 = DIRECTION ( 'NONE',  ( -1.000000000000000000, 0.0000000000000000000, -1.734723475976807094E-16 ) ) ;
#1131 = FACE_OUTER_BOUND ( 'NONE', #939, .T. ) ;
#1132 = ORIENTED_EDGE ( 'NONE', *, *, #524, .T. ) ;
#1133 = VERTEX_POINT ( 'NONE', #1072 ) ;
#1134 = PLANE ( 'NONE',  #354 ) ;
#1135 = LINE ( 'NONE', #1048, #62 ) ;
#1136 = DIRECTION ( 'NONE',  ( -1.000000000000000000, 2.185891476785291856E-18, 0.0000000000000000000 ) ) ;
#1137 =( GEOMETRIC_REPRESENTATION_CONTEXT ( 3 ) GLOBAL_UNCERTAINTY_ASSIGNED_CONTEXT ( ( #36 ) ) GLOBAL_UNIT_ASSIGNED_CONTEXT ( ( #1177, #526, #1183 ) ) REPRESENTATION_CONTEXT ( 'NONE', 'WORKASPACE' ) );
#1138 = CARTESIAN_POINT ( 'NONE',  ( 3.175781059358211866, 0.5999999999999994227, -0.8000000000000004885 ) ) ;
#1139 = ORIENTED_EDGE ( 'NONE', *, *, #559, .T. ) ;
#1140 = VECTOR ( 'NONE', #309, 1000.000000000000000 ) ;
#1141 = EDGE_CURVE ( 'NONE', #165, #978, #569, .T. ) ;
#1142 = LINE ( 'NONE', #816, #465 ) ;
#1143 = CARTESIAN_POINT ( 'NONE',  ( 1.100000000000000089, 0.5999999999999999778, -0.7999999999999996003 ) ) ;
#1144 = CARTESIAN_POINT ( 'NONE',  ( 1.550000000000000266, 0.5499999999999999334, 0.7999999999999998224 ) ) ;
#1145 = CARTESIAN_POINT ( 'NONE',  ( 2.700781059358212222, 0.5999999999999999778, 0.8000000000000008216 ) ) ;
#1146 = EDGE_LOOP ( 'NONE', ( #672, #942, #1084, #400 ) ) ;
#1147 = DIRECTION ( 'NONE',  ( 1.000000000000000000, 0.0000000000000000000, -2.282530889443167515E-16 ) ) ;
#1148 = PLANE ( 'NONE',  #355 ) ;
#1149 = PLANE ( 'NONE',  #746 ) ;
#1150 = DIRECTION ( 'NONE',  ( 1.000000000000000000, -4.336808689942020201E-16, -3.614007241618348771E-16 ) ) ;
#1151 = ORIENTED_EDGE ( 'NONE', *, *, #545, .F. ) ;
#1152 = VERTEX_POINT ( 'NONE', #383 ) ;
#1153 = DIRECTION ( 'NONE',  ( -2.282530889443167515E-16, 0.0000000000000000000, -1.000000000000000000 ) ) ;
#1154 = DIRECTION ( 'NONE',  ( 0.0000000000000000000, 0.0000000000000000000, 1.000000000000000000 ) ) ;
#1155 = CARTESIAN_POINT ( 'NONE',  ( 1.100000000000000311, 0.02500000000000044548, -1.426581805901980621E-16 ) ) ;
#1156 = EDGE_CURVE ( 'NONE', #808, #924, #1135, .T. ) ;
#1157 = AXIS2_PLACEMENT_3D ( 'NONE', #1049, #958, #10 ) ;
#1158 = DIRECTION ( 'NONE',  ( -1.000000000000000000, 0.0000000000000000000, 2.282530889443167515E-16 ) ) ;
#1159 = VERTEX_POINT ( 'NONE', #996 ) ;
#1160 = AXIS2_PLACEMENT_3D ( 'NONE', #894, #581, #385 ) ;
#1161 = UNCERTAINTY_MEASURE_WITH_UNIT (LENGTH_MEASURE( 1.000000000000000082E-05 ), #68, 'distance_accuracy_value', 'NONE');
#1162 = VECTOR ( 'NONE', #669, 1000.000000000000000 ) ;
#1163 = VERTEX_POINT ( 'NONE', #130 ) ;
#1164 = CARTESIAN_POINT ( 'NONE',  ( 1.600000000000000089, 0.6000000000000000888, -0.8000000000000002665 ) ) ;
#1165 = MECHANICAL_DESIGN_GEOMETRIC_PRESENTATION_REPRESENTATION (  '', ( #160 ), #1065 ) ;
#1166 = PLANE ( 'NONE',  #510 ) ;
#1167 = CARTESIAN_POINT ( 'NONE',  ( 3.175781059358211866, 0.5499999999999991562, 0.7999999999999993783 ) ) ;
#1168 = EDGE_CURVE ( 'NONE', #1152, #1070, #349, .T. ) ;
#1169 = PLANE ( 'NONE',  #668 ) ;
#1170 = ORIENTED_EDGE ( 'NONE', *, *, #1141, .F. ) ;
#1171 = EDGE_CURVE ( 'NONE', #239, #114, #905, .T. ) ;
#1172 = EDGE_LOOP ( 'NONE', ( #491, #1035, #1038, #843 ) ) ;
#1173 = DIRECTION ( 'NONE',  ( 2.710505431213760592E-16, 1.000000000000000000, 4.701977403289147842E-32 ) ) ;
#1174 = DIRECTION ( 'NONE',  ( -1.000000000000000000, 3.761581922631327032E-31, -1.734723475976807587E-16 ) ) ;
#1175 = ORIENTED_EDGE ( 'NONE', *, *, #167, .F. ) ;
#1176 = ORIENTED_EDGE ( 'NONE', *, *, #1219, .F. ) ;
#1177 =( LENGTH_UNIT ( ) NAMED_UNIT ( * ) SI_UNIT ( .MILLI., .METRE. ) );
#1178 = CARTESIAN_POINT ( 'NONE',  ( 3.175781059358211866, 0.5499999999999991562, -0.8000000000000005995 ) ) ;
#1179 = DIRECTION ( 'NONE',  ( -1.000000000000000000, 4.336808689942020201E-16, 2.282530889443167515E-16 ) ) ;
#1180 = CARTESIAN_POINT ( 'NONE',  ( 1.399999999999999467, 0.5499999999999999334, 0.8000000000000000444 ) ) ;
#1181 = ORIENTED_EDGE ( 'NONE', *, *, #1171, .F. ) ;
#1182 = VERTEX_POINT ( 'NONE', #723 ) ;
#1183 =( NAMED_UNIT ( * ) SI_UNIT ( $, .STERADIAN. ) SOLID_ANGLE_UNIT ( ) );
#1184 = AXIS2_PLACEMENT_3D ( 'NONE', #305, #764, #873 ) ;
#1185 = EDGE_CURVE ( 'NONE', #924, #659, #39, .T. ) ;
#1186 = VECTOR ( 'NONE', #1154, 1000.000000000000000 ) ;
#1187 = PLANE ( 'NONE',  #651 ) ;
#1188 = LINE ( 'NONE', #656, #768 ) ;
#1189 = CARTESIAN_POINT ( 'NONE',  ( -1.100000000000000311, 0.05000000000000012768, -0.7999999999999998224 ) ) ;
#1190 = VERTEX_POINT ( 'NONE', #804 ) ;
#1191 = VERTEX_POINT ( 'NONE', #990 ) ;
#1192 = CARTESIAN_POINT ( 'NONE',  ( -1.399999999999999911, 0.5499999999999999334, 0.8000000000000000444 ) ) ;
#1193 = CARTESIAN_POINT ( 'NONE',  ( -1.550000000000000044, 0.5499999999999999334, -0.7999999999999998224 ) ) ;
#1194 = DIRECTION ( 'NONE',  ( 1.000000000000000000, 0.0000000000000000000, 0.0000000000000000000 ) ) ;
#1195 = DIRECTION ( 'NONE',  ( 0.0000000000000000000, 0.0000000000000000000, -1.000000000000000000 ) ) ;
#1196 = VERTEX_POINT ( 'NONE', #1197 ) ;
#1197 = CARTESIAN_POINT ( 'NONE',  ( 1.549999999999999378, 0.5500000000000000444, 0.7999999999999999334 ) ) ;
#1198 = CARTESIAN_POINT ( 'NONE',  ( 3.175781059358211866, 0.5499999999999991562, -0.8000000000000005995 ) ) ;
#1199 = EDGE_CURVE ( 'NONE', #1182, #808, #536, .T. ) ;
#1200 = LINE ( 'NONE', #726, #408 ) ;
#1201 = ORIENTED_EDGE ( 'NONE', *, *, #992, .F. ) ;
#1202 = VECTOR ( 'NONE', #603, 1000.000000000000000 ) ;
#1203 = VECTOR ( 'NONE', #1153, 1000.000000000000000 ) ;
#1204 = AXIS2_PLACEMENT_3D ( 'NONE', #794, #693, #489 ) ;
#1205 = FACE_OUTER_BOUND ( 'NONE', #276, .T. ) ;
#1206 = ORIENTED_EDGE ( 'NONE', *, *, #199, .T. ) ;
#1207 = ADVANCED_FACE ( 'NONE', ( #891 ), #1187, .F. ) ;
#1208 = ORIENTED_EDGE ( 'NONE', *, *, #199, .F. ) ;
#1209 = EDGE_CURVE ( 'NONE', #960, #1159, #442, .T. ) ;
#1210 = CARTESIAN_POINT ( 'NONE',  ( 1.600000000000000089, 0.6000000000000000888, -0.8000000000000002665 ) ) ;
#1211 = LINE ( 'NONE', #546, #846 ) ;
#1212 = ORIENTED_EDGE ( 'NONE', *, *, #31, .T. ) ;
#1213 = EDGE_CURVE ( 'NONE', #1196, #231, #728, .T. ) ;
#1214 = LINE ( 'NONE', #459, #77 ) ;
#1215 = DIRECTION ( 'NONE',  ( 1.734723475976807094E-16, 0.0000000000000000000, -1.000000000000000000 ) ) ;
#1216 = LINE ( 'NONE', #742, #584 ) ;
#1217 = ORIENTED_EDGE ( 'NONE', *, *, #646, .T. ) ;
#1218 = CARTESIAN_POINT ( 'NONE',  ( 1.600000000000000755, 2.710505431213761085E-16, 0.7999999999999998224 ) ) ;
#1219 = EDGE_CURVE ( 'NONE', #294, #956, #52, .T. ) ;
#1220 = VECTOR ( 'NONE', #1002, 1000.000000000000000 ) ;
#1221 = AXIS2_PLACEMENT_3D ( 'NONE', #177, #1215, #1130 ) ;
#1222 = FACE_OUTER_BOUND ( 'NONE', #1146, .T. ) ;
#1223 = ORIENTED_EDGE ( 'NONE', *, *, #709, .T. ) ;
#1224 = DIRECTION ( 'NONE',  ( 0.0000000000000000000, -1.000000000000000000, 0.0000000000000000000 ) ) ;
#1225 = APPLICATION_PROTOCOL_DEFINITION ( 'draft international standard', 'automotive_design', 1998, #426 ) ;
ENDSEC;
END-ISO-10303-21;
